ply
format ascii 1.0
comment VCGLIB generated
element vertex 1002
property float x
property float y
property float z
property float nx
property float ny
property float nz
element face 1842
property list uchar int vertex_indices
end_header
34.8991 75.49545 -232.1266 0.01005471 -0.9776933 -0.2097972 
-4.030101 82.11554 -233.9943 -0.9207978 -0.004051068 -0.3900193 
-8.047001 8.486343 -96.735 -0.118238 -0.8942925 -0.4315794 
-40.2768 20.95953 -91.8719 -0.9590777 -0.02525771 -0.2820145 
41.8231 94.66714 -345.1649 -0.3219779 0.9462676 -0.03013155 
15.6643 81.50845 -345.8464 -0.9802759 -0.1721661 0.097046 
186.2649 108.2964 -223.7868 0.9878074 0.1317386 0.08295463 
173.2231 118.4781 -224.266 0.3745797 0.8840319 0.2796028 
145.8362 108.9774 -339.5857 0.2118162 0.9649011 -0.1552407 
129.4173 14.56944 -6.499 0.7232961 -0.2702723 0.6354492 
104.3118 23.94464 -90.7081 0.7147831 -0.6734369 -0.1885947 
120.496 -3.565353 -13.5694 0.3221912 -0.9385656 -0.123643 
148.3348 90.20145 -338.0084 0.4756888 -0.8683526 -0.1402998 
44.9937 79.73935 -541.8632 0.8440223 0.002918014 -0.5363002 
40.9582 69.62433 -541.358 0.5022312 -0.8314548 -0.2375852 
44.3217 75.89133 -343.5876 -0.09909116 -0.9926838 0.06899158 
-24.57 60.60895 -544.873 -0.1849254 -0.9687559 0.1652713 
-43.0864 67.62125 -546.5879 -0.9120846 -0.1749165 0.370818 
-27.0686 79.38474 -546.4503 -0.3839928 0.9201509 0.07662813 
-13.292 41.57944 -83.8326 -0.4294484 0.8698701 0.2426937 
-27.8849 9.835144 -8.3448 -0.3236789 0.6305528 0.7054327 
-62.9797 -11.90067 -16.8192 -0.4720774 -0.1177762 0.8736542 
115.251 29.52774 -0.6669 0.2079853 0.7176155 0.664658 
110.751 41.73795 -83.7708 0.9138306 0.3302582 0.2363117 
38.4596 88.40015 -542.9354 0.2534355 0.9320433 -0.2589707 
155.4741 100.7434 -338.347 0.9249105 0.0498012 -0.376909 
176.4713 94.97293 -224.5326 0.5905515 -0.7949631 -0.1388623 
99.0668 57.03775 -77.8056 0.3372655 0.8547156 0.3946051 
31.651 99.00064 -231.86 -0.301543 0.9401851 0.1585052 
-22.6399 -23.25806 -21.2473 -0.1532583 -0.9708927 0.1840636 
-43.5067 57.26645 -582.332 -0.2963302 -0.9263632 0.2324645 
-42.5527 76.09384 -577.4615 -0.3714606 0.9243274 0.08738329 
-57.8038 67.11295 -586.0739 -0.6476212 0.7257711 0.2320414 
-47.4156 59.30423 -584.0076 -0.4580499 -0.8384269 0.2953481 
-61.7135 63.85544 -588.5423 -0.8035647 -0.4438311 0.3966078 
-98.7184 56.37433 -671.8896 -0.872044 -0.1405664 0.4688075 
-130.6247 50.43915 -726.2134 -0.6580342 -0.5054885 -0.558097 
-127.321 58.03723 -727.6998 -0.4797933 0.7894108 -0.3829217 
-53.0714 71.08664 -670.6024 0.4441914 0.7345545 -0.512956 
-49.0148 63.21255 -669.2235 0.7493747 -0.09023318 -0.6559692 
-109.3118 53.37134 -725.0701 0.4058688 -0.1149034 -0.9066795 
-109.7161 46.17224 -723.4281 0.4001402 -0.4496971 -0.7985364 
-90.0489 65.99924 -672.5859 -0.4212587 0.8983716 0.1243765 
-87.9002 49.43044 -670.1481 -0.2681048 -0.9292507 0.2541908 
-125.572 43.99074 -724.2786 -0.1401655 -0.9780678 -0.1540686 
-111.4651 60.21863 -726.8494 0.3167679 0.3922378 -0.8636016 
-50.9226 54.51785 -668.1646 0.4592428 -0.8380631 -0.2945273 
-260.9395 19.51494 -20.6233 -0.07242344 0.9973266 -0.009730401 
-179.601 9.328445 -0.0001 0.1262491 0.9919492 -0.009906872 
-260.928 19.54865 -0.0001 -0.04928925 0.9987833 -0.001604919 
-261.2482 18.60814 -55.484 0.1561927 0.9852872 -0.06937552 
-154.969 6.100342 -5.1883 0.1932995 0.9763274 -0.09705804 
-155.6838 4.000534 -13.9583 0.2567822 0.9160334 -0.3081327 
-261.8243 16.91585 -86.5636 0.1618696 0.9617608 -0.2209401 
-157.018 0.0813446 -21.777 0.3719349 0.7320452 -0.5707663 
-262.6286 14.55315 -111.7441 0.2435884 0.9392813 -0.2416927 
-158.8807 -5.390152 -28.1117 0.3380188 0.6699486 -0.6609933 
-263.6063 11.68114 -129.3094 0.3875473 0.8490199 -0.3591273 
-161.1448 -12.04095 -32.5307 0.3696871 0.443462 -0.8165004 
-264.6907 8.495636 -138.0625 0.5321716 0.2324738 -0.8140942 
-163.6561 -19.41795 -34.7327 0.3664758 0.1752373 -0.9137765 
-268.6153 -3.032562 -82.5786 -0.5061536 -0.8468535 -0.1632411 
-172.7445 -46.11476 -20.7745 -0.2688171 -0.8391836 -0.4727667 
-170.948 -40.83766 -27.3425 -0.1452949 -0.7987656 -0.5838347 
-267.8395 -0.7537537 -108.6862 -0.6156295 -0.7807828 -0.1066701 
-269.1564 -4.622162 -50.8433 -0.4850333 -0.868421 -0.1028967 
-173.9976 -49.79596 -12.7908 -0.3649267 -0.8877867 -0.2804696 
-269.4261 -5.414261 -15.6432 -0.5887977 -0.8074442 -0.03675832 
-174.6221 -51.63036 -3.9354 -0.4072335 -0.9093824 -0.08476175 
-196.6859 -40.85835 -0.0001 -0.4377239 -0.8990856 0.006550217 
-174.602 -51.57115 -0.0001 -0.413609 -0.9103174 0.01580726 
-166.2435 -27.01836 -34.5678 0.2826242 -0.2636078 -0.9222985 
-265.808 5.213638 -137.4068 -0.00168391 -0.7072292 -0.7069824 
-266.882 2.058838 -127.3871 -0.2930621 -0.9070798 -0.3021934 
-168.7306 -34.32416 -32.0471 0.06467698 -0.5917276 -0.8035392 
-151.5091 4.329636 -9.2625 0.01003328 0.9618597 -0.2733592 
-151.0281 0.7869415 -17.8936 0.008628169 0.8388103 -0.5443555 
243.8719 2.864548 0.0002 0.9236373 0.1253912 -0.3621756 
231.4713 6.300049 -18.9306 0.6369327 0.2414437 -0.7321351 
232.1537 1.273743 -19.5984 0.6792433 0.0620004 -0.7312897 
234.437 -15.54486 -9.7991 0.8442401 -0.4178763 -0.335616 
234.7003 -17.48506 -5.0723 0.8657635 -0.4669304 -0.1800821 
234.7902 -18.14676 0.0002 0.8661148 -0.4928367 -0.08341002 
201.9024 -15.60416 -39.5232 0.4456621 0.01783455 -0.8950236 
201.7061 -2.002151 -38.1764 0.4072013 0.2099576 -0.8888785 
111.5807 -31.68166 -74.0212 0.209804 -0.004542839 -0.9777329 
127.0988 -7.972366 -65.7503 0.3233578 0.2151327 -0.9214975 
111.5444 -9.217056 -71.499 0.1845107 0.2203227 -0.9578172 
-33.4275 -40.33716 -83.4088 -0.1337149 -0.03224112 -0.9904953 
130.2547 -5.081161 -63.7488 0.3059709 0.3054957 -0.9016952 
201.5232 10.67274 -34.228 0.3600363 0.35148 -0.8641965 
135.8769 11.43404 -56.0167 0.2904759 0.4184457 -0.8605387 
230.8355 10.98395 -16.9727 0.5925121 0.4205314 -0.6870828 
230.2895 15.00604 -13.8581 0.6126583 0.5937299 -0.5216652 
111.5105 11.71664 -64.1042 0.1729475 0.4259686 -0.8880541 
-38.9977 -1.784561 -72.2341 -0.1583453 0.4872731 -0.8587734 
-36.3108 -20.38086 -80.5667 -0.1427582 0.2374392 -0.9608552 
232.8361 -3.752655 -18.9306 0.7496312 -0.07442371 -0.6576582 
233.472 -8.436554 -16.9727 0.7670355 -0.2207315 -0.6024402 
234.018 -12.45866 -13.8581 0.8105797 -0.3361064 -0.4795759 
229.8704 18.09235 -9.7991 0.6151281 0.7024539 -0.3580168 
229.6071 20.03244 -5.0723 0.6185707 0.7673234 -0.1690712 
229.5172 20.69414 0.0002 0.6470001 0.7574709 -0.08734315 
202.6352 -66.36736 -10.2292 0.6760057 -0.6939374 -0.2479259 
111.7023 -106.8496 -37.0106 0.2469102 -0.8314649 -0.4976962 
111.7163 -115.5206 -19.158 0.2974181 -0.9179361 -0.2625562 
202.5594 -61.11716 -19.7615 0.6493375 -0.6057854 -0.4597662 
-22.6667 -114.8152 -21.5878 -0.1848645 -0.9529957 -0.2400507 
-23.7796 -107.1123 -41.7044 -0.116647 -0.8441823 -0.5232111 
111.4814 29.69273 -52.3409 0.1100416 0.6680835 -0.7359044 
-41.3049 14.18445 -58.9789 -0.2166807 0.7013779 -0.6790572 
201.3661 21.55704 -27.947 0.3371278 0.5766539 -0.7441876 
139.0709 27.19554 -44.8533 0.2560318 0.6297781 -0.733367 
136.9204 14.49934 -53.8795 0.2724259 0.5100892 -0.8158389 
-22.2872 -117.4425 0 -0.1895502 -0.9750734 -0.1153374 
111.7211 -118.4782 0.0001 0.1611231 -0.9769978 -0.1396954 
202.661 -68.15816 0.0001 0.616015 -0.7767618 -0.131022 
111.617 -54.14616 -71.499 0.2055142 -0.2432745 -0.9479354 
202.0988 -29.20616 -38.1764 0.5166529 -0.1748323 -0.8381548 
-30.5441 -60.29346 -80.5667 -0.103013 -0.3130128 -0.9441458 
92.7559 -54.96176 -72.702 0.07260092 -0.2577892 -0.9634697 
111.6509 -75.07986 -64.1042 0.2115451 -0.4583817 -0.8632119 
202.2817 -41.88116 -34.2281 0.5616816 -0.3637789 -0.7430874 
111.68 -93.05596 -52.3409 0.2729852 -0.6394065 -0.7187756 
-6.404401 -101.8623 -47.8949 0.03877658 -0.813145 -0.580768 
34.5776 -94.06896 -56.0704 0.04394873 -0.6918837 -0.7206702 
-24.6648 -100.9856 -50.3417 -0.157868 -0.8129747 -0.5604907 
70.902 -76.19276 -66.4789 0.06417433 -0.4587888 -0.8862249 
58.7836 -82.70126 -62.1293 0.0564884 -0.5988537 -0.7988638 
202.4388 -52.76537 -27.9471 0.6411127 -0.4752865 -0.6025589 
111.4591 43.48634 -37.0105 0.07573359 0.8297312 -0.5530015 
-43.0754 26.43794 -41.7044 -0.1628945 0.8407639 -0.5163153 
201.2455 29.90884 -19.7615 0.3326966 0.7599496 -0.5583813 
135.6877 39.82254 -32.3559 0.2263288 0.8106581 -0.5400081 
136.5769 37.35985 -34.4784 0.2388674 0.7020437 -0.6708778 
111.4451 52.15735 -19.158 0.1071666 0.9302656 -0.3508865 
-44.1883 34.14075 -21.5878 -0.1879508 0.9429752 -0.2747223 
201.1698 35.15904 -10.2292 0.3130375 0.902813 -0.2948498 
133.6147 47.95734 -16.9518 0.2055937 0.9371817 -0.2818186 
134.857 46.35693 -19.3154 0.2115183 0.8660313 -0.453045 
111.4403 55.11484 0.0001 0.07390431 0.9859157 -0.1500284 
-44.5679 36.76804 0 -0.2354503 0.9643306 -0.1209528 
201.144 36.94974 0.0002 0.3962628 0.9070465 -0.1422763 
126.5885 52.04735 0.0001 0.1956283 0.9660692 -0.1686417 
128.8526 51.24234 -1.9849 0.1970172 0.9674092 -0.1590714 
88.9897 -58.16046 -71.6182 0.07093109 -0.3723305 -0.9253858 
-108.2224 -25.01306 -57.5097 -0.3941 0.2194386 -0.8924864 
-149.266 -12.19296 -30.9926 -0.154221 0.4623204 -0.8731986 
-148.1049 -20.74565 -34.5678 -0.2199629 0.1998307 -0.9548215 
-111.7273 -12.41986 -51.5618 -0.3656945 0.4775102 -0.7989066 
-142.6897 -60.63466 -17.8936 -0.3989187 -0.8218047 -0.4068182 
-142.2088 -64.17735 -9.2625 -0.4070517 -0.8916309 -0.1982505 
-90.424 -88.96246 -15.4097 -0.4134776 -0.8854593 -0.2121278 
-91.8758 -83.74626 -29.7692 -0.411281 -0.8270855 -0.3831156 
-104.4612 -38.52716 -59.5384 -0.424092 -0.06983875 -0.9029223 
-150.2631 -4.848557 -25.3054 -0.1684011 0.6727757 -0.7204263 
-114.7371 -1.605865 -42.1 -0.3370202 0.6794052 -0.6517868 
-100.6999 -52.04126 -57.5097 -0.4155432 -0.3404805 -0.8434435 
-145.6129 -39.10207 -34.5678 -0.330721 -0.2817803 -0.9006795 
-144.4518 -47.65475 -30.9926 -0.3833674 -0.5267391 -0.7586669 
-97.195 -64.63435 -51.5618 -0.39988 -0.547006 -0.7354458 
-27.8573 -78.88976 -72.2341 -0.1120285 -0.5500693 -0.8275708 
-143.4547 -54.99916 -25.3054 -0.3843023 -0.7023328 -0.5991998 
-94.1853 -75.44836 -42.1 -0.3990433 -0.7148252 -0.5742729 
-146.8589 -29.92386 -35.7872 -0.2306342 -0.02854869 -0.9726216 
-117.0466 6.69194 -29.7692 -0.2976391 0.8400459 -0.4535789 
-118.4984 11.90823 -15.4097 -0.2750205 0.9403581 -0.2002261 
-151.6731 5.537949 -0.0001 0.01257104 0.9950549 -0.09852829 
-118.9936 13.68744 0 -0.2672768 0.9562442 -0.1189971 
-142.0447 -65.38567 -0.0001 -0.4009706 -0.913491 -0.06897056 
-89.9288 -90.74166 0 -0.4005854 -0.9107879 -0.09998341 
-25.55 -94.85886 -58.9789 -0.08753508 -0.7239029 -0.6843261 
-154.9424 6.178543 -0.0001 0.1595667 0.9870624 -0.01569588 
-269.4174 -5.388657 -0.0001 -0.6176622 -0.7864416 0.001747737 
-276.249 15.13124 -86.5636 -0.807649 0.589264 -0.02170701 
-276.0243 15.79124 -55.484 -0.06072417 0.998044 -0.01486189 
-277.3669 11.84734 -138.0625 -0.2762811 0.5421748 -0.7935461 
-276.9439 13.08974 -129.3094 -0.5584737 0.8257921 -0.07857872 
-276.5627 14.20975 -111.7441 -0.3199244 0.9458758 -0.05447482 
-277.8026 10.56734 -137.4068 -0.9734562 -0.00363505 -0.2288444 
-278.2215 9.337036 -127.3871 -0.7257717 -0.6714822 -0.1495568 
-278.5949 8.240036 -108.6862 -0.8547786 -0.5167221 -0.04849615 
-269.4447 17.61165 -0.0001 -0.2207361 0.975333 -0.001021842 
-278.8975 7.351334 -82.5786 -0.9491215 -0.3138245 -0.02612696 
-278.8513 7.487045 -86.5636 -0.4537947 -0.8903964 -0.03556234 
-279.1085 6.731445 -50.8433 -0.6879904 -0.7254429 -0.02004261 
-273.6445 -0.2986603 -0.0001 -0.7702077 -0.6377926 0.0008737464 
-279.2137 6.42244 -15.6432 -0.8212467 -0.5705346 -0.006647693 
-275.904 16.14484 -20.6233 -0.1240195 0.9922131 -0.01150446 
-275.8995 16.15804 -0.0001 -0.7470767 0.6647379 -0.000261269 
-279.2103 6.432434 -0.0001 -0.9835916 -0.1804091 0.0003294077 
-275.9641 15.96805 -38.0536 -0.8457819 0.533523 -0.00248188 
-279.1468 6.619141 -38.0536 -0.9918835 0.1271373 -0.00184982 
-77.5778 -98.07046 -20.1386 -0.3671056 0.5671331 0.7372879 
-76.0723 -109.9722 -18.1217 -0.2487777 -0.3682802 0.8958121 
-75.1003 -117.656 -27.5025 -0.756159 -0.6478729 0.09211052 
-78.1114 -93.85256 -31.5365 -0.6188824 0.7725558 -0.1419232 
-75.6338 -113.4381 -38.9003 0.07104442 -0.6327304 -0.7711063 
-77.1394 -101.5364 -40.9173 -0.6968976 0.1734761 -0.6958735 
-64.6675 -95.90466 -30.9105 -0.5414897 0.8273208 -0.1494301 
-63.9972 -101.2039 -37.38 -0.2383288 0.3152277 -0.9186028 
-64.2996 -98.81356 -23.0499 -0.0831535 0.6312162 0.7711366 
-63.2613 -107.0217 -21.6589 -0.2407085 -0.3681069 0.8980851 
-62.5909 -112.3209 -28.1284 -0.2557578 -0.9544274 0.1538067 
-62.9589 -109.412 -35.989 -0.02441077 -0.6412952 -0.7669059 
38.3757 -111.3486 -27.9642 0.659063 -0.7157455 0.230964 
39.1852 -105.4313 -20.7304 0.7179368 -0.3291515 0.6133727 
40.4392 -96.26586 -22.2857 0.3577055 0.568449 0.7408863 
40.8836 -93.01766 -31.0749 0.8270931 0.5124196 -0.2309617 
38.8201 -108.1004 -36.7533 0.1918746 -0.6436408 -0.7408851 
40.074 -98.93496 -38.3086 0.7799644 0.1242195 -0.6133718 
8.340899 -83.55276 -31.9098 0.5077719 0.8612587 0.0200256 
-3.7747 -82.21086 -31.9098 -0.3013148 0.9086664 -0.2890238 
7.096699 -92.64676 -43.0271 0.438485 0.2649056 -0.8588108 
-9.030701 -92.49806 -23.05 -0.3328324 0.5755663 0.7469578 
-7.992401 -100.7062 -21.6589 -0.4365318 -0.3711499 0.8195656 
-7.322101 -106.0054 -28.1285 -0.1177158 -0.98002 0.1603238 
-1.358101 -101.3143 -16.0119 -0.3722422 -0.3687933 0.8517202 
-0.2062006 -110.4204 -27.1291 -0.4127218 -0.8830184 0.223471 
12.083 -92.38636 -22.2857 0.350525 0.6454455 0.6786253 
12.5274 -89.13816 -31.0748 -0.08332528 0.9873323 -0.1350251 
5.169499 -106.7327 -40.6367 0.2966273 -0.6346863 -0.7135724 
-0.838501 -105.4217 -40.6367 -0.3078786 -0.6215428 -0.7203439 
4.486599 -111.7247 -27.1291 0.212993 -0.9768927 -0.01774173 
-7.690101 -103.0965 -35.989 -0.3952605 -0.6210456 -0.6768099 
-8.728401 -94.88836 -37.3801 -0.2949482 0.2998354 -0.907251 
5.7308 -102.6307 -16.0119 0.2692144 -0.4330862 0.8602093 
-3.142301 -87.20946 -18.4023 -0.3944898 0.5493204 0.7366308 
7.657899 -88.54476 -18.4023 0.5343987 0.4209298 0.732964 
-2.622801 -91.31696 -43.0271 -0.5145243 0.2349825 -0.8246502 
10.4639 -104.2209 -36.7533 0.2743598 -0.6374878 -0.7199556 
10.0195 -107.469 -27.9641 -0.34546 -0.9286683 0.1350287 
11.7178 -95.05536 -38.3086 -0.09144031 0.3617995 -0.9277607 
10.8291 -101.5518 -20.7304 -0.03970375 -0.281262 0.9588094 
-9.398701 -89.58916 -30.9105 -0.6228677 0.7691997 -0.1427153 
-115.2229 -94.25346 -9.0882 -0.330853 -0.767682 0.5488176 
-74.3653 -116.3518 -24.8433 0.2714603 -0.9550697 0.1189586 
-74.3207 -115.2144 -30.3021 0.006288179 -0.4740115 -0.8804963 
-113.7886 -92.94616 -19.4002 -0.9890584 -0.07257616 -0.1284376 
-115.2258 -90.07206 -28.669 -0.8425803 -0.2926717 0.4521081 
-125.7216 -81.51996 -38.0922 -0.9873946 0.1569969 -0.0200951 
-123.3651 -84.73666 -29.9025 -0.5508379 -0.2295009 0.8024382 
-126.382 -81.78966 -34.901 -0.9884855 0.01160554 0.1508701 
-123.3621 -88.91806 -10.3218 -0.8612372 0.02924591 0.507361 
-122.0413 -88.37876 -16.7043 -0.7735236 -0.3195914 -0.5472866 
-69.26 -108.1595 -23.0946 0.7210215 0.1676787 0.6723182 
-69.2155 -107.0221 -28.5534 0.9728358 0.1159392 -0.2003709 
-110.1176 -86.06116 -7.3395 0.3208133 0.482867 0.8148118 
-118.2569 -80.72566 -8.5731 -0.2951669 0.7485496 0.5937592 
-116.9361 -80.18646 -14.9556 -0.2338301 0.8577612 -0.4577874 
-108.6834 -84.75376 -17.6515 -0.2010517 0.9395225 0.2772647 
-110.1206 -81.87976 -26.9203 -0.365741 0.5747055 0.7320842 
-118.2598 -76.54426 -28.1539 -0.3750838 0.463924 0.8025501 
-121.2768 -73.59726 -33.1523 -0.1867949 0.9311766 0.3130781 
-120.6164 -73.32765 -36.3436 -0.6060602 0.7670298 -0.2106098 
-104.2221 -89.76206 -62.2467 -0.1448909 -0.5981841 -0.7881513 
-72.1719 -115.4563 -35.442 0.5099283 -0.6537364 -0.5591081 
-74.3207 -115.2144 -30.3021 -0.1622702 -0.9655742 0.2033097 
-107.0133 -90.17996 -52.1404 -0.7726806 -0.6286427 -0.08816483 
-112.0826 -88.78876 -43.8577 -0.560041 -0.2842305 -0.778182 
-125.7217 -81.52006 -38.0923 -0.8790807 -0.3838008 0.2826911 
-120.2219 -83.45336 -45.0913 -0.4903481 -0.2081547 -0.8463039 
-125.0613 -81.25036 -41.2835 -0.8487617 0.06865901 -0.5242991 
-112.3614 -84.42666 -63.4803 -0.681184 -0.4261576 -0.5952967 
-113.6822 -84.96586 -57.0978 -0.9200546 0.153548 0.3604476 
-67.0667 -107.264 -33.6933 0.9863962 -0.1633382 0.01852697 
-69.2154 -107.022 -28.5534 0.5212308 0.5612583 0.6428901 
-99.1169 -81.56966 -60.498 0.6826929 0.5370418 -0.4954962 
-107.2561 -76.23426 -61.7316 -0.06196165 0.8437626 -0.5331279 
-108.577 -76.77356 -55.3491 -0.42378 0.7802085 0.4600926 
-101.908 -81.98756 -50.3917 -0.06358138 0.9567354 0.2839276 
-106.9774 -80.59646 -42.109 0.3153929 0.9080768 -0.275543 
-115.1167 -75.26096 -43.3426 0.2953188 0.6581657 -0.692535 
-119.956 -73.05806 -39.5348 -0.522603 0.7329118 -0.4355761 
-120.6164 -73.32765 -36.3436 0.159674 0.8945052 0.4175701 
34.8992 75.49545 232.1265 -0.008551331 -0.9705406 0.2407859 
-4.030101 82.11554 233.9943 -0.9207975 -0.004050324 0.39002 
-8.0469 8.486237 96.7351 -0.1182378 -0.8942926 0.4315793 
-40.2767 20.95944 91.872 -0.9590777 -0.02525935 0.2820144 
41.8232 94.66714 345.1649 -0.2687807 0.9626375 0.03295354 
15.6644 81.50845 345.8464 -0.9802758 -0.1721668 -0.0970467 
186.2649 108.2964 223.7868 0.9878072 0.1317402 -0.08295491 
173.2231 118.4781 224.266 0.285459 0.9320996 -0.2229431 
145.8362 108.9772 339.5857 0.3552735 0.913181 0.1997028 
129.4174 14.56934 6.499 0.7232971 -0.270273 -0.6354478 
104.3119 23.94464 90.7081 0.714784 -0.6734357 0.1885952 
120.4961 -3.56546 13.5694 0.2945537 -0.9482754 -0.1183718 
148.3348 90.20145 338.0083 0.6047791 -0.7696505 0.2046473 
44.9937 79.73935 541.8632 0.8440222 0.002917603 0.5363003 
40.9582 69.62433 541.358 0.5023614 -0.8317851 0.2361496 
44.3217 75.89133 343.5876 -0.03115644 -0.9980193 -0.05465151 
-24.57 60.60895 544.873 -0.2114972 -0.9616032 -0.1748953 
-43.0864 67.62125 546.5879 -0.9092217 -0.1576245 -0.3853186 
-27.0686 79.38483 546.4503 -0.3889077 0.9185735 -0.07052356 
-13.292 41.57944 83.8326 -0.42945 0.8698694 -0.2426932 
-27.8849 9.835037 8.3448 -0.2549281 0.3639615 -0.895848 
-62.9796 -11.90067 16.8192 -0.4720782 -0.1177772 -0.8736537 
115.2511 29.52774 0.6669 0.2203674 0.8447785 -0.4876346 
110.751 41.73784 83.7708 0.9138308 0.3302584 -0.2363109 
38.4596 88.40015 542.9354 0.2534441 0.9324296 0.2575681 
155.4741 100.7434 338.347 0.9249103 0.04980289 0.3769092 
176.4713 94.97293 224.5326 0.518993 -0.8470476 0.1147025 
99.0668 57.03775 77.8057 0.3372659 0.8547157 -0.3946046 
31.651 99.00055 231.8599 -0.3244781 0.926963 -0.1882915 
-22.6398 -23.25806 21.2473 -0.173676 -0.9796366 0.1007414 
-43.5067 57.26645 582.332 -0.1487007 -0.9754865 -0.1622169 
-42.5527 76.09384 577.4615 -0.3714601 0.9243277 -0.08738255 
-57.8038 67.11295 586.0738 -0.6476219 0.7257703 -0.2320418 
-47.4156 59.30423 584.0076 -0.4580494 -0.8384274 -0.2953478 
-61.7135 63.85544 588.5422 -0.9144042 0.0550939 -0.4010358 
-98.7184 56.37433 671.8896 -0.8617291 -0.1615245 -0.4809707 
-130.6247 50.43915 726.2133 -0.6580332 -0.5054884 0.5580984 
-127.321 58.03723 727.6998 -0.6373635 0.7642925 0.09810596 
-53.0714 71.08664 670.6023 0.4446518 0.7356896 0.5109261 
-49.0148 63.21255 669.2234 0.7493747 -0.09023184 0.6559693 
-109.3118 53.37143 725.0701 0.4058709 -0.114903 0.9066786 
-109.7161 46.17224 723.428 0.4375897 -0.6710181 0.5985398 
-90.0489 65.99933 672.5858 -0.4695747 0.8711489 -0.1435246 
-87.9002 49.43044 670.148 -0.3149595 -0.9103771 -0.2683544 
-125.572 43.99074 724.2786 -0.1818221 -0.7867101 0.589939 
-111.4651 60.21863 726.8493 0.1826752 0.4817484 0.857058 
-50.9226 54.51785 668.1646 0.4595894 -0.8390386 0.2911906 
-260.9395 19.51494 20.6231 -0.04733744 0.9988155 0.01126016 
-179.6009 9.328445 0 0.1262496 0.991949 0.009908834 
-260.928 19.54874 0 -0.04928878 0.9987833 0.001609362 
-261.2482 18.60825 55.4839 -0.04957565 0.9971911 0.05614521 
-154.969 6.100342 5.1882 0.1932944 0.9763283 0.09705917 
-155.6838 4.000534 13.9582 0.2567827 0.9160331 0.3081332 
-261.8243 16.91585 86.5635 0.1618696 0.9617606 0.2209405 
-157.018 0.0813446 21.7769 0.3719332 0.7320486 0.5707632 
-262.6287 14.55315 111.7439 0.2435886 0.9392809 0.2416942 
-158.8807 -5.390152 28.1117 0.3380204 0.6699481 0.6609931 
-263.6064 11.68114 129.3092 0.3875473 0.8490201 0.3591268 
-161.1448 -12.04095 32.5306 0.3696868 0.4434588 0.8165023 
-264.6908 8.495636 138.0623 0.5321713 0.2324744 0.8140942 
-163.6561 -19.41795 34.7326 0.3664753 0.1752378 0.9137766 
-268.6153 -3.032455 82.5784 -0.5061523 -0.8468543 0.1632412 
-172.7445 -46.11476 20.7744 -0.2688178 -0.8391827 0.472768 
-170.948 -40.83766 27.3424 -0.1452956 -0.7987654 0.5838348 
-267.8396 -0.7537537 108.6861 -0.5453144 -0.8330864 0.092732 
-269.1565 -4.622162 50.8431 -0.6053265 -0.7910179 0.08871514 
-173.9976 -49.79596 12.7907 -0.3649273 -0.8877873 0.2804671 
-269.4261 -5.414261 15.643 -0.6377486 -0.7693587 0.03693113 
-174.6221 -51.63036 3.9353 -0.4119163 -0.9083512 0.07227042 
-196.6859 -40.85835 0 -0.4373829 -0.8992304 -0.009001899 
-174.602 -51.57106 0 -0.4136084 -0.9103173 -0.01582844 
-166.2435 -27.01836 34.5677 0.2826238 -0.2636078 0.9222987 
-265.8081 5.213638 137.4066 -0.001683886 -0.7072288 0.7069828 
-266.882 2.058838 127.3869 -0.293062 -0.9070797 0.302194 
-168.7306 -34.32416 32.047 0.06467651 -0.5917278 0.8035392 
-151.5091 4.329636 9.2624 0.01003084 0.9618589 0.2733623 
-151.0281 0.7869415 17.8935 0.008627925 0.8388111 0.5443543 
243.872 2.864441 0 0.9236365 0.1253911 0.3621778 
231.4714 6.300049 18.9308 0.636932 0.2414483 0.7321342 
232.1538 1.273636 19.5986 0.6792427 0.06199828 0.7312904 
234.4371 -15.54495 9.7993 0.8442405 -0.4178787 0.335612 
234.7004 -17.48506 5.0725 0.8657628 -0.4669316 0.1800826 
234.7903 -18.14687 0 0.8661142 -0.4928371 0.08341451 
201.9025 -15.60426 39.5233 0.4456617 0.01783234 0.8950239 
201.7062 -2.002258 38.1766 0.3938176 0.2212335 0.8921679 
111.5808 -31.68166 74.0213 0.2098037 -0.004542906 0.977733 
127.0988 -7.972458 65.7504 0.3259694 0.1969764 0.924632 
111.5444 -9.217056 71.4991 0.2018429 0.2348382 0.9508473 
-33.4275 -40.33727 83.4088 -0.133716 -0.03224123 0.9904951 
130.2547 -5.081161 63.7489 0.3079442 0.2992355 0.9031215 
201.5233 10.67274 34.2282 0.355103 0.3847033 0.8520007 
135.877 11.43394 56.0168 0.2947053 0.3853618 0.8744399 
230.8355 10.98384 16.9729 0.5925109 0.420534 0.6870823 
230.2896 15.00594 13.8583 0.6126599 0.5937255 0.5216684 
111.5106 11.71654 64.1043 0.1676914 0.4560874 0.8739931 
-38.9977 -1.784561 72.2341 -0.1583458 0.4872717 0.8587741 
-36.3108 -20.38097 80.5667 -0.142759 0.2374385 0.9608552 
232.8362 -3.752762 18.9308 0.7299492 -0.1044179 0.6754783 
233.472 -8.436554 16.9729 0.7948347 -0.2198155 0.5656137 
234.0181 -12.45876 13.8583 0.8105781 -0.3361004 0.4795828 
229.8705 18.09224 9.7993 0.6151291 0.7024556 0.3580116 
229.6071 20.03235 5.0725 0.6185697 0.7673227 0.1690783 
229.5173 20.69414 0 0.6469995 0.7574683 0.08737012 
202.6352 -66.36746 10.2294 0.6760052 -0.6939377 0.2479264 
111.7023 -106.8497 37.0106 0.2469097 -0.8314646 0.4976969 
111.7163 -115.5207 19.1581 0.2974177 -0.9179372 0.2625531 
202.5594 -61.11726 19.7616 0.6493372 -0.6057871 0.4597643 
-22.6667 -114.8152 21.5878 -0.1848645 -0.9529961 0.2400489 
-23.7796 -107.1124 41.7044 -0.1391879 -0.8467205 0.5135086 
111.4815 29.69273 52.341 0.06023879 0.6775747 0.7329829 
-41.3049 14.18445 58.9789 -0.2166809 0.7013777 0.6790572 
201.3662 21.55704 27.9472 0.3313983 0.6017376 0.726696 
139.0709 27.19554 44.8535 0.2560309 0.6297796 0.7333661 
136.9205 14.49934 53.8796 0.2752875 0.5010154 0.8204879 
-22.2871 -117.4425 0 -0.18955 -0.9750735 0.1153365 
111.7211 -118.4782 0 0.1611229 -0.9769983 0.1396921 
202.661 -68.15816 0 0.6160145 -0.7767633 0.1310149 
111.6171 -54.14626 71.4991 0.2290457 -0.2274426 0.9464713 
202.0988 -29.20616 38.1766 0.4940527 -0.1667598 0.8532896 
-30.5441 -60.29356 80.5667 -0.1334068 -0.2969711 0.9455215 
92.7559 -54.96185 72.7021 0.07332484 -0.2867291 0.9552015 
111.6509 -75.07996 64.1043 0.213932 -0.4269052 0.8786268 
202.2818 -41.88126 34.2282 0.5743251 -0.343424 0.7431088 
111.68 -93.05606 52.3409 0.2225721 -0.6543602 0.7226856 
-6.404401 -101.8624 47.8949 0.03877418 -0.8131424 0.580772 
34.5776 -94.06896 56.0704 0.04301892 -0.7184696 0.6942268 
-24.6648 -100.9856 50.3416 -0.1182908 -0.8155904 0.5664095 
70.902 -76.19276 66.4789 0.06384061 -0.5196195 0.8520094 
58.7836 -82.70135 62.1293 0.05355201 -0.5817848 0.8115779 
202.4389 -52.76546 27.9472 0.6411121 -0.475288 0.6025584 
111.4592 43.48624 37.0106 0.1151349 0.8260566 0.5517014 
-43.0753 26.43794 41.7044 -0.1628943 0.8407643 0.5163148 
201.2456 29.90884 19.7617 0.3284868 0.7847212 0.525651 
135.6878 39.82245 32.356 0.2306463 0.7707928 0.5938693 
136.577 37.35974 34.4785 0.2388661 0.7020451 0.6708768 
111.4452 52.15724 19.1581 0.1045104 0.9468919 0.3040943 
-44.1883 34.14075 21.5878 -0.1879505 0.942975 0.2747233 
201.1699 35.15894 10.2294 0.3484197 0.893194 0.2842682 
133.6147 47.95724 16.952 0.2077916 0.9145863 0.3469215 
134.8571 46.35693 19.3155 0.2126336 0.8703019 0.4442539 
111.4404 55.11484 0 0.04221265 0.987818 0.1497788 
-44.5679 36.76804 0 -0.2354505 0.9643307 0.1209522 
201.144 36.94974 0 0.3471347 0.9258151 0.1495459 
126.5886 52.04724 0 0.1956333 0.9660749 0.1686031 
128.8527 51.24234 1.985 0.1970193 0.9674113 0.1590556 
88.9897 -58.16046 71.6183 0.06860401 -0.3590623 0.9307888 
-108.2224 -25.01306 57.5096 -0.3941005 0.2194372 0.8924865 
-149.266 -12.19296 30.9925 -0.15422 0.4623182 0.8731999 
-148.1049 -20.74565 34.5677 -0.2199629 0.1998307 0.9548215 
-111.7274 -12.41986 51.5617 -0.3656954 0.4775083 0.7989072 
-142.6897 -60.63477 17.8935 -0.39892 -0.8218052 0.4068157 
-142.2087 -64.17735 9.2624 -0.4070522 -0.8916316 0.1982463 
-90.424 -88.96256 15.4096 -0.413478 -0.8854598 0.2121244 
-91.8758 -83.74626 29.7692 -0.4112811 -0.8270857 0.3831151 
-104.4612 -38.52716 59.5383 -0.4240924 -0.06983888 0.902922 
-150.2631 -4.848557 25.3053 -0.1683992 0.6727757 0.7204267 
-114.7371 -1.605865 42.1 -0.3370213 0.6794041 0.6517873 
-100.6999 -52.04126 57.5096 -0.4155441 -0.3404794 0.8434435 
-145.6129 -39.10207 34.5677 -0.330721 -0.2817803 0.9006795 
-144.4518 -47.65475 30.9925 -0.3833676 -0.5267373 0.758668 
-97.195 -64.63446 51.5617 -0.3998812 -0.5470034 0.735447 
-27.8573 -78.88986 72.2341 -0.1101843 -0.5160913 0.849417 
-143.4548 -54.99916 25.3053 -0.3843029 -0.7023314 0.599201 
-94.1853 -75.44846 42.1 -0.3990434 -0.7148246 0.5742736 
-146.8589 -29.92386 35.7871 -0.2306342 -0.02854869 0.9726216 
-117.0466 6.69194 29.7692 -0.2976396 0.8400458 0.4535789 
-118.4984 11.90823 15.4097 -0.2750204 0.9403579 0.2002271 
-151.6731 5.53804 0 0.01256178 0.9950546 0.09853258 
-118.9935 13.68744 0 -0.2672755 0.9562447 0.1189955 
-142.0447 -65.38567 0 -0.4009712 -0.913491 0.0689666 
-89.9288 -90.74166 0 -0.4005854 -0.9107882 0.0999814 
-25.55 -94.85886 58.9789 -0.08344188 -0.6923276 0.7167427 
-154.9424 6.178543 0 0.1595536 0.9870645 0.01569585 
-269.4174 -5.388657 0 -0.5597942 -0.8286293 -0.002010983 
-276.249 15.13124 86.5635 -0.8364578 0.5479419 0.009899002 
-276.0244 15.79124 55.4839 -0.5003386 0.8657611 0.01091048 
-277.3669 11.84734 138.0623 -0.4995674 0.5486418 0.6703914 
-276.944 13.08974 129.3092 -0.426605 0.8996179 0.09325141 
-276.5627 14.20975 111.7439 -0.3198961 0.9458853 0.05447466 
-277.8027 10.56734 137.4066 -0.8968142 -0.2393904 0.3720436 
-278.2215 9.337036 127.3869 -0.8625574 -0.4896242 0.1275263 
-278.595 8.240036 108.6861 -0.9055032 -0.4202661 0.05865546 
-269.4447 17.61174 0 -0.2203953 0.9754103 0.0008764439 
-278.8975 7.351334 82.5784 -0.9707223 -0.2387278 0.02659433 
-278.8513 7.487045 86.5634 -0.9627891 -0.2694879 0.02033339 
-279.1086 6.731445 50.8431 -0.9480232 -0.3177635 0.01668762 
-273.6445 -0.2985535 0 -0.7699839 -0.6380624 -0.001023865 
-279.2137 6.422546 15.643 -0.8953679 -0.4452615 0.007653231 
-275.904 16.14484 20.6231 -0.3901943 0.9207031 0.007375908 
-275.8995 16.15804 0 -0.8442696 0.5359187 0.0001592983 
-279.2103 6.432434 0 -0.9836059 -0.1803314 -0.0003301463 
-275.9641 15.96805 38.0535 -0.8408763 0.5412213 0.002585615 
-279.1468 6.619141 38.0535 -0.9999803 -0.005497359 0.003034923 
-77.5778 -98.07046 20.1386 -0.3671039 0.5671359 -0.7372867 
-76.0723 -109.9722 18.1216 -0.2487762 -0.3682803 -0.8958125 
-75.1003 -117.656 27.5025 -0.4070142 -0.902329 -0.1419222 
-78.1114 -93.85256 31.5365 -0.8936685 0.4391715 0.09211335 
-75.6338 -113.4381 38.9003 -0.6049808 -0.5531562 0.5727273 
-77.1394 -101.5364 40.9173 -0.05270923 0.3455912 0.9369037 
-64.6675 -95.90466 30.9105 -0.4792522 0.8640191 0.154235 
-63.9972 -101.2039 37.38 -0.1397012 0.3329395 0.9325421 
-64.2996 -98.81356 23.0499 -0.3524857 0.5718632 -0.7407606 
-63.2613 -107.0217 21.6589 0.03659431 -0.3476324 -0.9369165 
-62.5909 -112.3209 28.1284 -0.3306405 -0.9320028 -0.1484846 
-62.9589 -109.412 35.989 -0.1208298 -0.6439672 0.7554512 
38.3757 -111.3486 27.964 0.6534439 -0.7568147 0.01557425 
39.1852 -105.4314 20.7302 0.2292729 -0.3702737 -0.900184 
40.4392 -96.26586 22.2856 0.8054479 0.3104837 -0.5048302 
40.8836 -93.01776 31.0747 0.8327117 0.5534877 -0.01558079 
38.8201 -108.1004 36.7531 0.6924546 -0.5154213 0.5048243 
40.0741 -98.93496 38.3085 0.3203067 0.2950827 0.9001832 
8.340899 -83.55276 31.9097 0.5119637 0.8492911 0.1288317 
-3.774601 -82.21086 31.9097 -0.4804088 0.8423659 0.2441867 
7.096699 -92.64676 43.027 0.3069203 0.3001362 0.9031712 
-9.030701 -92.49806 23.0499 -0.5749958 0.4743431 -0.6666172 
-7.992401 -100.7062 21.6588 -0.2024154 -0.3704209 -0.9065409 
-7.322101 -106.0054 28.1284 -0.3444743 -0.9273554 -0.1461146 
-1.358101 -101.3143 16.0118 -0.4659349 -0.36654 -0.805328 
-0.2062006 -110.4204 27.129 -0.3585668 -0.8959828 -0.2620014 
12.083 -92.38636 22.2856 0.07768669 0.5767684 -0.8132054 
12.5274 -89.13816 31.0747 -0.08454461 0.9784083 0.1885989 
5.1696 -106.7327 40.6366 0.4327135 -0.6111504 0.6627626 
-0.838501 -105.4218 40.6366 -0.3844872 -0.6132069 0.690034 
4.486599 -111.7247 27.129 0.219681 -0.9662963 -0.1342081 
-7.690001 -103.0965 35.9889 -0.1642594 -0.6454889 0.7458975 
-8.728401 -94.88836 37.38 -0.5351906 0.2301621 0.8127708 
5.7307 -102.6307 16.0118 0.2859004 -0.3116437 -0.9061673 
-3.142301 -87.20956 18.4022 -0.2346511 0.5954275 -0.7683782 
7.657899 -88.54476 18.4021 0.5530437 0.5572132 -0.6193997 
-2.622701 -91.31696 43.027 -0.3829769 0.2739362 0.8822061 
10.4639 -104.2209 36.7531 -0.2238046 -0.6056852 0.7635816 
10.0195 -107.4691 27.964 -0.3442415 -0.9197435 -0.1885993 
11.7179 -95.05546 38.3085 0.3991639 0.2747201 0.8747554 
10.8291 -101.5518 20.7303 0.1994745 -0.4585811 -0.8659754 
-9.398701 -89.58916 30.9104 -0.3788318 0.9114114 0.1606728 
-115.2229 -94.25356 9.0882 -0.4238337 -0.7120715 -0.5597492 
-74.3652 -116.3518 24.8433 0.269708 -0.7518179 -0.6016872 
-74.3207 -115.2144 30.3021 -0.03673038 -0.9143173 0.4033297 
-113.7886 -92.94616 19.4002 -0.7234635 -0.6085512 0.3259847 
-115.2259 -90.07216 28.669 -0.8116387 -0.386959 -0.4376133 
-125.7217 -81.52006 38.0922 -0.6831514 -0.30381 0.6640811 
-123.3651 -84.73666 29.9025 -0.7770175 -0.3252048 -0.5389673 
-126.3821 -81.78966 34.901 -0.9884849 0.01160329 -0.1508746 
-123.3622 -88.91806 10.3218 -0.8460826 -0.4934861 -0.2015335 
-122.0413 -88.37886 16.7043 -0.7080261 0.2401154 0.6641113 
-69.26 -108.1595 23.0946 0.9186751 -0.1909891 -0.3457735 
-69.2154 -107.022 28.5534 0.7134382 0.6397353 0.2859105 
-110.1177 -86.06116 7.3395 0.4137945 0.4272532 -0.8038836 
-118.2569 -80.72576 8.5731 -0.2951643 0.7485505 -0.5937594 
-116.9361 -80.18646 14.9556 -0.2338276 0.8577619 0.4577872 
-108.6834 -84.75386 17.6515 0.02166367 0.9915394 0.1279857 
-110.1206 -81.87976 26.9203 0.1508068 0.8408762 -0.5197928 
-118.2599 -76.54436 28.1538 -0.02367868 0.5279164 -0.8489662 
-121.2769 -73.59726 33.1523 -0.6760877 0.6702428 -0.3060719 
-120.6165 -73.32765 36.3435 0.2814632 0.9442259 0.1709267 
-104.2221 -89.76206 62.2467 -0.06195743 -0.6578937 0.750558 
-72.1719 -115.4564 35.4419 0.3280191 -0.9319792 0.1543319 
-74.3207 -115.2144 30.3021 0.07326796 -0.5524437 -0.8303239 
-107.0133 -90.17986 52.1403 -0.7623215 -0.4806293 -0.4334299 
-112.0826 -88.78876 43.8577 -0.5244672 -0.6966439 0.4895116 
-125.7216 -81.51996 38.0922 -0.2651531 -0.4395968 -0.8581658 
-120.2219 -83.45326 45.0912 -0.1819496 -0.07888948 0.9801382 
-125.0612 -81.25036 41.2835 -0.8487649 0.06865055 0.5242951 
-112.3614 -84.42656 63.4802 -0.5919577 0.1391955 0.7938582 
-113.6822 -84.96586 57.0977 -0.9155161 -0.3775595 -0.1388492 
-67.0667 -107.264 33.6933 0.9216409 0.249594 0.2971209 
-69.2155 -107.0221 28.5534 0.6310235 -0.2181029 -0.7444733 
-99.1169 -81.56966 60.498 0.5997523 0.5967529 0.5330884 
-107.2561 -76.23426 61.7315 -0.06195955 0.8437628 0.533128 
-108.5769 -76.77346 55.3491 -0.4237721 0.7802129 -0.4600924 
-101.908 -81.98756 50.3917 0.3259462 0.644049 -0.6920694 
-106.9774 -80.59636 42.109 0.1579893 0.7976633 0.5820419 
-115.1167 -75.26096 43.3426 -0.04358377 0.5992669 0.7993621 
-119.956 -73.05795 39.5348 -0.0791619 0.9751211 0.2070565 
-120.6164 -73.32765 36.3435 -0.2001405 0.2429343 -0.9491716 
251.3693 -9.367859 38.8934 -0.2597489 0.6274981 0.7340141 
246.6343 -11.58665 48.8814 -0.3099532 0.6311513 0.7110395 
247.639 -11.80736 49.3414 -0.1618692 0.6059625 0.7788503 
252.8915 -9.702454 39.5903 -0.1142143 0.5881121 0.8006743 
249.8202 -9.478058 38.1841 -0.3339719 0.8917669 0.3053107 
245.6119 -11.65936 48.4133 -0.3858292 0.7978148 0.463279 
255.9166 -19.53166 40.9753 0.06606463 -0.2788682 0.9580543 
256.6044 -18.00116 41.2902 0.3771758 -0.209903 0.9020416 
250.0894 -17.28456 50.4633 0.211892 -0.2294322 0.9499804 
249.6355 -18.29466 50.2555 0.1396844 -0.3738416 0.9169137 
246.1141 -20.20045 48.6433 -0.3357514 -0.6311187 0.699257 
250.5811 -22.41916 38.5325 -0.3859347 -0.627491 0.6762466 
252.1302 -22.30896 39.2417 -0.07810736 -0.8685452 0.4894165 
247.1365 -20.12776 49.1114 -0.009402487 -0.85357 0.5208933 
256.3107 -13.00606 41.1557 0.07702648 0.257985 0.9630736 
255.4494 -11.58566 40.7614 0.2158369 0.5172466 0.8281729 
249.3271 -13.05035 50.1143 0.1251877 0.3946159 0.9102781 
249.8956 -13.98776 50.3746 0.2027895 0.2536178 0.9458089 
245.142 -17.16386 36.0423 -0.9783756 -0.1655323 0.1240172 
245.6397 -18.78096 36.2702 -0.913449 -0.3767942 0.1537432 
242.8528 -17.79926 47.1501 -0.8484733 -0.2536401 0.4644995 
242.5243 -16.73196 46.9997 -0.8902554 -0.09534156 0.4453711 
256.9085 -16.32697 41.4294 0.2510089 -0.0142047 0.9678805 
256.8084 -14.62326 41.3836 0.2347896 0.1496465 0.9604581 
250.2241 -15.05516 50.525 0.2445662 0.09532557 0.9649354 
250.2902 -16.17957 50.5552 0.2476707 -0.06941732 0.9663543 
245.346 -13.78586 36.1357 -0.9347891 0.2545987 0.2476868 
245.0419 -15.46005 35.9964 -0.9980239 0.06108043 -0.01475195 
242.4582 -15.60745 46.9695 -0.8933583 0.06941676 0.4439508 
242.659 -14.50246 47.0614 -0.8575816 0.2294588 0.4603287 
246.0338 -12.25536 36.4506 -0.8660225 0.4312656 0.2530122 
243.1129 -13.49236 47.2692 -0.7853649 0.373857 0.4933892 
244.1909 -19.48036 47.7628 -0.6528431 -0.5956996 0.467908 
247.6672 -21.32816 37.1984 -0.6250169 -0.7703208 0.1263318 
249.0589 -22.08466 37.8356 -0.5386648 -0.680939 0.4961476 
245.1094 -19.97966 48.1833 -0.4838206 -0.6059577 0.6314531 
248.9593 -19.14127 49.9459 0.03593782 -0.4927576 0.8694242 
254.892 -20.81436 40.5062 0.07381916 -0.4563206 0.8867482 
253.6006 -21.76157 39.9149 0.08427852 -0.7297465 0.6785037 
248.1069 -19.76646 49.5557 -0.0697044 -0.5660809 0.8213974 
246.501 -20.20135 36.6645 -0.795743 -0.5194778 0.3113455 
243.4213 -18.73666 47.4104 -0.7708892 -0.3945951 0.5000246 
247.0584 -10.97276 36.9197 -0.7531448 0.6175506 0.2267251 
243.7891 -12.64575 47.5788 -0.6816357 0.4927747 0.5408751 
248.3498 -10.02545 37.5109 -0.6051432 0.7605979 0.2351439 
244.6414 -12.02055 47.969 -0.5494444 0.6854467 0.4777799 
254.2831 -10.45886 40.2274 -0.109514 0.4133607 0.9039578 
248.5574 -12.30666 49.7619 0.07236426 0.5957198 0.7999259 
251.6593 -10.97276 26.8702 -0.5683444 0.7805623 -0.260206 
252.9508 -10.02545 27.4615 -0.5045035 0.8319408 -0.2309779 
250.6348 -12.25536 26.4012 -0.7555531 0.5563089 -0.345919 
249.947 -13.78586 26.0863 -0.8727488 0.2804403 -0.3995783 
249.6429 -15.46005 25.947 -0.9090055 0.02247863 -0.4161775 
249.743 -17.16386 25.9929 -0.8833206 -0.2370487 -0.4044166 
250.2407 -18.78096 26.2207 -0.7974336 -0.4804228 -0.3650939 
251.102 -20.20135 26.6151 -0.657207 -0.6910439 -0.3008944 
252.2682 -21.32816 27.149 -0.5058089 -0.8309806 -0.2315784 
253.6599 -22.08466 27.7861 -0.402867 -0.8964807 -0.1844469 
248.4735 11.29893 46.7128 0.0685537 0.3456514 0.9358555 
241.4116 11.49464 47.1579 0.0685344 0.3397974 0.9379983 
241.1416 7.482239 48.7745 0.1179013 0.2420633 0.9630705 
248.5243 9.918549 47.2584 0.1275692 0.2158847 0.9680495 
247.9814 18.30934 44.4532 0.1419714 0.3618493 0.9213628 
246.3485 20.95244 43.7056 0.06114813 0.5420001 0.8381509 
241.6317 18.00114 45.0119 -0.02977479 0.4439689 0.8955474 
250.6805 -2.058365 48.2456 0.168364 0.006492155 0.9857035 
241.8349 -2.277359 49.7579 0.1677988 0.0274003 0.9854404 
246.0235 -25.45416 43.5568 0.07612985 -0.4250782 0.9019495 
247.1612 -24.14516 44.0777 0.0937235 -0.3909202 0.9156404 
245.9347 -23.94615 44.1575 -0.004303581 -0.3948713 0.9187264 
242.5536 22.02684 41.9681 -0.1613485 0.6420931 0.7494552 
250.6938 33.48685 31.3093 -0.07381935 0.6863132 0.7235503 
250.7742 35.10974 30.3619 -0.1112738 0.6107317 0.7839802 
249.7038 33.87094 30.8561 -0.1186201 0.6589547 0.7427706 
248.041 20.52864 43.2673 0.2569627 0.4180405 0.8713279 
248.0052 22.20244 42.5493 0.05839816 0.5867126 0.8076868 
244.9021 29.55034 34.9131 -0.04588542 0.7104326 0.7022678 
243.5517 25.53055 38.8915 -0.09314051 0.6939154 0.7140073 
251.5804 -39.64665 35.9439 -0.1222238 -0.6103913 0.7826135 
247.1065 -35.49306 38.4847 -0.07651415 -0.5789726 0.8117489 
248.7589 -40.73566 33.462 -0.2967633 -0.7203529 0.6269157 
251.8411 -41.45557 34.0702 -0.292226 -0.708029 0.6428832 
251.0589 -41.64265 33.5086 -0.2989866 -0.7264075 0.6188207 
252.9778 -28.30716 41.0671 0.1509583 -0.4165632 0.8964857 
246.7762 -31.52316 40.2765 0.134293 -0.434713 0.8904998 
252.5477 -32.73405 38.815 0.1195244 -0.4210209 0.8991415 
249.8224 -22.30896 44.2824 0.1941863 -0.382159 0.9034635 
248.2631 -22.39256 44.5822 0.1331646 -0.3506149 0.927004 
251.6775 -21.76166 44.1152 0.1941845 -0.3821633 0.903462 
253.2067 -20.81436 44.1872 0.1942004 -0.3821759 0.9034533 
254.3058 -19.53166 44.4935 0.1617484 -0.3895932 0.9066722 
247.8029 -22.41916 44.6006 0.05585337 -0.3084881 0.949587 
245.8594 -22.08466 44.8237 0.0558772 -0.3085308 0.9495717 
245.8977 -23.55746 44.343 0.03580245 -0.346189 0.9374815 
242.6291 -6.770966 49.1731 0.1555464 -0.1143919 0.9811829 
253.2919 -11.18816 46.8845 0.2121778 -0.1129402 0.9706829 
249.1559 -9.702454 47.7496 0.1700923 -0.09745218 0.9805976 
247.1392 -9.367966 48.1326 0.1700657 -0.09751102 0.9805964 
245.702 -9.445953 48.3741 0.1482538 -0.1227839 0.9812976 
251.0218 -10.45886 47.3508 0.1701263 -0.09737208 0.9805998 
252.6099 -11.58566 46.9633 0.1700836 -0.0977947 0.980565 
253.132 -12.20276 46.8113 0.2417244 -0.1076592 0.9643541 
255.222 -91.79756 26.1897 0.3568604 -0.3146349 0.8795769 
257.5367 -82.32355 27.2494 0.6485053 -0.1033004 0.7541684 
252.959 -73.84956 32.3464 0.01226175 -0.08003708 0.9967165 
250.9916 -81.90236 31.4457 -0.1210769 -0.1363186 0.9832383 
253.3162 -65.52026 32.51 0.2723996 -0.03056535 0.9616987 
257.9569 -72.52446 27.4418 0.7056689 -0.04415032 0.7071649 
258.3772 -62.72536 27.6342 0.6734734 -0.09510022 0.7330686 
253.6735 -57.19106 32.6735 0.02268938 -0.04522865 0.998719 
246.4942 -88.61536 29.3866 -0.1099242 -0.2683868 0.9570189 
249.931 -99.69526 23.7672 0.02692323 -0.4455038 0.8948752 
240.2571 -93.35616 26.531 -0.2207377 -0.3896786 0.894106 
242.5932 -105.2726 20.4077 -0.1649676 -0.4761749 0.8637379 
235.2989 -94.43586 24.261 -0.672703 -0.1580694 0.7228312 
236.76 -106.5429 17.7371 -0.5913979 -0.4366695 0.6779147 
234.4501 -93.71196 16.6795 -0.9950047 -0.09857472 -0.01576802 
233.3354 -83.52956 23.362 -0.7660343 -0.04647307 0.6411176 
233.1245 -75.19435 23.2654 -0.9853044 0.09878895 0.1393412 
234.2019 -83.90576 16.5659 -0.9457735 0.1162799 -0.3033009 
235.7088 -77.57916 17.2558 -0.848372 0.2527946 -0.465145 
234.4053 -69.81676 23.8519 -0.9271721 0.1853356 0.3255805 
237.2157 -71.25276 17.9457 -0.9234321 0.1350154 -0.3592272 
235.6862 -64.43925 24.4383 -0.8329484 0.07220384 0.5486196 
235.7871 -56.10146 24.4845 -0.9256045 -0.061164 0.3735176 
237.3344 -61.44356 18.0001 -0.9827499 -0.08573957 -0.1638637 
234.4469 -45.40495 16.6781 -0.9240392 -0.382048 0.01381319 
233.3328 -42.46866 23.3608 -0.6101504 -0.6493795 0.4538974 
260.7647 -46.58766 28.7273 0.5069469 -0.4408958 0.740686 
255.7028 -43.47395 33.6026 -0.01804688 -0.4813293 0.876354 
249.2524 -42.09076 32.0187 -0.3054554 -0.7440966 0.5941526 
229.9212 -33.30736 33.0806 -0.2989777 -0.726411 0.618821 
252.6178 -15.46626 46.5759 0.1743203 -0.2288487 0.9577268 
244.6282 -13.36406 47.963 0.1024293 -0.2465765 0.9636951 
242.5118 -16.01056 46.994 0.0574046 -0.3466118 0.9362504 
242.4844 -16.05406 46.9815 0.05589528 -0.308287 0.9496499 
231.0051 -16.63036 47.4701 -0.09543779 -0.2527657 0.962809 
242.5834 -16.74165 46.7523 0.05589907 -0.3083825 0.9496186 
243.0558 -17.87076 46.3577 0.05590402 -0.308485 0.9495851 
243.835 -18.93346 45.9666 0.0559063 -0.3084987 0.9495805 
244.9015 -19.85806 45.6034 0.05590237 -0.3084734 0.9495889 
246.2114 -20.56696 45.296 0.05589672 -0.3084515 0.9495964 
247.6913 -20.98386 45.0735 0.05589207 -0.3084685 0.9495911 
249.1136 -21.03976 44.9716 0.1201225 -0.3436864 0.9313701 
237.5879 -2.382553 50.484 -0.1363153 -0.02212847 0.9904184 
235.5312 -10.97057 49.5423 -0.1577767 -0.1050982 0.981866 
243.2618 -10.02545 48.624 0.1336168 -0.1395682 0.9811561 
244.9801 -11.89456 48.1241 0.1335939 -0.1395483 0.9811621 
245.7562 -11.58456 48.0625 0.1335909 -0.1395709 0.9811593 
247.0945 -11.37096 47.9107 0.1335905 -0.1395334 0.9811646 
247.9721 -11.42216 47.7839 0.1535481 -0.116756 0.9812192 
245.1207 -9.478058 48.4487 0.1336235 -0.1395634 0.9811559 
227.2168 -39.66006 13.3679 -0.1452685 -0.9506618 0.2741152 
227.1872 -37.58546 20.5471 -0.2680216 -0.8514032 0.4508626 
224.9838 -38.94676 19.5384 0.2205944 -0.7265111 0.650784 
224.6246 -41.26157 12.1811 0.5208293 -0.8080637 0.2752634 
215.8802 -28.34436 29.7561 -0.03197907 -0.6668738 0.7444842 
206.3683 -20.36516 36.1905 -0.1431836 -0.5241897 0.8394782 
189.6356 -26.72386 28.5296 -0.2658641 -0.3560295 0.8958567 
241.6784 -30.45355 41.5674 -0.1124452 -0.5778812 0.8083375 
211.751 -21.48846 38.6549 -0.4238101 -0.4996713 0.7554559 
222.8278 -30.51016 32.937 -0.4754261 -0.7867005 0.3937923 
226.5266 -20.79706 45.4197 -0.1490188 -0.4037012 0.9026731 
211.2275 -50.93536 11.4967 0.5550855 -0.7877648 0.2670332 
210.0636 -51.42006 12.7073 0.3161178 -0.7178398 0.6203028 
206.9412 -54.03036 11.2778 0.22673 -0.6540079 0.7217113 
211.5258 -50.86456 11.15 0.5458322 -0.7781716 0.3106706 
213.6764 -50.94525 7.1686 0.5458666 -0.7781521 0.3106588 
193.1611 -30.55235 25.6892 -0.07521813 -0.637898 0.7664387 
191.2565 -29.55246 26.3345 -0.07521413 -0.6378956 0.7664412 
195.5898 -37.11386 20.4664 -0.05004619 -0.6220309 0.7813917 
195.134 -31.98846 24.6876 -0.07521283 -0.6378983 0.7664391 
199.5182 -35.41606 22.265 -0.04292485 -0.6778812 0.7339173 
217.7777 -27.32396 30.6249 -0.2566254 -0.7820274 0.5679583 
207.8847 -19.65596 36.8848 -0.4622327 -0.330781 0.8227544 
231.665 11.76474 47.7722 -0.1942172 0.3795677 0.9045485 
226.4934 26.57384 34.6152 -0.3116864 0.6883594 0.6549909 
216.2655 14.61703 40.7218 -0.4163413 0.46411 0.7818324 
248.5317 -11.44966 47.6841 0.1700603 -0.09804261 0.9805443 
249.9798 -11.84766 47.3933 0.1700644 -0.09779464 0.9805684 
251.3063 -12.57686 47.0908 0.1700704 -0.09754523 0.9805922 
252.3818 -13.60736 46.8017 0.1700646 -0.09753975 0.9805937 
252.7941 -14.34746 46.6566 0.2697593 -0.1283526 0.9543352 
253.4237 -15.83566 46.1898 0.2687452 -0.2775266 0.9223638 
253.1756 -14.86156 46.4271 0.3055869 -0.173053 0.9363062 
270.9054 -21.86586 40.5629 0.3415369 -0.2446068 0.9074801 
273.7688 -2.306259 41.8739 0.5759146 0.01477613 0.8173763 
254.7464 -1.957657 47.5504 0.225596 0.005985214 0.9742026 
203.2517 -37.59166 20.2245 -0.01322436 -0.6127881 0.7901366 
203.0465 -37.42915 20.3791 -0.02137551 -0.7031829 0.7106876 
206.9619 -43.00696 17.2832 -0.002107129 -0.4783973 0.878141 
208.7155 -45.86575 15.73 -0.002107451 -0.4783984 0.8781404 
210.3 -49.19167 13.9219 -0.002098182 -0.4784037 0.8781375 
253.6748 -17.65396 45.4234 0.1481275 -0.4133123 0.8984604 
253.613 -16.25356 45.9735 0.128045 -0.4001173 0.9074749 
253.9225 -13.00606 46.3719 0.3233902 -0.1235894 0.9381602 
236.1108 5.822037 49.8077 -0.06385778 0.1674406 0.9838119 
252.3792 11.19064 46.4667 0.1798764 0.2402082 0.9539101 
234.9626 39.59004 24.107 -0.1766311 0.7391112 0.6500124 
261.7906 30.99605 36.3899 0.1550919 0.6673808 0.7283882 
204.9421 -58.67076 3.1697 0.545958 -0.7780747 0.310692 
183.5705 7.496948 25.7528 -0.4520695 0.3617645 0.815328 
186.4265 -8.812759 27.0604 -0.4162816 1.652541e-07 0.9092358 
188.194 -18.36595 27.8696 -0.4162833 1.566926e-05 0.9092349 
188.219 -18.85536 27.8811 -0.416275 5.19096e-07 0.9092388 
190.9785 18.93915 18.2272 -0.4124936 0.7194855 0.5587394 
190.9085 18.82454 18.3231 -0.4204641 0.6885396 0.5908665 
194.3206 24.01514 14.1583 -0.4124942 0.7194835 0.5587415 
196.5544 31.22585 6.5223 -0.4054846 0.685784 0.604386 
187.2714 11.67244 23.7107 -0.4241269 0.6725336 0.6064776 
263.3331 -34.38826 37.0961 0.2214651 -0.4876332 0.8444923 
270.3326 16.77974 40.3007 0.405711 0.3647702 0.8380581 
265.558 33.84125 30.9218 0.2022067 0.6833083 0.7015713 
273.3711 23.29614 34.499 0.5832225 0.3713013 0.7224866 
237.5193 44.71935 18.0847 -0.2279756 0.7694631 0.5966186 
198.0189 36.11725 0 -0.2619077 0.9580535 0.1163519 
196.6433 35.25584 3.9964 -0.3534231 0.7967052 0.490258 
277.4136 0.8421478 36.3498 0.8063958 0.09155869 0.5842457 
275.1989 -21.91795 35.3358 0.7273968 -0.3183925 0.6078815 
268.0666 -36.26326 32.0704 0.5281846 -0.5020784 0.6847907 
253.684 -17.67926 45.4082 0.09751124 -0.4281055 0.8984527 
253.6136 -17.86465 45.3474 0.2171825 -0.3847875 0.89709 
253.2267 -19.00195 44.9495 0.1941916 -0.3821478 0.9034671 
252.2516 -20.06976 44.7075 0.1941908 -0.3821599 0.9034621 
250.869 -20.76956 44.7086 0.1941897 -0.3823353 0.9033881 
249.2479 -21.04996 44.9384 0.1942304 -0.382329 0.9033821 
262.3212 -9.367859 14.9722 0.3357438 0.6311213 -0.6992581 
266.7882 -11.58665 4.8615 0.3859333 0.6274905 -0.6762479 
267.7929 -11.80736 5.3214 0.5314671 0.5881183 -0.6096389 
263.8434 -9.702454 15.6692 0.4838133 0.6059613 -0.6314552 
260.7721 -9.478058 14.263 0.2115232 0.6189477 -0.7564136 
265.7658 -11.65936 4.3934 0.09859098 0.7978103 -0.5947928 
266.8685 -19.53166 17.0541 0.7082726 -0.2742835 -0.6504757 
267.5563 -18.00116 17.369 0.9430159 -0.3193535 -0.0934573 
270.2434 -17.28456 6.4434 0.8738065 -0.1770312 -0.4529042 
269.7894 -18.29466 6.2355 0.8133588 -0.3278618 -0.480577 
266.268 -20.20045 4.6233 0.2597328 -0.6274688 -0.7340448 
261.5331 -22.41916 14.6114 0.3099565 -0.6311491 -0.71104 
263.0821 -22.30896 15.3206 0.4373886 -0.7271506 -0.5290965 
267.2904 -20.12776 5.0914 0.3788434 -0.7399005 -0.5559001 
267.2626 -13.00606 17.2346 0.7545782 0.1860617 -0.6292796 
266.4013 -11.58566 16.8402 0.8223566 0.5491968 -0.1487032 
269.481 -13.05035 6.0943 0.7377446 0.4362378 -0.5151985 
270.0495 -13.98776 6.3546 0.8262553 0.3032884 -0.4746772 
256.094 -17.16386 12.1212 -0.5452715 -0.1662704 -0.821604 
256.5917 -18.78096 12.349 -0.480195 -0.377441 -0.7918025 
263.0067 -17.79926 3.1302 -0.1805703 -0.3032923 -0.9356325 
262.6782 -16.73196 2.9798 -0.2347881 -0.1496695 -0.9604549 
267.8604 -16.32697 17.5083 0.893353 -0.06938576 -0.4439661 
267.7603 -14.62326 17.4624 0.8902571 0.09533535 -0.4453689 
270.378 -15.05516 6.505 0.8804786 0.149648 -0.4498477 
270.4441 -16.17957 6.5353 0.8966961 -0.01416773 -0.4424199 
256.298 -13.78596 12.2146 -0.3381904 0.2335448 -0.9116381 
255.9938 -15.46005 12.0753 -0.7677687 0.06358907 -0.6375638 
262.6121 -15.60745 2.9495 -0.2510056 0.01418306 -0.9678817 
262.8129 -14.50246 3.0414 -0.2281115 0.1770355 -0.9574046 
256.9857 -12.25536 12.5295 -0.4692471 0.5069458 -0.7230582 
263.2668 -13.49236 3.2492 -0.1676829 0.3278559 -0.9297274 
264.3449 -19.48036 3.7428 0.1095083 -0.4133503 -0.9039632 
258.6192 -21.32816 13.2773 -0.3631033 -0.7951449 -0.4856961 
260.0108 -22.08466 13.9144 -0.009410453 -0.7566065 -0.6538029 
265.2633 -19.97966 4.1633 0.1142057 -0.5881077 -0.8006787 
269.1132 -19.14127 5.9259 0.7195042 -0.4563 -0.5235495 
265.844 -20.81436 16.5851 0.6816329 -0.4927726 -0.5408805 
264.5525 -21.76157 15.9938 0.5686976 -0.7297348 -0.3795658 
268.2609 -19.76646 5.5357 0.5383663 -0.8156765 -0.2117399 
257.453 -20.20135 12.7434 -0.2097713 -0.4781811 -0.8528416 
263.5752 -18.73666 3.3904 -0.09204581 -0.4362469 -0.8951069 
258.0103 -10.97276 12.9985 -0.2692445 0.6668903 -0.6948128 
263.943 -12.64586 3.5588 -0.07381285 0.456335 -0.8867413 
259.3017 -10.02545 13.5898 -0.2158348 0.8310875 -0.5125514 
264.7954 -12.02055 3.9491 -0.1850148 0.7705821 -0.6098958 
265.2351 -10.45886 16.3063 0.6528279 0.5956993 -0.4679296 
268.7114 -12.30666 5.742 0.6127414 0.4133513 -0.6735642 
253.4093 -10.97276 23.048 -0.6283222 0.7228139 -0.2876654 
254.7008 -10.02545 23.6392 -0.5045038 0.8319407 -0.2309771 
252.3848 -12.25536 22.5789 -0.7555674 0.5562869 -0.3459233 
251.697 -13.78596 22.264 -0.8470572 0.3634493 -0.3878128 
251.3928 -15.46005 22.1247 -0.9037198 0.109976 -0.413758 
251.493 -17.16386 22.1706 -0.898802 -0.1510561 -0.4115058 
251.9907 -18.78096 22.3985 -0.8326313 -0.4017521 -0.381209 
252.852 -20.20135 22.7928 -0.7097216 -0.6250691 -0.3249367 
254.0182 -21.32816 23.3267 -0.5058181 -0.830974 -0.2315823 
255.4098 -22.08466 23.9639 -0.4028847 -0.896471 -0.1844551 
266.3483 11.29893 7.6707 0.754839 0.3397967 -0.5610314 
262.0709 11.49464 2.0341 0.7559691 0.3356154 -0.5620258 
263.1182 7.482239 0.7734 0.8060841 0.2420536 -0.5400357 
266.7945 9.91864 7.3528 0.806081 0.2420556 -0.5400394 
264.3162 18.30945 8.7747 0.7942267 0.3701792 -0.4818416 
262.6833 20.95255 8.0271 0.6688008 0.5381271 -0.512957 
260.5902 18.00114 3.603 0.5976084 0.5071191 -0.621043 
268.9507 -2.058258 8.34 0.855615 0.02740142 -0.5168871 
264.3156 -2.277252 0.6557 0.8561842 0.006494034 -0.5166299 
262.3584 -25.45416 7.8784 0.7235999 -0.4071175 -0.5573676 
263.4961 -24.14516 8.3993 0.7435496 -0.403688 -0.5330759 
262.7551 -23.94606 7.4186 0.6870639 -0.407147 -0.6018094 
258.8884 22.02695 6.2897 0.4601842 0.6534196 -0.6010602 
256.1387 33.48694 19.4165 0.4989394 0.6812052 -0.5357416 
255.4741 35.10985 20.0964 0.5207573 0.6107203 -0.596517 
255.1487 33.87105 18.9632 0.1282943 0.7156696 -0.6865549 
263.4574 20.52875 9.5947 0.8274977 0.4180422 -0.3748176 
262.8905 22.20255 10.0368 0.6495731 0.5867135 -0.4835515 
255.0824 29.55045 12.6774 0.2070076 0.7693741 -0.6043273 
257.2115 25.53055 9.0556 -0.07764662 0.7255123 -0.683815 
260.2264 -39.64656 17.0594 0.8311533 -0.5333831 -0.1571202 
259.2265 -35.49306 12.0124 0.4513496 -0.6430745 -0.618659 
256.5041 -40.73566 16.5452 0.2776347 -0.7227952 -0.6328397 
258.9785 -41.45546 18.481 0.4919338 -0.7747133 -0.3972661 
258.0422 -41.64265 18.2559 0.5924388 -0.7911956 -0.1517432 
265.0178 -28.30716 14.7695 0.754035 -0.5277238 -0.3910741 
260.3671 -31.52306 10.5916 0.7628278 -0.4329257 -0.4802803 
263.0319 -32.73396 15.9155 0.7540623 -0.4258012 -0.5000834 
265.3899 -22.30896 10.28 0.608946 -0.7919073 -0.045472 
264.598 -22.39256 8.9037 0.8601394 -0.1607265 -0.4840737 
266.4756 -21.76157 11.7935 0.5083784 -0.8579393 0.07410564 
267.5293 -20.81425 12.9041 0.5837714 -0.7942036 -0.1686763 
268.4793 -19.53166 13.5359 0.7888376 -0.39077 -0.4743775 
264.3112 -22.41905 8.5433 0.8202795 0.1456278 -0.553113 
263.2102 -22.08456 6.9263 0.2751009 0.4151985 -0.8671388 
262.8713 -23.55736 7.2694 0.1316497 -0.06098096 -0.9894189 
264.3919 -6.770859 1.639 0.9079493 -0.1100714 -0.4043666 
269.6267 -11.18816 11.2061 0.904734 0.1210834 -0.4084058 
267.5791 -9.702362 7.5099 0.8535734 0.474435 -0.21523 
266.5513 -9.367859 5.733 0.7620186 0.6066382 -0.2265344 
265.795 -9.445862 4.4872 0.8068671 -0.4192144 -0.4162029 
268.4964 -10.45886 9.183 0.6190532 0.7733541 0.1367359 
269.2407 -11.58566 10.6384 0.9083065 0.2682615 -0.3209596 
269.4669 -12.20265 11.1329 0.9535406 0.02082389 -0.3005442 
255.2221 -91.79746 26.1897 0.8990179 -0.3146349 -0.3045846 
257.5367 -82.32355 27.2494 0.9838107 -0.1620564 -0.07651317 
258.4041 -73.84946 20.4536 0.7412826 -0.04518585 -0.6696703 
256.4366 -81.90226 19.5529 0.7578509 -0.1958984 -0.6223229 
258.7613 -65.52016 20.6172 0.7818514 -0.02129723 -0.623101 
257.957 -72.52446 27.4418 0.9964185 -0.044151 0.07211765 
258.3773 -62.72536 27.6342 0.9949909 -0.09509682 0.03081713 
259.1185 -57.19096 20.7807 0.8929103 -0.06492493 -0.4455289 
251.9393 -88.61536 17.4938 0.6495849 -0.3466986 -0.6766384 
249.9311 -99.69516 23.7673 0.7503108 -0.4234397 -0.5076738 
245.7021 -93.35606 14.6382 0.4995224 -0.246449 -0.830506 
242.5933 -105.2725 20.4078 0.5460526 -0.4761783 -0.6892611 
240.744 -94.43586 12.3682 0.2922336 -0.2097158 -0.9330696 
236.7602 -106.5428 17.7371 -0.2665333 -0.3160772 -0.9105247 
234.4502 -93.71186 16.6795 -0.6620883 -0.09857938 -0.742914 
238.7805 -83.52956 11.4692 -0.2352842 -0.06680945 -0.9696277 
238.5695 -75.19426 11.3726 -0.538335 0.09879622 -0.8369198 
234.202 -83.90566 16.5659 -0.8475867 0.1162831 -0.5177597 
235.7089 -77.57916 17.2558 -0.9064559 0.2527948 -0.3382789 
239.8504 -69.81676 11.9591 -0.3593646 0.1853409 -0.9146069 
237.2158 -71.25266 17.9457 -0.8753225 0.1350117 -0.4643084 
241.1312 -64.43925 12.5455 -0.4322104 0.1045321 -0.8956937 
241.2321 -56.10146 12.5917 -0.06774289 -0.04248364 -0.9967979 
237.3345 -61.44356 18.0001 -0.7661992 -0.08573928 -0.6368576 
234.447 -45.40495 16.6781 -0.4441796 -0.5705653 -0.6907675 
238.7778 -42.46866 11.468 -0.02610087 -0.3449593 -0.9382547 
260.7647 -46.58755 28.7273 0.926064 -0.3691924 -0.07811929 
261.1478 -43.47386 21.7098 0.8861604 -0.2161964 -0.4098522 
255.734 -42.09065 17.8619 0.4731198 -0.5298584 -0.7038522 
243.9064 -33.30736 2.5344 0.570816 -0.3955671 -0.7195109 
268.9527 -15.46616 10.8975 0.8239762 -0.2789519 -0.4932031 
264.7821 -13.36406 3.943 0.7898008 -0.2642549 -0.5535198 
262.6657 -16.01056 2.974 0.938632 -0.2766827 -0.2059529 
262.6384 -16.05396 2.9615 0.9787644 -0.1977537 -0.05398041 
255.5074 -16.63036 -6.0476 0.6090165 -0.3267692 -0.7227176 
262.5295 -16.74165 3.1862 0.7960483 -0.4243159 -0.431582 
262.5395 -17.87076 3.8016 0.9171878 0.01678038 -0.3981016 
262.7526 -18.93346 4.6471 0.96997 0.09726591 -0.2229294 
263.1745 -19.85806 5.6917 0.8846855 0.04986852 -0.4635134 
263.7978 -20.56696 6.8842 -0.3538049 -0.6514376 -0.6711566 
264.5963 -20.98376 8.1498 0.5219266 -0.6951376 -0.4943444 
265.4485 -21.03976 9.2931 0.6099765 -0.6732317 -0.4179566 
262.0902 -2.382462 -3.0337 0.7141628 -0.02036696 -0.6996833 
260.0335 -10.97046 -3.9753 0.6337001 -0.124507 -0.7634934 
264.3897 -10.02545 2.4768 0.7192648 -0.6148227 -0.3234984 
265.134 -11.89445 4.1041 0.7773573 -0.4864655 -0.3988319 
265.5945 -11.58446 4.7319 0.7504855 -0.5545244 -0.3595472 
266.354 -11.37096 5.8442 0.7006152 -0.6491669 -0.2961769 
266.8315 -11.42206 6.5914 0.8692392 -0.03876546 -0.4928697 
265.4716 -9.478058 3.9984 0.5960728 -0.7796829 -0.1918117 
227.2169 -39.65996 13.3679 0.112578 -0.9506659 -0.2890685 
232.6322 -37.58546 8.6543 0.1539426 -0.8800818 -0.4491744 
230.4288 -38.94676 7.6455 0.8207428 -0.5494134 0.1566084 
224.6247 -41.26157 12.1811 0.5218859 -0.8250445 0.2166491 
232.2151 -28.34436 -5.9223 0.7816441 -0.4595352 -0.4217344 
230.8706 -20.36516 -17.3272 0.5314125 -0.4269128 -0.7316736 
214.1379 -26.72395 -24.988 0.5239736 -0.5170515 -0.6768378 
258.0133 -30.45355 5.889 0.5449765 -0.5839311 -0.6016852 
236.2534 -21.48846 -14.8627 0.3237568 -0.4170966 -0.849242 
239.1627 -30.51016 -2.7415 0.02735982 -0.7810336 -0.6238894 
251.0289 -20.79706 -8.098 0.5920641 -0.3909323 -0.7047213 
215.3528 -50.93536 2.4867 0.8187703 -0.4737432 0.3243187 
215.5086 -51.42017 0.8145 0.7793602 -0.5266429 0.3394776 
212.3862 -54.03036 -0.615 0.6921202 -0.6677158 -0.2740898 
215.2851 -50.86456 2.939 0.5070927 0.8451542 0.1690309 
213.6765 -50.94525 7.1686 0.943714 0.05759937 0.3257089 
214.2914 -30.55235 -20.4632 0.9010351 -0.236411 -0.3636561 
213.5354 -29.55246 -22.3266 0.5310373 -0.6379053 -0.557742 
211.9247 -37.11386 -15.212 0.5770417 -0.6110462 -0.5418908 
214.8223 -31.98846 -18.3152 0.7655655 -0.4373345 -0.471856 
215.8531 -35.41606 -13.4134 0.9779307 0.181474 -0.1035314 
234.1126 -27.32396 -5.0536 0.2622673 -0.7820239 -0.5653799 
232.387 -19.65596 -16.6329 0.3011233 -0.3821969 -0.873642 
256.1673 11.76474 -5.7454 0.5660294 0.2664601 -0.7801344 
242.8283 26.57394 -1.0632 0.3142144 0.6699056 -0.6726781 
240.7678 14.61703 -12.7959 0.3173095 0.5121088 -0.7981599 
267.1216 -11.44955 7.0802 0 0 0 
267.8478 -11.84756 8.3664 0.8534432 -0.09749201 -0.5119864 
268.4854 -12.57686 9.5682 0.9171835 0.3917011 0.07310821 
268.9694 -13.60725 10.5712 0.9499499 0.1135159 -0.2910488 
269.1289 -14.34746 10.9782 0.9830155 0.07911217 -0.165595 
269.187 -15.83566 11.7598 0.8921357 -0.2346922 -0.3860227 
269.2046 -14.86147 11.417 0.8954207 -0.1884087 -0.4033907 
276.3503 -21.86586 28.6701 0.9101258 -0.2446083 -0.3344218 
279.2137 -2.306152 29.981 0.9996693 0.02509838 0.005602289 
271.0812 -1.957565 11.872 0.8944148 0.009218218 -0.4471433 
216.748 -37.59166 -9.2539 0.9975571 0.01760436 -0.06760125 
216.731 -37.42915 -9.5103 0.840183 -0.3849052 -0.3820218 
216.9458 -43.00696 -4.5234 0.825053 -0.3573895 -0.4376761 
216.9158 -45.86575 -2.181 0.8817043 0.1869622 0.4331776 
216.5825 -49.19167 0.1998 0.8556519 -0.3965536 -0.3325736 
268.7709 -17.65385 12.4507 0.7956479 -0.4016114 -0.4534895 
269.1469 -16.25356 12.0445 0.8527314 -0.3508455 -0.3869841 
269.6508 -13.00606 12.0184 0.9214923 -0.1235848 -0.3682103 
260.6131 5.822037 -3.71 0.7030139 0.1674358 -0.691185 
268.7141 11.19073 10.7882 0.8296483 0.2367928 -0.5055819 
240.4075 39.59013 12.2141 0.1575185 0.7481306 -0.644584 
267.2355 30.99605 24.497 0.6527281 0.6673757 -0.3585467 
204.9422 -58.67076 3.1697 0.5919305 -0.7780775 0.2102708 
208.0728 7.496948 -27.7648 0.3606816 0.2390909 -0.9015234 
210.9289 -8.812759 -26.4572 0.4162795 -3.12368e-06 -0.9092367 
212.6963 -18.36595 -25.648 0.4162827 2.701101e-05 -0.9092353 
212.7213 -18.85536 -25.6366 0.4162827 2.832322e-05 -0.9092353 
207.2165 18.93915 -17.2396 0.1564797 0.7193894 -0.6767518 
207.2433 18.82445 -17.3553 0.1650573 0.7041236 -0.6906273 
206.3202 24.01514 -12.051 0.1549562 0.7194362 -0.6770526 
201.9993 31.22585 -5.3705 0.2056594 0.67388 -0.7096407 
208.9452 11.67244 -23.6289 0.1819666 0.6725347 -0.717346 
268.7781 -34.38815 25.2032 0.8252149 -0.4661188 -0.3189886 
275.7776 16.77974 28.4078 0.8837867 0.3544072 -0.3054776 
265.558 33.84134 30.9218 0.6632168 0.6833011 -0.3053574 
273.371 23.29623 34.4989 0.949313 0.3115448 0.04176955 
237.5193 44.71935 18.0847 0.3026693 0.7694654 -0.5624183 
198.0189 36.11725 -0.0001 -0.08305671 0.9580534 -0.2742908 
200.1452 35.25584 -3.6527 0.1401868 0.7967081 -0.5878809 
277.4135 0.8422394 36.3497 0.9666851 0.04195309 0.2525074 
275.1989 -21.91786 35.3358 0.9354596 -0.318391 0.1534358 
268.0666 -36.26326 32.0704 0.8635095 -0.502079 -0.04762484 
268.7654 -17.67926 12.4676 0.7585818 -0.4235259 -0.4951561 
268.6734 -17.86465 12.454 0.7626143 -0.4156543 -0.4956319 
268.1194 -19.00195 12.4211 0.8107984 -0.3821463 -0.4433624 
267.299 -20.06966 11.8411 0.6830133 0.3451246 -0.643725 
266.3964 -20.76945 10.7937 0.8181959 -0.08723271 -0.5682833 
265.5111 -21.04996 9.4164 0.555188 0.2967414 -0.7769883 
3 2 1 0 
3 2 3 1 
3 5 1 4 
3 8 7 6 
3 11 10 9 
3 14 13 12 
3 17 16 15 
3 18 17 5 
3 21 20 19 
3 3 21 19 
3 23 22 9 
3 25 24 8 
3 7 23 6 
3 12 13 25 
3 26 25 6 
3 7 27 23 
3 5 17 15 
3 1 3 28 
3 1 28 4 
3 1 5 0 
3 12 25 26 
3 10 26 6 
3 25 8 6 
3 9 21 29 
3 9 29 11 
3 22 20 21 
3 22 21 9 
3 3 19 28 
3 21 3 29 
3 23 27 22 
3 10 6 23 
3 0 5 15 
3 13 24 25 
3 18 5 4 
3 29 3 2 
3 10 23 9 
3 28 27 7 
3 19 20 22 
3 28 19 22 
3 27 28 22 
3 29 2 11 
3 2 0 11 
3 0 10 11 
3 10 0 26 
3 12 26 0 
3 12 0 15 
3 8 4 28 
3 8 28 7 
3 8 24 18 
3 8 18 4 
3 16 30 14 
3 12 15 16 
3 12 16 14 
3 31 18 24 
3 18 31 32 
3 18 32 17 
3 16 17 34 
3 16 34 33 
3 33 30 16 
3 37 36 35 
3 13 38 24 
3 41 40 39 
3 34 35 33 
3 14 39 13 
3 42 32 31 
3 36 44 43 
3 36 40 41 
3 36 41 44 
3 37 45 40 
3 37 40 36 
3 40 45 38 
3 39 38 13 
3 39 40 38 
3 36 43 35 
3 30 33 35 
3 30 35 43 
3 46 39 14 
3 46 41 39 
3 32 42 35 
3 32 35 34 
3 17 32 34 
3 37 35 42 
3 38 45 37 
3 38 37 42 
3 46 43 44 
3 46 44 41 
3 24 38 42 
3 24 42 31 
3 14 30 43 
3 14 43 46 
3 49 48 47 
3 47 51 50 
3 51 52 50 
3 50 52 53 
3 52 54 53 
3 53 56 55 
3 54 56 53 
3 55 58 57 
3 58 55 56 
3 57 60 59 
3 60 57 58 
3 63 62 61 
3 63 61 64 
3 62 66 65 
3 62 65 61 
3 66 68 67 
3 66 67 65 
3 70 69 68 
3 72 59 71 
3 71 59 60 
3 74 73 72 
3 72 71 74 
3 63 64 73 
3 63 73 74 
3 51 75 52 
3 52 76 54 
3 79 78 77 
3 81 80 77 
3 82 81 77 
3 85 84 83 
3 85 87 86 
3 88 87 85 
3 90 84 86 
3 90 86 89 
3 89 91 90 
3 77 78 92 
3 93 77 92 
3 83 84 78 
3 96 95 94 
3 96 94 87 
3 98 97 77 
3 99 98 77 
3 100 77 93 
3 101 77 100 
3 102 77 101 
3 88 96 87 
3 83 78 79 
3 80 99 77 
3 97 79 77 
3 105 104 103 
3 103 104 106 
3 105 107 104 
3 104 107 108 
3 95 110 109 
3 95 109 94 
3 113 112 111 
3 111 90 91 
3 111 91 113 
3 115 114 107 
3 105 115 107 
3 115 105 116 
3 116 105 103 
3 117 85 83 
3 117 83 118 
3 119 88 85 
3 120 85 117 
3 121 117 118 
3 121 118 122 
3 104 108 123 
3 125 123 108 
3 125 108 124 
3 124 108 126 
3 128 127 121 
3 121 123 125 
3 121 125 128 
3 123 121 122 
3 123 122 129 
3 131 130 109 
3 131 109 110 
3 134 133 132 
3 134 132 111 
3 134 111 112 
3 136 135 130 
3 136 130 131 
3 139 138 137 
3 139 137 132 
3 139 132 133 
3 141 140 136 
3 140 135 136 
3 137 144 143 
3 137 143 142 
3 144 137 138 
3 104 123 106 
3 123 129 106 
3 145 120 117 
3 117 121 127 
3 117 127 145 
3 84 90 92 
3 84 92 78 
3 116 103 82 
3 82 103 81 
3 103 106 81 
3 81 106 80 
3 93 92 111 
3 90 111 92 
3 98 122 118 
3 98 118 97 
3 148 147 146 
3 118 83 79 
3 118 79 97 
3 129 122 99 
3 99 122 98 
3 100 93 132 
3 132 93 111 
3 101 100 137 
3 137 100 132 
3 142 102 101 
3 142 101 137 
3 106 129 80 
3 80 129 99 
3 147 149 146 
3 152 151 150 
3 152 150 153 
3 107 152 153 
3 107 153 108 
3 154 146 96 
3 154 96 88 
3 147 155 149 
3 155 156 149 
3 149 156 110 
3 149 110 95 
3 159 158 157 
3 159 157 160 
3 160 157 119 
3 160 119 161 
3 150 162 153 
3 153 162 163 
3 108 153 163 
3 108 163 126 
3 157 154 88 
3 157 88 119 
3 158 164 154 
3 158 154 157 
3 164 148 154 
3 148 146 154 
3 155 76 156 
3 76 165 156 
3 156 165 110 
3 165 131 110 
3 76 75 165 
3 75 166 165 
3 166 136 165 
3 165 136 131 
3 75 167 166 
3 167 168 166 
3 168 141 166 
3 166 141 136 
3 170 169 151 
3 170 151 152 
3 114 170 107 
3 170 152 107 
3 163 160 161 
3 171 163 161 
3 162 159 163 
3 163 159 160 
3 146 149 95 
3 146 95 96 
3 52 75 76 
3 54 76 56 
3 76 155 56 
3 56 155 147 
3 58 56 147 
3 58 147 148 
3 60 58 148 
3 60 148 164 
3 71 60 164 
3 71 164 158 
3 74 71 158 
3 74 158 159 
3 63 74 159 
3 63 159 162 
3 162 62 63 
3 150 62 162 
3 150 66 62 
3 151 66 150 
3 151 68 66 
3 169 68 151 
3 172 167 51 
3 51 167 75 
3 169 70 68 
3 140 143 144 
3 138 135 140 
3 138 140 144 
3 135 138 139 
3 133 130 135 
3 133 135 139 
3 133 134 130 
3 109 130 134 
3 109 134 112 
3 113 94 109 
3 113 109 112 
3 91 94 113 
3 89 87 94 
3 89 94 91 
3 86 87 89 
3 85 86 84 
3 120 119 85 
3 145 161 119 
3 145 119 120 
3 127 161 145 
3 128 171 161 
3 128 161 127 
3 125 171 128 
3 171 125 124 
3 171 124 126 
3 126 163 171 
3 48 51 47 
3 48 172 51 
3 67 68 69 
3 67 69 173 
3 175 50 174 
3 174 50 53 
3 177 57 176 
3 176 57 59 
3 178 55 177 
3 177 55 57 
3 179 176 72 
3 72 176 59 
3 73 180 72 
3 72 180 179 
3 64 181 73 
3 181 180 73 
3 182 49 47 
3 61 183 64 
3 181 64 183 
3 181 183 184 
3 65 185 61 
3 185 183 61 
3 173 186 67 
3 67 187 65 
3 188 47 50 
3 174 53 178 
3 178 53 55 
3 181 184 183 
3 181 183 174 
3 179 180 181 
3 179 181 174 
3 177 176 179 
3 177 179 174 
3 178 177 174 
3 47 188 189 
3 47 189 182 
3 187 67 186 
3 187 186 190 
3 183 185 192 
3 183 192 191 
3 175 174 183 
3 175 183 191 
3 185 65 187 
3 185 187 192 
3 175 191 188 
3 175 188 50 
3 189 192 187 
3 189 187 190 
3 188 191 192 
3 188 192 189 
3 196 195 194 
3 196 194 193 
3 198 197 195 
3 198 195 196 
3 200 198 196 
3 200 196 199 
3 201 199 196 
3 201 196 193 
3 199 203 202 
3 199 202 201 
3 200 204 203 
3 200 203 199 
3 194 202 201 
3 194 201 193 
3 197 198 200 
3 197 200 204 
3 203 202 194 
3 203 194 195 
3 203 195 197 
3 203 197 204 
3 208 207 206 
3 208 206 205 
3 210 208 205 
3 210 205 209 
3 213 212 211 
3 202 215 214 
3 202 214 201 
3 218 217 215 
3 218 215 216 
3 207 208 220 
3 207 220 219 
3 223 222 221 
3 204 200 225 
3 204 225 224 
3 228 227 226 
3 229 212 213 
3 215 217 227 
3 215 227 214 
3 226 218 223 
3 209 205 231 
3 209 231 230 
3 208 210 232 
3 208 232 220 
3 224 225 229 
3 224 229 222 
3 212 227 211 
3 217 218 226 
3 230 231 223 
3 230 223 221 
3 233 219 228 
3 233 228 226 
3 234 214 227 
3 234 227 212 
3 214 234 199 
3 214 199 201 
3 218 216 224 
3 218 224 222 
3 222 213 221 
3 220 231 233 
3 220 233 219 
3 232 230 231 
3 232 231 220 
3 233 206 207 
3 233 207 219 
3 205 206 233 
3 205 233 231 
3 227 217 226 
3 213 211 220 
3 213 220 232 
3 209 230 232 
3 209 232 210 
3 216 203 204 
3 216 204 224 
3 218 222 223 
3 216 215 202 
3 216 202 203 
3 219 220 211 
3 219 211 228 
3 229 225 234 
3 229 234 212 
3 229 213 222 
3 225 200 199 
3 225 199 234 
3 211 227 228 
3 230 221 213 
3 230 213 232 
3 231 233 226 
3 231 226 223 
3 238 237 236 
3 238 236 235 
3 240 237 238 
3 240 238 239 
3 242 240 239 
3 242 239 241 
3 244 238 235 
3 244 235 243 
3 236 237 246 
3 236 246 245 
3 235 236 245 
3 235 245 247 
3 243 235 247 
3 243 247 248 
3 243 248 249 
3 243 249 244 
3 238 244 249 
3 238 249 250 
3 238 250 251 
3 238 251 239 
3 241 239 251 
3 241 251 252 
3 242 241 252 
3 242 252 253 
3 242 253 254 
3 242 254 240 
3 249 248 247 
3 249 247 250 
3 245 246 250 
3 245 250 247 
3 254 251 250 
3 254 250 246 
3 253 252 251 
3 253 251 254 
3 237 240 254 
3 237 254 246 
3 255 256 257 
3 255 257 258 
3 259 258 257 
3 259 257 260 
3 261 259 260 
3 261 260 262 
3 263 255 258 
3 263 258 264 
3 265 266 257 
3 265 257 256 
3 267 265 256 
3 267 256 255 
3 268 267 255 
3 268 255 263 
3 264 269 268 
3 264 268 263 
3 270 269 264 
3 270 264 258 
3 259 271 270 
3 259 270 258 
3 272 271 259 
3 272 259 261 
3 273 272 261 
3 273 261 262 
3 260 274 273 
3 260 273 262 
3 270 267 268 
3 270 268 269 
3 267 270 266 
3 267 266 265 
3 266 270 271 
3 266 271 274 
3 274 271 272 
3 274 272 273 
3 266 274 260 
3 266 260 257 
3 275 276 277 
3 276 278 277 
3 279 276 280 
3 281 282 283 
3 284 285 286 
3 287 288 289 
3 290 291 292 
3 280 292 293 
3 294 295 296 
3 294 296 278 
3 284 297 298 
3 283 299 300 
3 281 298 282 
3 300 288 287 
3 281 300 301 
3 298 302 282 
3 290 292 280 
3 303 278 276 
3 279 303 276 
3 275 280 276 
3 301 300 287 
3 281 301 285 
3 281 283 300 
3 286 304 296 
3 286 296 284 
3 284 296 295 
3 284 295 297 
3 303 294 278 
3 304 278 296 
3 297 302 298 
3 298 281 285 
3 290 280 275 
3 300 299 288 
3 279 280 293 
3 277 278 304 
3 284 298 285 
3 282 302 303 
3 297 295 294 
3 297 294 303 
3 297 303 302 
3 286 277 304 
3 286 275 277 
3 286 285 275 
3 301 275 285 
3 290 275 301 
3 290 301 287 
3 282 303 279 
3 282 279 283 
3 279 293 299 
3 279 299 283 
3 289 305 291 
3 289 291 290 
3 289 290 287 
3 299 293 306 
3 292 307 306 
3 292 306 293 
3 308 309 292 
3 308 292 291 
3 291 305 308 
3 310 311 312 
3 299 313 288 
3 314 315 316 
3 308 310 309 
3 288 314 289 
3 306 307 317 
3 318 319 311 
3 319 316 315 
3 319 315 311 
3 311 315 320 
3 311 320 312 
3 313 320 315 
3 288 313 314 
3 313 315 314 
3 310 318 311 
3 318 310 308 
3 318 308 305 
3 289 314 321 
3 314 316 321 
3 309 310 317 
3 309 317 307 
3 309 307 292 
3 317 310 312 
3 317 312 320 
3 317 320 313 
3 316 319 318 
3 316 318 321 
3 306 317 313 
3 306 313 299 
3 321 318 305 
3 321 305 289 
3 322 323 324 
3 325 326 322 
3 325 327 326 
3 328 327 325 
3 328 329 327 
3 330 331 328 
3 328 331 329 
3 332 333 330 
3 331 330 333 
3 334 335 332 
3 333 332 335 
3 336 337 338 
3 339 336 338 
3 340 341 337 
3 336 340 337 
3 342 343 341 
3 340 342 341 
3 343 344 345 
3 346 334 347 
3 335 334 346 
3 347 348 349 
3 349 346 347 
3 348 339 338 
3 349 348 338 
3 327 350 326 
3 329 351 327 
3 352 353 354 
3 352 355 356 
3 352 356 357 
3 358 359 360 
3 361 362 360 
3 360 362 363 
3 364 361 359 
3 364 359 365 
3 365 366 364 
3 367 353 352 
3 367 352 368 
3 353 359 358 
3 369 370 371 
3 362 369 371 
3 352 372 373 
3 352 373 374 
3 368 352 375 
3 375 352 376 
3 376 352 377 
3 362 371 363 
3 354 353 358 
3 352 374 355 
3 352 354 372 
3 378 379 380 
3 381 379 378 
3 379 382 380 
3 383 382 379 
3 384 385 370 
3 369 384 370 
3 386 387 388 
3 388 366 365 
3 388 365 386 
3 382 389 390 
3 382 390 380 
3 391 380 390 
3 378 380 391 
3 358 360 392 
3 393 358 392 
3 360 363 394 
3 392 360 395 
3 393 392 396 
3 397 393 396 
3 398 383 379 
3 399 383 398 
3 399 398 400 
3 401 383 399 
3 396 402 403 
3 403 400 398 
3 403 398 396 
3 397 396 398 
3 404 397 398 
3 384 405 406 
3 385 384 406 
3 386 407 408 
3 386 408 409 
3 387 386 409 
3 405 410 411 
3 406 405 411 
3 407 412 413 
3 407 413 414 
3 408 407 414 
3 411 415 416 
3 411 410 415 
3 417 418 419 
3 417 419 412 
3 413 412 419 
3 381 398 379 
3 381 404 398 
3 392 395 420 
3 420 402 396 
3 420 396 392 
3 367 365 359 
3 353 367 359 
3 357 378 391 
3 356 378 357 
3 356 381 378 
3 355 381 356 
3 386 367 368 
3 367 386 365 
3 372 393 397 
3 372 397 373 
3 421 422 423 
3 354 358 393 
3 372 354 393 
3 374 397 404 
3 373 397 374 
3 407 368 375 
3 386 368 407 
3 412 375 376 
3 407 375 412 
3 376 377 417 
3 412 376 417 
3 355 404 381 
3 374 404 355 
3 421 424 422 
3 425 426 427 
3 428 425 427 
3 428 427 382 
3 383 428 382 
3 371 421 429 
3 363 371 429 
3 424 430 422 
3 424 431 430 
3 385 431 424 
3 370 385 424 
3 432 433 434 
3 435 432 434 
3 394 432 435 
3 436 394 435 
3 428 437 425 
3 438 437 428 
3 438 428 383 
3 401 438 383 
3 363 429 432 
3 394 363 432 
3 429 439 433 
3 432 429 433 
3 429 423 439 
3 429 421 423 
3 431 351 430 
3 431 440 351 
3 385 440 431 
3 385 406 440 
3 440 350 351 
3 440 441 350 
3 440 411 441 
3 406 411 440 
3 441 442 350 
3 441 443 442 
3 441 416 443 
3 411 416 441 
3 426 444 445 
3 427 426 445 
3 382 445 389 
3 382 427 445 
3 436 435 438 
3 436 438 446 
3 438 434 437 
3 435 434 438 
3 370 424 421 
3 371 370 421 
3 351 350 327 
3 331 351 329 
3 331 430 351 
3 422 430 331 
3 422 331 333 
3 423 422 333 
3 423 333 335 
3 439 423 335 
3 439 335 346 
3 433 439 346 
3 433 346 349 
3 434 433 349 
3 434 349 338 
3 437 434 338 
3 338 337 437 
3 437 337 425 
3 337 341 425 
3 425 341 426 
3 341 343 426 
3 426 343 444 
3 326 442 447 
3 350 442 326 
3 343 345 444 
3 419 418 415 
3 419 415 410 
3 419 410 413 
3 414 413 410 
3 414 410 405 
3 414 405 408 
3 405 409 408 
3 387 409 405 
3 387 405 384 
3 387 384 369 
3 387 369 388 
3 388 369 366 
3 366 369 362 
3 366 362 364 
3 364 362 361 
3 359 361 360 
3 360 394 395 
3 395 394 436 
3 395 436 420 
3 420 436 402 
3 402 436 446 
3 402 446 403 
3 403 446 400 
3 401 399 400 
3 401 400 446 
3 446 438 401 
3 322 326 323 
3 326 447 323 
3 448 344 343 
3 448 343 342 
3 449 325 450 
3 328 325 449 
3 451 332 452 
3 334 332 451 
3 452 330 453 
3 332 330 452 
3 347 451 454 
3 334 451 347 
3 347 455 348 
3 454 455 347 
3 348 456 339 
3 348 455 456 
3 322 324 457 
3 339 458 336 
3 459 458 339 
3 459 339 456 
3 336 460 340 
3 336 458 460 
3 342 461 448 
3 340 462 342 
3 325 322 463 
3 453 328 449 
3 330 328 453 
3 449 458 459 
3 449 459 456 
3 449 456 455 
3 449 455 454 
3 449 454 451 
3 449 451 452 
3 449 452 453 
3 457 464 463 
3 457 463 322 
3 465 461 342 
3 465 342 462 
3 466 467 460 
3 466 460 458 
3 466 458 449 
3 466 449 450 
3 467 462 340 
3 467 340 460 
3 325 463 466 
3 325 466 450 
3 465 462 467 
3 465 467 464 
3 464 467 466 
3 464 466 463 
3 468 469 470 
3 468 470 471 
3 471 470 472 
3 471 472 473 
3 474 471 473 
3 474 473 475 
3 468 471 474 
3 468 474 476 
3 476 477 478 
3 476 478 474 
3 474 478 479 
3 474 479 475 
3 468 476 477 
3 468 477 469 
3 479 475 473 
3 479 473 472 
3 470 469 477 
3 470 477 478 
3 479 472 470 
3 479 470 478 
3 480 481 482 
3 480 482 483 
3 484 480 483 
3 484 483 485 
3 486 487 488 
3 476 489 490 
3 476 490 477 
3 491 490 492 
3 491 492 493 
3 494 495 483 
3 494 483 482 
3 496 497 498 
3 499 500 475 
3 499 475 479 
3 501 502 503 
3 488 487 504 
3 489 502 492 
3 489 492 490 
3 498 493 501 
3 505 506 480 
3 505 480 484 
3 495 507 485 
3 495 485 483 
3 497 504 500 
3 497 500 499 
3 486 502 487 
3 501 493 492 
3 496 498 506 
3 496 506 505 
3 501 503 494 
3 501 494 508 
3 487 502 489 
3 487 489 509 
3 476 474 509 
3 476 509 489 
3 497 499 491 
3 497 491 493 
3 496 488 497 
3 494 508 506 
3 494 506 495 
3 495 506 505 
3 495 505 507 
3 494 482 481 
3 494 481 508 
3 506 508 481 
3 506 481 480 
3 501 492 502 
3 507 495 486 
3 507 486 488 
3 485 507 505 
3 485 505 484 
3 499 479 478 
3 499 478 491 
3 498 497 493 
3 478 477 490 
3 478 490 491 
3 503 486 495 
3 503 495 494 
3 487 509 500 
3 487 500 504 
3 497 488 504 
3 509 474 475 
3 509 475 500 
3 503 502 486 
3 507 488 496 
3 507 496 505 
3 498 501 508 
3 498 508 506 
3 510 511 512 
3 510 512 513 
3 514 513 512 
3 514 512 515 
3 516 514 515 
3 516 515 517 
3 518 510 513 
3 518 513 519 
3 520 521 512 
3 520 512 511 
3 522 520 511 
3 522 511 510 
3 523 522 510 
3 523 510 518 
3 519 524 523 
3 519 523 518 
3 525 524 519 
3 525 519 513 
3 514 526 525 
3 514 525 513 
3 527 526 514 
3 527 514 516 
3 528 527 516 
3 528 516 517 
3 515 529 528 
3 515 528 517 
3 525 522 523 
3 525 523 524 
3 522 525 521 
3 522 521 520 
3 521 525 526 
3 521 526 529 
3 529 526 527 
3 529 527 528 
3 521 529 515 
3 521 515 512 
3 533 532 531 
3 533 531 530 
3 535 532 533 
3 535 533 534 
3 537 535 534 
3 537 534 536 
3 539 533 530 
3 539 530 538 
3 531 532 541 
3 531 541 540 
3 530 531 540 
3 530 540 542 
3 538 530 542 
3 538 542 543 
3 538 543 544 
3 538 544 539 
3 533 539 544 
3 533 544 545 
3 533 545 546 
3 533 546 534 
3 536 534 546 
3 536 546 547 
3 537 536 547 
3 537 547 548 
3 537 548 549 
3 537 549 535 
3 544 543 542 
3 544 542 545 
3 540 541 545 
3 540 545 542 
3 549 546 545 
3 549 545 541 
3 548 547 546 
3 548 546 549 
3 532 535 549 
3 532 549 541 
3 550 551 552 
3 550 552 553 
3 554 555 551 
3 554 551 550 
3 556 557 558 
3 556 558 559 
3 560 561 562 
3 560 562 563 
3 564 565 566 
3 564 566 567 
3 568 569 570 
3 568 570 571 
3 572 573 574 
3 572 574 575 
3 576 577 578 
3 576 578 579 
3 580 576 579 
3 580 579 581 
3 582 583 584 
3 582 584 585 
3 559 586 587 
3 559 587 556 
3 563 562 588 
3 563 588 589 
3 590 583 582 
3 590 582 591 
3 577 568 571 
3 577 571 578 
3 592 580 581 
3 592 581 593 
3 585 584 561 
3 585 561 560 
3 586 589 588 
3 586 588 587 
3 594 592 593 
3 594 593 595 
3 554 594 595 
3 554 595 555 
3 565 596 597 
3 565 597 566 
3 553 552 597 
3 553 597 596 
3 557 572 575 
3 557 575 558 
3 573 564 567 
3 573 567 574 
3 569 590 591 
3 569 591 570 
3 598 592 594 
3 598 594 599 
3 600 580 592 
3 600 592 598 
3 550 554 594 
3 550 594 592 
3 553 550 592 
3 553 592 580 
3 596 553 580 
3 596 580 576 
3 565 596 576 
3 565 576 564 
3 564 576 577 
3 564 577 568 
3 573 564 568 
3 573 568 569 
3 572 573 569 
3 572 569 590 
3 557 572 590 
3 557 590 556 
3 556 590 583 
3 556 583 584 
3 587 556 584 
3 587 584 561 
3 588 587 561 
3 588 561 562 
3 601 602 577 
3 601 577 576 
3 602 603 568 
3 602 568 577 
3 551 555 595 
3 551 595 593 
3 552 551 593 
3 552 593 581 
3 597 552 581 
3 597 581 579 
3 566 597 579 
3 566 579 578 
3 567 566 578 
3 567 578 571 
3 574 567 571 
3 574 571 570 
3 575 574 570 
3 575 570 591 
3 558 575 591 
3 558 591 582 
3 559 558 582 
3 559 582 585 
3 586 559 585 
3 586 585 560 
3 589 586 560 
3 589 560 563 
3 603 604 569 
3 603 569 568 
3 604 605 590 
3 604 590 569 
3 605 606 583 
3 605 583 590 
3 583 606 607 
3 583 607 584 
3 600 601 576 
3 600 576 580 
3 608 609 610 
3 608 610 611 
3 612 613 614 
3 612 614 609 
3 612 609 608 
3 615 611 610 
3 615 610 616 
3 617 618 619 
3 614 613 620 
3 621 622 623 
3 612 624 613 
3 613 624 625 
3 621 623 626 
3 621 626 625 
3 625 626 627 
3 625 627 613 
3 613 627 620 
3 628 629 630 
3 628 630 631 
3 631 630 632 
3 633 618 617 
3 633 617 634 
3 633 634 635 
3 635 634 629 
3 635 629 628 
3 636 637 618 
3 636 618 633 
3 638 636 633 
3 638 633 639 
3 639 633 640 
3 641 642 643 
3 641 643 637 
3 637 643 618 
3 615 616 644 
3 615 644 645 
3 646 645 644 
3 646 644 647 
3 647 644 648 
3 645 646 649 
3 645 649 650 
3 645 650 651 
3 652 653 654 
3 652 654 655 
3 656 657 658 
3 656 658 659 
3 652 655 660 
3 652 660 661 
3 653 657 656 
3 653 656 654 
3 661 660 662 
3 661 662 663 
3 662 664 665 
3 662 665 663 
3 666 665 664 
3 666 664 667 
3 668 669 666 
3 668 666 667 
3 670 669 668 
3 670 668 671 
3 672 670 671 
3 672 671 673 
3 674 675 672 
3 674 672 673 
3 676 675 674 
3 676 674 677 
3 658 678 679 
3 658 679 659 
3 679 677 674 
3 679 674 659 
3 659 674 673 
3 659 673 656 
3 656 673 671 
3 656 671 654 
3 654 671 668 
3 654 668 667 
3 655 654 667 
3 655 667 664 
3 660 655 664 
3 660 664 662 
3 680 681 677 
3 680 677 679 
3 680 679 632 
3 630 681 680 
3 682 683 684 
3 685 684 686 
3 685 686 687 
3 688 687 686 
3 688 686 643 
3 689 688 643 
3 689 643 690 
3 690 643 642 
3 690 642 691 
3 692 691 642 
3 692 642 693 
3 637 693 642 
3 637 642 641 
3 644 694 695 
3 644 695 696 
3 696 695 683 
3 696 683 697 
3 696 697 698 
3 696 698 699 
3 696 699 700 
3 696 700 648 
3 696 648 701 
3 702 676 677 
3 702 677 703 
3 704 705 702 
3 704 702 703 
3 706 707 708 
3 632 630 680 
3 709 710 711 
3 709 712 710 
3 618 643 619 
3 713 714 715 
3 705 713 716 
3 705 716 717 
3 718 719 720 
3 718 720 721 
3 721 720 722 
3 706 723 707 
3 723 724 707 
3 711 710 724 
3 711 724 723 
3 725 726 727 
3 647 648 700 
3 647 700 646 
3 649 646 700 
3 649 700 650 
3 650 700 728 
3 650 728 729 
3 650 729 730 
3 650 730 651 
3 651 730 731 
3 651 731 732 
3 682 733 734 
3 682 734 732 
3 735 736 737 
3 703 723 706 
3 722 720 738 
3 722 738 739 
3 738 720 715 
3 738 715 740 
3 741 740 715 
3 741 715 742 
3 742 715 714 
3 703 706 704 
3 711 723 703 
3 711 703 677 
3 681 711 677 
3 733 682 743 
3 733 743 744 
3 682 684 685 
3 682 685 687 
3 682 687 688 
3 682 688 693 
3 693 688 689 
3 693 689 690 
3 693 690 691 
3 693 691 692 
3 644 696 701 
3 644 701 648 
3 728 700 682 
3 728 682 729 
3 730 729 682 
3 730 682 731 
3 731 682 732 
3 645 737 615 
3 699 698 697 
3 699 697 700 
3 700 697 683 
3 700 683 682 
3 644 616 694 
3 651 745 645 
3 620 726 725 
3 620 725 614 
3 616 610 746 
3 616 746 694 
3 737 747 611 
3 737 611 615 
3 609 725 746 
3 609 746 610 
3 611 747 608 
3 609 614 725 
3 747 612 608 
3 627 748 726 
3 627 726 620 
3 626 623 748 
3 626 748 627 
3 625 749 621 
3 683 695 686 
3 683 686 684 
3 715 750 717 
3 715 717 713 
3 713 717 716 
3 706 722 739 
3 706 739 738 
3 706 738 704 
3 727 751 752 
3 727 752 725 
3 746 725 752 
3 746 752 694 
3 694 752 753 
3 694 753 695 
3 695 753 754 
3 695 754 724 
3 724 754 708 
3 724 708 707 
3 686 695 724 
3 686 724 710 
3 686 710 712 
3 704 738 740 
3 704 740 741 
3 704 741 742 
3 704 742 714 
3 709 711 681 
3 709 681 629 
3 629 681 630 
3 755 756 726 
3 755 726 757 
3 758 757 726 
3 758 726 748 
3 727 726 756 
3 727 756 759 
3 727 759 751 
3 706 708 719 
3 706 719 718 
3 706 718 721 
3 706 721 722 
3 704 714 713 
3 704 713 705 
3 643 686 712 
3 643 712 619 
3 619 712 709 
3 619 709 617 
3 629 634 709 
3 760 633 635 
3 634 617 709 
3 749 761 762 
3 761 763 762 
3 623 764 748 
3 623 622 764 
3 762 764 622 
3 762 622 621 
3 762 621 749 
3 764 765 766 
3 758 764 766 
3 764 758 748 
3 736 761 747 
3 736 747 737 
3 767 763 761 
3 767 761 736 
3 736 768 767 
3 735 768 736 
3 735 760 768 
3 760 769 768 
3 760 679 678 
3 769 760 678 
3 679 635 628 
3 679 760 635 
3 761 749 625 
3 761 625 624 
3 651 732 745 
3 735 737 645 
3 735 645 745 
3 735 745 732 
3 735 732 734 
3 735 734 733 
3 760 744 743 
3 760 743 770 
3 760 735 744 
3 735 733 744 
3 761 624 612 
3 747 761 612 
3 631 632 679 
3 631 679 628 
3 771 682 693 
3 771 693 772 
3 773 772 693 
3 773 693 774 
3 774 693 775 
3 760 640 633 
3 760 770 640 
3 743 682 771 
3 743 771 770 
3 770 771 640 
3 775 693 637 
3 775 637 639 
3 638 639 637 
3 638 637 636 
3 774 775 639 
3 774 639 773 
3 773 639 640 
3 773 640 772 
3 772 640 771 
3 779 778 777 
3 779 777 776 
3 776 777 781 
3 776 781 780 
3 785 784 783 
3 785 783 782 
3 789 788 787 
3 789 787 786 
3 793 792 791 
3 793 791 790 
3 797 796 795 
3 797 795 794 
3 801 800 799 
3 801 799 798 
3 805 804 803 
3 805 803 802 
3 807 805 802 
3 807 802 806 
3 811 810 809 
3 811 809 808 
3 782 813 812 
3 782 812 785 
3 815 814 788 
3 815 788 789 
3 817 808 809 
3 817 809 816 
3 804 797 794 
3 804 794 803 
3 819 807 806 
3 819 806 818 
3 786 787 810 
3 786 810 811 
3 813 814 815 
3 813 815 812 
3 821 819 818 
3 821 818 820 
3 781 821 820 
3 781 820 780 
3 792 823 822 
3 792 822 791 
3 822 823 778 
3 822 778 779 
3 784 801 798 
3 784 798 783 
3 800 793 790 
3 800 790 799 
3 796 817 816 
3 796 816 795 
3 825 820 818 
3 825 818 824 
3 824 818 806 
3 824 806 826 
3 818 820 780 
3 818 780 776 
3 806 818 776 
3 806 776 779 
3 802 806 779 
3 802 779 822 
3 790 802 822 
3 790 822 791 
3 794 803 802 
3 794 802 790 
3 795 794 790 
3 795 790 799 
3 816 795 799 
3 816 799 798 
3 782 816 798 
3 782 798 783 
3 810 809 816 
3 810 816 782 
3 787 810 782 
3 787 782 813 
3 788 787 813 
3 788 813 814 
3 802 803 828 
3 802 828 827 
3 803 794 829 
3 803 829 828 
3 819 821 781 
3 819 781 777 
3 807 819 777 
3 807 777 778 
3 805 807 778 
3 805 778 823 
3 804 805 823 
3 804 823 792 
3 797 804 792 
3 797 792 793 
3 796 797 793 
3 796 793 800 
3 817 796 800 
3 817 800 801 
3 808 817 801 
3 808 801 784 
3 811 808 784 
3 811 784 785 
3 786 811 785 
3 786 785 812 
3 789 786 812 
3 789 812 815 
3 794 795 830 
3 794 830 829 
3 795 816 831 
3 795 831 830 
3 816 809 832 
3 816 832 831 
3 810 833 832 
3 810 832 809 
3 806 802 827 
3 806 827 826 
3 837 836 835 
3 837 835 834 
3 835 840 839 
3 835 839 838 
3 834 835 838 
3 842 836 837 
3 842 837 841 
3 845 844 843 
3 846 839 840 
3 849 848 847 
3 839 850 838 
3 851 850 839 
3 851 852 849 
3 851 849 847 
3 839 853 852 
3 839 852 851 
3 846 853 839 
3 857 856 855 
3 857 855 854 
3 858 856 857 
3 860 843 844 
3 860 844 859 
3 861 860 859 
3 854 855 860 
3 854 860 861 
3 859 844 863 
3 859 863 862 
3 865 859 862 
3 865 862 864 
3 866 859 865 
3 863 869 868 
3 863 868 867 
3 844 869 863 
3 871 870 842 
3 871 842 841 
3 873 870 871 
3 873 871 872 
3 874 870 873 
3 876 875 872 
3 876 872 871 
3 877 876 871 
3 881 880 879 
3 881 879 878 
3 885 884 883 
3 885 883 882 
3 887 886 881 
3 887 881 878 
3 880 882 883 
3 880 883 879 
3 889 888 886 
3 889 886 887 
3 889 891 890 
3 889 890 888 
3 893 890 891 
3 893 891 892 
3 893 892 895 
3 893 895 894 
3 897 894 895 
3 897 895 896 
3 899 897 896 
3 899 896 898 
3 899 898 901 
3 899 901 900 
3 903 900 901 
3 903 901 902 
3 885 905 904 
3 885 904 884 
3 885 900 903 
3 885 903 905 
3 882 899 900 
3 882 900 885 
3 880 897 899 
3 880 899 882 
3 893 894 897 
3 893 897 880 
3 890 893 880 
3 890 880 881 
3 888 890 881 
3 888 881 886 
3 905 903 907 
3 905 907 906 
3 858 905 906 
3 906 907 856 
3 910 909 908 
3 913 912 910 
3 913 910 911 
3 869 912 913 
3 869 913 914 
3 916 869 914 
3 916 914 915 
3 917 868 869 
3 917 869 916 
3 919 868 917 
3 919 917 918 
3 867 868 919 
3 867 919 863 
3 922 921 920 
3 922 920 870 
3 923 909 921 
3 923 921 922 
3 925 924 923 
3 925 923 922 
3 874 926 925 
3 874 925 922 
3 927 874 922 
3 929 903 902 
3 929 902 928 
3 929 928 931 
3 929 931 930 
3 934 933 932 
3 906 856 858 
3 937 936 935 
3 936 938 935 
3 845 869 844 
3 941 940 939 
3 943 942 939 
3 943 939 931 
3 947 946 945 
3 947 945 944 
3 948 946 947 
3 933 949 932 
3 933 950 949 
3 950 936 937 
3 949 950 937 
3 953 952 951 
3 872 926 874 
3 872 874 873 
3 876 926 872 
3 876 872 875 
3 955 954 926 
3 955 926 876 
3 877 956 955 
3 877 955 876 
3 958 957 956 
3 958 956 877 
3 958 960 959 
3 958 959 908 
3 963 962 961 
3 932 949 929 
3 965 964 946 
3 965 946 948 
3 966 941 946 
3 966 946 964 
3 968 941 966 
3 968 966 967 
3 940 941 968 
3 930 932 929 
3 929 949 937 
3 903 929 937 
3 903 937 907 
3 970 969 908 
3 970 908 959 
3 913 911 910 
3 913 910 908 
3 919 914 913 
3 919 913 908 
3 916 915 914 
3 916 914 919 
3 918 917 916 
3 918 916 919 
3 874 927 922 
3 874 922 870 
3 955 908 926 
3 955 926 954 
3 957 908 955 
3 957 955 956 
3 958 908 957 
3 841 963 871 
3 926 923 924 
3 926 924 925 
3 908 909 923 
3 908 923 926 
3 920 842 870 
3 871 971 877 
3 840 951 952 
3 840 952 846 
3 920 972 836 
3 920 836 842 
3 841 837 973 
3 841 973 963 
3 836 972 951 
3 836 951 835 
3 834 973 837 
3 951 840 835 
3 834 838 973 
3 846 952 974 
3 846 974 853 
3 853 974 849 
3 853 849 852 
3 847 975 851 
3 910 912 921 
3 910 921 909 
3 939 943 976 
3 939 976 941 
3 942 943 939 
3 964 965 948 
3 964 948 932 
3 930 964 932 
3 951 978 977 
3 951 977 953 
3 920 978 951 
3 920 951 972 
3 921 979 978 
3 921 978 920 
3 950 980 979 
3 950 979 921 
3 933 934 980 
3 933 980 950 
3 936 950 921 
3 936 921 912 
3 938 936 912 
3 967 966 964 
3 967 964 930 
3 940 968 967 
3 940 967 930 
3 855 907 937 
3 855 937 935 
3 856 907 855 
3 983 952 982 
3 983 982 981 
3 974 952 983 
3 974 983 984 
3 985 982 952 
3 985 952 953 
3 977 985 953 
3 944 945 934 
3 944 934 932 
3 948 947 944 
3 948 944 932 
3 931 939 940 
3 931 940 930 
3 845 938 912 
3 845 912 869 
3 843 935 938 
3 843 938 845 
3 935 860 855 
3 861 859 986 
3 935 843 860 
3 988 987 975 
3 988 989 987 
3 974 990 849 
3 990 848 849 
3 848 990 988 
3 847 848 988 
3 975 847 988 
3 992 991 990 
3 992 990 984 
3 974 984 990 
3 963 973 987 
3 963 987 962 
3 962 987 989 
3 962 989 993 
3 993 994 962 
3 962 994 961 
3 994 986 961 
3 994 995 986 
3 904 905 986 
3 904 986 995 
3 854 861 905 
3 861 986 905 
3 851 975 987 
3 850 851 987 
3 971 958 877 
3 871 963 961 
3 971 871 961 
3 958 971 961 
3 960 958 961 
3 959 960 961 
3 996 969 970 
3 996 970 986 
3 970 961 986 
3 970 959 961 
3 838 850 987 
3 838 987 973 
3 854 905 858 
3 854 858 857 
3 998 919 908 
3 998 908 997 
3 1000 919 998 
3 1000 998 999 
3 1001 919 1000 
3 859 866 986 
3 866 996 986 
3 996 997 908 
3 996 908 969 
3 866 997 996 
3 865 863 919 
3 865 919 1001 
3 862 863 865 
3 862 865 864 
3 999 865 1001 
3 999 1001 1000 
3 998 866 865 
3 998 865 999 
3 997 866 998 
