ply
format ascii 1.0
comment VCGLIB generated
comment TextureFile ../textures/torch.bmp
element vertex 948
property float x
property float y
property float z
property float nx
property float ny
property float nz
property float texture_u
property float texture_v
element face 1268
property list uchar int vertex_indices
end_header
0.005 28.80419 -1.2639 -0.05872209 0 -0.9982744 0.775000 0.152700
0.005 1.586492 -1.2639 0.04865367 -0.5599279 -0.8271116 0.775000 0.997400
-0.4251 1.586492 -1.188 -0.2372781 -0.5599146 -0.7938481 0.762000 0.997400
-0.4251 28.80419 -1.188 -0.3965947 0 -0.9179938 0.762000 0.152700
-0.8034 1.586492 -0.9696 -0.4944031 -0.5599191 -0.6648731 0.749000 0.997400
-0.8034 28.80419 -0.9696 -0.6866037 0 -0.7270318 0.749000 0.152700
-1.0841 1.586492 -0.6351 -0.6919901 -0.5599213 -0.455673 0.735900 0.997400
-1.0841 28.80419 -0.6351 -0.8938715 0 -0.4483234 0.735900 0.152700
-1.2335 1.586492 -0.2246 -0.8061151 -0.5599188 -0.1914924 0.722900 0.997400
-1.2335 28.80419 -0.2246 -0.9933006 0 -0.1155591 0.722900 0.152700
-1.2335 1.586492 0.2121 -0.8229926 -0.5599212 0.09576723 0.709900 0.997400
-1.2335 28.80419 0.2121 -0.9729135 0 0.2311694 0.709900 0.152700
-1.0841 1.586492 0.6225 -0.740616 -0.5599145 0.3714616 0.931400 0.997400
-1.0841 28.80419 0.6225 -0.8352265 0 0.5499062 0.931400 0.152700
-0.8034 1.586492 0.9571 -0.5689412 -0.5599235 0.6023219 0.918400 0.997400
-0.8034 28.80419 0.9571 -0.5967497 0 0.8024275 0.918400 0.152700
-0.4251 1.586492 1.1755 -0.3756611 -0.3201138 0.869716 0.905400 0.997400
-0.4251 28.80419 1.1755 -0.2862323 0 0.9581603 0.905400 0.152700
0.005 1.586492 1.2513 -0.01066675 -0.9833194 0.1815741 0.892300 0.997400
0.005 28.80419 1.2513 0.05864488 0 0.9982789 0.892300 0.152700
0.4351 1.586492 1.1755 0.2712044 -0.3201163 0.90773 0.879300 0.997400
0.4351 28.80419 1.1755 0.3965972 0 0.9179928 0.879300 0.152700
0.8133 1.586492 0.9571 0.4944499 -0.5599148 0.664842 0.866300 0.997400
0.8133 28.80419 0.9571 0.6866174 0 0.727019 0.866300 0.152700
1.0941 1.586492 0.6225 0.6919706 -0.5599198 0.4557045 0.853200 0.997400
1.0941 28.80419 0.6225 0.8938438 0 0.4483787 0.853200 0.152700
1.2435 1.586492 0.2121 0.8061035 -0.5599212 0.1915345 0.840200 0.997400
1.2435 28.80419 0.2121 0.9932976 0 0.1155847 0.840200 0.152700
1.2435 1.586492 -0.2246 0.8229967 -0.5599189 -0.09574623 0.827200 0.997400
1.2435 28.80419 -0.2246 0.9729257 0 -0.2311183 0.827200 0.152700
1.0941 1.586492 -0.6351 0.7405889 -0.5599266 -0.3714976 0.814100 0.997400
1.0941 28.80419 -0.6351 0.8351216 0 -0.5500655 0.814100 0.152700
0.8133 1.586492 -0.9696 0.5688395 -0.5599104 -0.6024301 0.801100 0.997400
0.8133 28.80419 -0.9696 0.5967262 0 -0.802445 0.801100 0.152700
0.4351 1.586492 -1.188 0.3286561 -0.559918 -0.7605767 0.788100 0.997400
0.4351 28.80419 -1.188 0.2864134 0 -0.9581061 0.788100 0.152700
3.2807 30.38969 3.2834 0.5952722 -0.5335234 0.6008359 0.434400 0.562700
3.9038 30.86309 2.961 0.6650223 -0.4894634 0.5640665 0.411000 0.547600
3.5177 31.14199 3.5307 0.6027866 -0.4887868 0.6306629 0.434900 0.537100
2.9386 30.86849 3.9092 0.559163 -0.4694283 0.6833549 0.458800 0.549200
3.5922 29.88979 2.4111 0.6015031 -0.6694581 0.4359128 0.407800 0.585500
4.2827 30.48939 2.1697 0.7300552 -0.5510811 0.4041399 0.385300 0.569000
3.7924 29.55419 1.2698 0.6019698 -0.7816249 0.1633858 0.381700 0.616400
4.5206 30.21269 1.1364 0.7556359 -0.6403819 0.1375694 0.359000 0.597300
3.7923 29.55349 -1.2678 0.6297855 -0.7594787 -0.1629802 0.309000 0.668200
4.5242 30.21729 -1.1368 0.7948813 -0.5912091 -0.1365125 0.292800 0.646100
4.2889 30.49229 -2.1626 0.729728 -0.5517474 -0.4038215 0.263500 0.671700
3.5928 29.88919 -2.4093 0.601792 -0.6694254 -0.435564 0.278000 0.694100
3.8976 30.85889 -2.9645 0.6638297 -0.4895073 -0.5654315 0.241100 0.696800
3.2853 30.39989 -3.2875 0.5960675 -0.5325612 -0.6009011 0.254400 0.719500
3.4993 31.13789 -3.545 0.6014524 -0.48769 -0.6327823 0.230100 0.720700
2.9418 30.88319 -3.9165 0.5585263 -0.4685711 -0.684463 0.240000 0.743500
2.4118 29.89159 3.5936 0.4368496 -0.6661014 0.6045423 0.460200 0.586700
2.1558 30.50489 4.2967 0.4117847 -0.5338488 0.7385383 0.484100 0.571200
2.6338 29.34259 2.6338 0.4246705 -0.7995691 0.4246696 0.433700 0.607000
2.7949 28.97439 1.3983 0.4128216 -0.8968349 0.1589511 0.407000 0.638100
2.7945 28.97409 -1.3975 0.4474618 -0.8801472 -0.1584892 0.328500 0.693100
2.631 29.33959 -2.631 0.4246241 -0.7996248 -0.4246111 0.299400 0.719900
2.4095 29.88999 -3.5936 0.4371976 -0.6660839 -0.6043101 0.277300 0.745100
2.1659 30.50399 -4.2903 0.4118264 -0.5331875 -0.7389926 0.261500 0.767400
1.27 29.55439 3.7926 0.1641724 -0.7806175 0.603062 0.485500 0.618600
1.14 30.22259 4.5269 0.141495 -0.6326864 0.7613718 0.509200 0.600300
1.3983 28.97439 2.7949 0.1590205 -0.8967891 0.4128945 0.459500 0.639100
1.5003 28.57579 1.5003 0.1544287 -0.9758604 0.1544287 0.432900 0.662800
1.4997 28.57559 -1.4997 0.1750906 -0.9688584 -0.1750907 0.356600 0.720800
1.3975 28.97409 -2.7945 0.1585057 -0.8801243 -0.4475009 0.328000 0.747400
1.2678 29.55359 -3.7924 0.1635194 -0.7583363 -0.631021 0.307800 0.771100
1.1363 30.21529 -4.5221 0.1772531 -0.6006308 -0.7796307 0.290900 0.791700
-1.2678 29.55359 3.7924 -0.163524 -0.7583317 0.6310253 0.557400 0.670700
-1.1363 30.21529 4.5221 -0.1418582 -0.5799132 0.8022325 0.574700 0.649000
-1.3975 28.97409 2.7945 -0.1585057 -0.8801243 0.4475009 0.536900 0.695200
-1.4997 28.57559 1.4997 -0.1750937 -0.9688581 0.1750892 0.507900 0.722300
-1.5003 28.57579 -1.5003 -0.1544304 -0.97586 -0.1544297 0.431600 0.781300
-1.3982 28.97439 -2.7949 -0.1590166 -0.8967919 -0.4128898 0.404600 0.805300
-1.27 29.55439 -3.7926 -0.1641705 -0.7806195 -0.6030599 0.378200 0.826200
-1.14 30.22259 -4.5269 -0.1176668 -0.6101073 -0.7835328 0.353800 0.845100
-2.1658 30.50399 4.2903 -0.411838 -0.5331984 0.7389784 0.603400 0.674900
-2.4095 29.88999 3.5936 -0.4371907 -0.6660789 0.6043204 0.587400 0.697400
-2.631 29.33959 2.631 -0.4246241 -0.7996248 0.4246111 0.565100 0.722700
-2.7945 28.97409 1.3975 -0.4474574 -0.8801502 0.1584853 0.535600 0.749500
-2.7948 28.97439 -1.3983 -0.4128141 -0.896839 -0.1589475 0.458000 0.806500
-2.6338 29.34259 -2.6338 -0.4246654 -0.7995745 -0.4246645 0.430900 0.837400
-2.4118 29.89159 -3.5936 -0.4368466 -0.6661063 -0.6045391 0.404200 0.857900
-2.1558 30.50489 -4.2967 -0.4117903 -0.5338432 -0.7385392 0.380200 0.873600
-2.9418 30.88319 3.9165 -0.5585099 -0.4685779 0.6844717 0.624600 0.699400
-3.2853 30.39989 3.2875 -0.5960634 -0.5325605 0.6009058 0.610000 0.723300
-3.5928 29.88919 2.4093 -0.601792 -0.6694254 0.435564 0.586200 0.748500
-3.7923 29.55349 1.2678 -0.6297829 -0.759481 0.1629788 0.554900 0.773800
-3.7924 29.55419 -1.2698 -0.6019607 -0.7816319 -0.1633857 0.483800 0.828600
-3.5922 29.88979 -2.4111 -0.6014981 -0.669466 -0.4359075 0.457100 0.859100
-3.2807 30.38969 -3.2834 -0.5952721 -0.5335235 -0.6008359 0.430300 0.881900
-2.9386 30.86849 -3.9092 -0.5591686 -0.4694093 -0.6833634 0.405900 0.895600
-3.4993 31.13789 3.545 -0.6014524 -0.48769 0.6327823 0.634300 0.722400
-3.8976 30.85889 2.9645 -0.6638297 -0.4895073 0.5654315 0.623100 0.746200
-4.2889 30.49229 2.1626 -0.729728 -0.5517474 0.4038215 0.600500 0.770900
-4.5242 30.21729 1.1368 -0.7727914 -0.6111809 0.1710304 0.570600 0.795100
-4.5206 30.21269 -1.1364 -0.776967 -0.6189955 -0.1147475 0.507600 0.848300
-4.2827 30.48939 -2.1697 -0.7300552 -0.5510811 -0.4041399 0.479800 0.875900
-3.9038 30.86309 -2.961 -0.6650223 -0.4894634 -0.5640665 0.453800 0.897100
-3.5177 31.14199 -3.5307 -0.6027784 -0.4887737 -0.6306809 0.429800 0.907600
4.2056 31.44049 3.1229 0.6751331 -0.5002235 0.5421916 0.405200 0.527700
3.6616 31.45859 3.7038 0.5786552 -0.5491493 0.6029869 0.435500 0.526800
4.7216 31.41789 2.3277 0.819699 -0.3913119 0.4182924 0.370900 0.538900
5.0698 31.16319 1.2696 0.9373571 -0.3090861 0.1607096 0.339400 0.567900
5.0691 31.15389 -1.2599 0.9254714 -0.3145262 -0.2111304 0.269000 0.627700
4.7135 31.38809 -2.3201 0.8170488 -0.3944279 -0.4205447 0.237300 0.657000
4.1817 31.41939 -3.1337 0.6712773 -0.5022472 -0.5451006 0.223100 0.691100
3.6401 31.45609 -3.7212 0.575361 -0.5507213 -0.6047031 0.220500 0.721500
4.4857 31.99079 3.3209 0.7776205 -0.3527406 0.5204617 0.401200 0.507800
3.8419 31.92929 4.0413 0.5951068 -0.4154692 0.6879195 0.440500 0.507800
4.9525 32.64819 2.4606 0.9438741 -0.1721914 0.2818724 0.353000 0.500900
5.205 33.05219 1.3125 0.9941164 -0.03765742 0.1015608 0.301800 0.516300
5.2077 33.05619 -1.2993 0.9939536 0.01512717 -0.1087542 0.223500 0.588500
4.9687 32.59629 -2.412 0.9456689 -0.1162062 -0.3036553 0.203800 0.637100
4.4699 32.00469 -3.3577 0.7780618 -0.3420187 -0.5269185 0.202800 0.687200
3.8326 31.92189 -4.0452 0.5892667 -0.4176611 -0.6916097 0.202000 0.725500
3.9456 32.68399 4.1055 0.6614991 -0.1527113 0.7342331 0.440400 0.482400
4.6999 32.77089 3.3203 0.8614424 -0.118692 0.4937907 0.389400 0.484100
5.1165 33.43149 2.1476 0.9774382 -0.00323144 0.2111971 0.326500 0.486900
5.0697 34.87919 0.8441 0.9975609 0.02948396 0.06327011 0.245100 0.482900
5.0658 34.87829 -0.868 0.9933143 0.0397742 -0.1083737 0.190300 0.532900
5.0268 33.75889 -1.6652 0.9781359 0.02711678 -0.2061916 0.190500 0.590800
4.6853 32.78659 -3.3561 0.8727806 -0.09670147 -0.4784379 0.180500 0.674600
3.9482 32.68119 -4.1026 0.6541435 -0.1538704 -0.7405539 0.177200 0.724700
3.9852 33.18009 4.1716 0.5726107 0.5519167 0.6062218 0.441100 0.465400
4.7696 33.42499 3.3325 0.6724219 0.4675362 0.5738108 0.374600 0.463300
4.9387 34.72089 1.7022 0.4336773 0.5612403 0.704935 0.281200 0.462000
5.1213 36.20299 0.8618 0.8681005 0.1203134 0.4815872 0.213500 0.446800
5.1196 36.20299 -0.8716 0.8718054 0.09462465 -0.4806262 0.163400 0.492000
4.9541 34.71069 -1.6388 0.4871743 0.5318612 -0.692665 0.168500 0.562600
4.7622 33.44299 -3.3569 0.7204441 0.4526958 -0.5253826 0.161300 0.658300
3.9779 33.17939 -4.1779 0.5616903 0.5531378 -0.6152581 0.160700 0.725800
3.0589 31.45409 -4.1996 0.5057309 -0.4950865 -0.7064882 0.223100 0.750400
2.3194 31.42699 -4.6663 0.4194957 -0.3691482 -0.8293087 0.234500 0.781900
1.2912 31.16529 -5.0491 0.1749392 -0.3083093 -0.9350624 0.265100 0.811000
-1.2846 31.15039 -5.0459 -0.2300871 -0.3113929 -0.9220057 0.336500 0.873100
-2.3068 31.39459 -4.6604 -0.421994 -0.3721235 -0.8267075 0.367700 0.901600
-3.0643 31.43529 -4.1833 -0.5093613 -0.4959789 -0.7032468 0.399900 0.913800
-3.6616 31.45859 -3.7038 -0.5786428 -0.549148 -0.6030002 0.429200 0.918100
3.1539 32.06639 -4.5546 0.4700684 -0.2805059 -0.8368705 0.203100 0.760800
2.3936 32.73869 -4.9461 0.324535 -0.1078969 -0.9396996 0.197400 0.806000
1.3145 33.07639 -5.2377 0.1293824 0.04227493 -0.9906932 0.217900 0.852500
-1.3024 33.08309 -5.2404 -0.1560118 0.03169437 -0.9872466 0.297200 0.922300
-2.3496 32.69659 -4.9638 -0.3384447 -0.07478433 -0.9380099 0.344100 0.939100
-3.1942 32.08479 -4.5418 -0.4771851 -0.2712691 -0.8358873 0.390300 0.936500
-3.8419 31.92929 -4.0413 -0.5951068 -0.4154468 -0.687933 0.424200 0.937200
3.2629 32.80789 -4.6326 0.4495509 -0.08342353 -0.8893507 0.180200 0.768100
1.9914 33.52579 -5.0275 0.2108311 0.03022357 -0.9770552 0.186900 0.835600
0.8252 34.90439 -4.9803 0.03181494 0.0317434 -0.9989896 0.188900 0.912100
-0.8309 34.89589 -4.98 -0.04202412 0.0697603 -0.9966782 0.243100 0.959000
-1.6147 33.78029 -4.987 -0.2065717 0.04698048 -0.977303 0.300200 0.954000
-3.2876 32.81249 -4.6219 -0.4394815 -0.07277324 -0.8952989 0.383100 0.959900
-3.9455 32.68399 -4.1054 -0.6615129 -0.1526844 -0.7342263 0.424300 0.962600
3.253 33.42229 -4.7159 0.5342326 0.4273806 -0.7293431 0.162200 0.784500
1.5553 34.67749 -4.993 0.5488845 0.4922805 -0.6755633 0.169700 0.880000
0.8388 36.20299 -5.0197 0.5929739 0.1739374 -0.786211 0.161900 0.950000
-0.8475 36.20299 -5.0186 -0.593054 0.162038 -0.7886893 0.209900 0.993900
-1.5302 34.67629 -4.9946 -0.532643 0.479895 -0.6971314 0.273800 0.974600
-3.2709 33.43609 -4.7117 -0.5042772 0.4124764 -0.7586619 0.367400 0.978600
-3.9852 33.18009 -4.1716 -0.5726421 0.5518671 -0.6062374 0.423600 0.979700
-4.2056 31.44049 -3.1229 -0.6751331 -0.5002235 -0.5421916 0.459500 0.917200
-4.7216 31.41789 -2.3277 -0.819699 -0.3913119 -0.4182924 0.493800 0.906300
-5.0698 31.16319 -1.2696 -0.9426491 -0.2788867 -0.1833986 0.525600 0.878400
-5.0691 31.15389 1.2599 -0.9214386 -0.3438087 0.18096 0.593600 0.815000
-4.7135 31.38809 2.3201 -0.8170557 -0.3943941 0.4205631 0.626200 0.786100
-4.1817 31.41939 3.1337 -0.6712918 -0.5022287 0.5450997 0.640900 0.752200
-3.6401 31.45609 3.7212 -0.5753704 -0.5507282 0.6046879 0.643800 0.721800
-4.4857 31.99079 -3.3209 -0.7808925 -0.3448266 -0.5208662 0.463500 0.937200
-4.9525 32.64819 -2.4606 -0.9462591 -0.1388861 -0.2920694 0.511800 0.944400
-5.205 33.05219 -1.3125 -0.9915118 -0.005194827 -0.1299132 0.563100 0.928500
-5.2077 33.05619 1.2993 -0.9939519 0.01512695 0.1087694 0.640000 0.854900
-4.9686 32.59629 2.412 -0.9456676 -0.1162238 0.3036526 0.659500 0.806400
-4.4698 32.00469 3.3577 -0.7780907 -0.3420072 0.5268834 0.661200 0.756400
-3.8326 31.92189 4.0453 -0.5892649 -0.4176736 0.6916037 0.662300 0.718000
-4.6999 32.77089 -3.3203 -0.870382 -0.1065736 -0.4807052 0.475300 0.960800
-5.0474 33.43149 -2.0294 -0.9781476 0.01237253 -0.2075435 0.541500 0.956200
-5.0697 34.87919 -0.8441 -0.9969568 0.0308969 -0.07157192 0.619800 0.961000
-5.0658 34.87829 0.868 -0.9933137 0.03977035 0.1083806 0.673900 0.910500
-5.0268 33.75889 1.6652 -0.9781367 0.02708973 0.206191 0.673200 0.852700
-4.6853 32.78659 3.3561 -0.8727946 -0.09674498 0.4784036 0.683300 0.769100
-3.9482 32.68119 4.1026 -0.6541544 -0.1538546 0.7405477 0.687100 0.719100
-4.7695 33.42499 -3.3325 -0.7011945 0.4546636 -0.5491878 0.490200 0.981600
-4.9386 34.72089 -1.7022 -0.4492249 0.5501568 -0.703935 0.583800 0.982300
-5.1213 36.20299 -0.8618 -0.8697472 0.1118871 -0.4806466 0.651600 0.996800
-5.1196 36.20299 0.8716 -0.8718054 0.09462465 0.4806262 0.701300 0.951200
-4.9541 34.71069 1.6388 -0.4871743 0.5318612 0.692665 0.695400 0.880800
-4.7622 33.44299 3.3569 -0.7204443 0.4526956 0.5253825 0.702600 0.785400
-3.9779 33.17939 4.1779 -0.5616948 0.5531427 0.6152496 0.703600 0.718100
-3.0589 31.45409 4.1996 -0.5057085 -0.4951079 0.7064893 0.641600 0.692800
-2.3194 31.42699 4.6663 -0.4195052 -0.3691609 0.8292983 0.630800 0.661100
-1.2912 31.16529 5.0492 -0.199639 -0.280346 0.9389092 0.601200 0.631400
1.2846 31.15039 5.0459 0.197318 -0.338949 0.91988 0.528100 0.573300
2.3068 31.39459 4.6604 0.4219773 -0.3721263 0.8267147 0.497000 0.543700
3.0644 31.43529 4.1833 0.5093765 -0.495985 0.7032315 0.464800 0.531200
-3.1539 32.06639 4.5546 -0.4705117 -0.2738141 0.8388352 0.661700 0.682700
-2.3936 32.73869 4.9461 -0.3329689 -0.08427561 0.9391642 0.668200 0.637600
-1.3145 33.07639 5.2377 -0.1469276 0.06167112 0.9872229 0.647900 0.590900
1.3024 33.08309 5.2404 0.156018 0.03170305 0.9872453 0.567300 0.522800
2.3496 32.69659 4.9638 0.3384408 -0.07477938 0.9380117 0.520600 0.506300
3.1942 32.08479 4.5418 0.4771514 -0.2712814 0.8359025 0.474400 0.508700
-3.2629 32.80789 4.6326 -0.4442784 -0.07393545 0.8928327 0.684400 0.675800
-1.8523 33.44189 5.0156 -0.2171376 0.04618402 0.9750479 0.674000 0.606000
-0.8252 34.90439 4.9803 -0.03975435 0.03945963 0.9984301 0.675500 0.531000
0.8309 34.89589 4.98 0.04202412 0.0697603 0.9966782 0.621100 0.485100
1.6147 33.78029 4.987 0.2065717 0.04698048 0.977303 0.564300 0.490900
3.2876 32.81249 4.6219 0.4394498 -0.07274095 0.8953171 0.481600 0.485300
-3.253 33.42229 4.7159 -0.5242839 0.4177719 0.7420197 0.703000 0.659500
-1.5553 34.67749 4.993 -0.5449964 0.486805 0.6826418 0.695400 0.563100
-0.8388 36.20299 5.0197 -0.5928748 0.1728082 0.7865347 0.702400 0.493200
0.8475 36.20299 5.0186 0.5930534 0.1620382 0.7886897 0.654000 0.449800
1.5302 34.67629 4.9946 0.5326457 0.4798984 0.697127 0.590400 0.470000
3.2709 33.43609 4.7117 0.5042565 0.4125058 0.7586595 0.497000 0.466500
3.2637 31.46839 3.2838 -0.6017561 0.4882787 -0.6320392 0.324200 0.251900
3.632 31.17819 2.724 -0.6616799 0.4873196 -0.569824 0.310700 0.245700
3.0371 30.72919 3.0372 -0.5967357 0.5302258 -0.6023016 0.323400 0.236900
2.7022 31.17839 3.633 -0.563331 0.4659045 -0.6823425 0.337100 0.244200
3.9886 30.83519 1.9943 -0.7264955 0.5527274 -0.4082852 0.296500 0.234600
3.3562 30.30119 2.2375 -0.6019151 0.6682497 -0.4371964 0.308400 0.225800
4.2197 30.60159 1.0549 -0.7900773 0.5972041 -0.1382935 0.281000 0.221500
3.5647 30.01519 1.1883 -0.6107334 0.7794333 -0.1396006 0.292700 0.210400
4.2197 30.60159 -1.0549 -0.7511598 0.645454 0.1383766 0.249000 0.190400
3.5647 30.01519 -1.1882 -0.6169282 0.7623878 0.1953572 0.255600 0.178500
3.9886 30.83519 -1.9943 -0.7264931 0.5527297 0.4082864 0.232300 0.177700
3.3562 30.30119 -2.2375 -0.6019175 0.6682519 0.4371896 0.238900 0.165300
3.632 31.17819 -2.724 -0.6616898 0.4873012 0.5698282 0.219700 0.164900
3.0371 30.72919 -3.0372 -0.5967358 0.5302258 0.6023016 0.227100 0.151800
3.2637 31.46839 -3.2838 -0.6017763 0.4882652 0.6320304 0.212600 0.152000
2.7022 31.17839 -3.633 -0.563331 0.4659045 0.6823425 0.219000 0.138900
2.2374 30.30119 3.3562 -0.4384266 0.6650481 -0.6045604 0.337500 0.224600
1.9864 30.83559 3.9885 -0.4154745 0.5339472 -0.7363976 0.350200 0.232000
2.4735 29.81569 2.4735 -0.4239527 0.8003193 -0.4239731 0.322700 0.214400
2.6443 29.48439 1.3222 -0.410821 0.897916 -0.1580288 0.307200 0.198400
2.6443 29.48439 -1.3222 -0.4454625 0.881286 0.1577916 0.265300 0.165500
2.4735 29.81569 -2.4735 -0.4239552 0.8003191 0.423971 0.249400 0.151000
2.2374 30.30119 -3.3562 -0.4384266 0.6650481 0.6045604 0.238000 0.137300
1.9864 30.83559 -3.9885 -0.4154745 0.5339471 0.7363977 0.230200 0.125500
1.1882 30.01519 3.5647 -0.1634069 0.7828944 -0.6003121 0.351500 0.207800
1.0548 30.60189 4.2193 -0.142452 0.6372993 -0.7573355 0.363900 0.216600
1.3222 29.48439 2.6443 -0.158029 0.8979117 -0.4108302 0.337200 0.197200
1.4281 29.11299 1.4281 -0.1534715 0.9761624 -0.1534715 0.322100 0.184300
1.4281 29.11299 -1.4281 -0.1740902 0.9692189 0.1740902 0.280100 0.150500
1.3222 29.48439 -2.6443 -0.1577963 0.8812829 0.4454671 0.264300 0.135500
1.1882 30.01519 -3.5647 -0.1631513 0.7610204 0.6278771 0.253400 0.122300
1.0548 30.60189 -4.2193 -0.1423329 0.5856164 0.7979942 0.244600 0.111000
-1.1882 30.01519 3.5647 0.163149 0.7610146 -0.6278848 0.390300 0.178600
-1.0547 30.60189 4.2193 0.142333 0.5856174 -0.7979935 0.399100 0.189900
-1.3221 29.48439 2.6443 0.1577899 0.8812857 -0.4454638 0.379400 0.165300
-1.4281 29.11299 1.4281 0.1740868 0.9692189 -0.1740935 0.363700 0.150200
-1.4281 29.11299 -1.4281 0.1534676 0.9761624 0.1534755 0.321600 0.116700
-1.3221 29.48439 -2.6443 0.1580226 0.8979144 0.4108269 0.306500 0.103900
-1.1882 30.01519 -3.5647 0.1634047 0.7828888 0.60032 0.292200 0.093300
-1.0547 30.60189 -4.2193 0.1424521 0.6373001 0.7573348 0.279900 0.084400
-2.2374 30.30119 3.3562 0.4384174 0.6650475 -0.6045676 0.405800 0.163500
-1.9863 30.83559 3.9885 0.4154693 0.5339466 -0.7364009 0.413600 0.175500
-2.4735 29.81569 2.4735 0.4239579 0.8003179 -0.4239706 0.394400 0.149600
-2.6443 29.48439 1.3222 0.4454642 0.8812826 -0.1578058 0.378700 0.134700
-2.6443 29.48439 -1.3222 0.4108318 0.8979101 0.1580339 0.336100 0.102900
-2.4735 29.81569 -2.4735 0.4239604 0.8003176 0.4239685 0.320900 0.086700
-2.2374 30.30119 -3.3562 0.4384174 0.6650475 0.6045676 0.306200 0.076500
-1.9863 30.83559 -3.9885 0.4154693 0.5339466 0.736401 0.293500 0.069100
-3.0371 30.72919 3.0372 0.5967448 0.5302119 -0.6023049 0.416800 0.149100
-2.7022 31.17839 3.633 0.5633259 0.4658903 -0.6823564 0.424800 0.162100
-3.3561 30.30119 2.2375 0.6019087 0.6682578 -0.4371926 0.405000 0.135300
-3.5647 30.01519 1.1883 0.6272152 0.761647 -0.162773 0.388700 0.121100
-3.5647 30.01519 -1.1882 0.5997056 0.7834403 0.1630168 0.350000 0.091200
-3.3561 30.30119 -2.2375 0.6019111 0.6682601 0.4371859 0.335100 0.075400
-3.0371 30.72919 -3.0372 0.5967448 0.5302119 0.6023049 0.320300 0.064200
-2.7022 31.17839 -3.633 0.5633259 0.4658903 0.6823564 0.306700 0.056900
-3.632 31.17819 2.724 0.6616685 0.4873359 -0.5698233 0.424300 0.136100
-3.2636 31.46839 3.2838 0.6017434 0.4882762 -0.6320533 0.431400 0.149000
-3.9886 30.83519 1.9943 0.7264817 0.5527412 -0.408291 0.412100 0.123200
-4.2197 30.60159 1.0549 0.7683476 0.6162019 -0.1730238 0.396500 0.109900
-4.2197 30.60159 -1.0549 0.7722228 0.6248108 0.1152545 0.362300 0.081200
-3.9886 30.83519 -1.9943 0.7264792 0.5527436 0.4082922 0.347200 0.066900
-3.632 31.17819 -2.724 0.6616784 0.4873176 0.5698275 0.333200 0.055600
-3.2636 31.46839 -3.2838 0.6017637 0.4882626 0.6320445 0.319700 0.049200
3.4326 31.83429 3.4775 -0.5691437 0.5677275 -0.594778 0.324600 0.259700
3.9141 31.75919 2.914 -0.6648865 0.5104797 -0.5452856 0.308300 0.257900
4.3565 31.62809 2.1497 -0.8121325 0.3988694 -0.4258452 0.290300 0.249800
4.6748 31.36649 1.1662 -0.9419811 0.280263 -0.1847276 0.273200 0.234500
4.6748 31.36649 -1.1662 -0.9198211 0.3463009 0.184404 0.237600 0.199900
4.3565 31.62809 -2.1497 -0.812122 0.3988732 0.4258614 0.218900 0.185300
3.9141 31.75919 -2.9139 -0.6649025 0.5104719 0.5452735 0.208400 0.168300
3.4326 31.83429 -3.4775 -0.5691577 0.5677367 0.5947559 0.205400 0.152000
3.583 32.18479 3.7506 -0.5903849 0.4288769 -0.6837473 0.327000 0.268100
4.1386 32.23669 3.1362 -0.7746379 0.3506132 -0.5263142 0.307400 0.268500
4.5478 32.63519 2.2904 -0.9462259 0.1162356 -0.3019039 0.282700 0.268000
4.7773 33.03449 1.214 -0.991236 -0.03398512 -0.1276571 0.255000 0.259900
4.7773 33.03449 -1.214 -0.9917575 -0.0104879 0.1276993 0.214000 0.220300
4.5478 32.63519 -2.2904 -0.9462235 0.1162435 0.3019083 0.202400 0.194000
4.1386 32.23669 -3.1362 -0.7746304 0.3506391 0.5263078 0.198700 0.169600
3.583 32.18479 -3.7506 -0.5903867 0.4288864 0.6837397 0.197000 0.149900
3.6596 32.77819 3.7807 -0.6561781 0.1446685 -0.7406088 0.326800 0.279600
4.3048 32.88339 3.1507 -0.871806 0.09602049 -0.4803481 0.301700 0.280200
4.6004 33.69089 1.5752 -0.9785338 -0.03222039 -0.2035521 0.257200 0.276400
4.6349 34.85979 0.7849 -0.9955394 -0.02761539 -0.09021477 0.222300 0.279700
4.6349 34.85979 -0.7849 -0.9948022 -0.04728314 0.09018211 0.194300 0.252400
4.6004 33.69089 -1.5752 -0.9785338 -0.03222037 0.2035521 0.196000 0.218900
4.3048 32.88339 -3.1507 -0.871806 0.09602048 0.4803481 0.188200 0.175400
3.6596 32.77819 -3.7807 -0.6561746 0.1446581 0.7406139 0.186000 0.150400
3.698 33.27999 3.8491 -0.5281557 0.5717423 -0.6278235 0.327400 0.289900
4.358 33.49919 3.1911 -0.6253512 0.7611168 0.1721547 0.294000 0.291700
4.5212 34.67379 1.5712 -0.9041445 0.3341829 0.2661666 0.241500 0.290900
4.6881 36.20299 0.7915 -0.7169237 0.1901603 0.6707156 0.200700 0.297900
4.6881 36.20299 -0.7915 -0.8382703 0.1496523 -0.5243159 0.174800 0.273600
4.5212 34.67379 -1.5712 -0.8995259 0.3395363 -0.274897 0.182400 0.234500
4.358 33.49919 -3.1911 -0.6235105 0.764761 -0.162405 0.177600 0.183400
3.698 33.27999 -3.8491 -0.532769 0.5715355 0.624103 0.176000 0.150100
2.8534 31.75689 -3.8952 -0.5107138 0.5072871 0.6941406 0.208200 0.136000
2.1316 31.62729 -4.3027 -0.4281471 0.3769494 0.8213398 0.216500 0.119300
1.1789 31.36889 -4.6567 -0.2011004 0.2834077 0.9376773 0.232600 0.103300
-1.1789 31.36889 -4.6567 0.2008653 0.3423429 0.9178532 0.270900 0.071700
-2.1316 31.62729 -4.3027 0.4281571 0.3769664 0.8213269 0.287000 0.054800
-2.8533 31.75689 -3.8952 0.510701 0.5073054 0.6941367 0.303600 0.045600
-3.4326 31.83429 -3.4775 0.5691356 0.5677553 0.5947593 0.319300 0.041500
2.9972 32.28609 -4.1834 -0.4793064 0.2748134 0.8335124 0.197600 0.132200
2.2137 32.70669 -4.5463 -0.3393677 0.07539383 0.9376275 0.198600 0.108800
1.2034 33.04199 -4.8138 -0.1585608 -0.07635193 0.9843926 0.208900 0.083500
-1.2034 33.04199 -4.8138 0.1587515 -0.0355556 0.9866782 0.251200 0.046700
-2.2137 32.70669 -4.5463 0.339371 0.07539916 0.9376259 0.276300 0.036600
-2.9972 32.28609 -4.1834 0.4793079 0.274832 0.8335055 0.299500 0.034700
-3.583 32.18479 -3.7506 0.5903705 0.4289015 0.6837443 0.316900 0.033100
3.0937 32.88869 -4.2325 -0.4403606 0.06898613 0.8951668 0.186500 0.129000
1.5145 33.69839 -4.5644 -0.2099357 -0.05494901 0.9761699 0.192400 0.084300
0.7728 34.86259 -4.5455 -0.04658908 -0.04629121 0.997841 0.191200 0.050000
-0.7727 34.86259 -4.5455 0.04658467 -0.07575537 0.9960377 0.220000 0.024700
-1.5145 33.69839 -4.5644 0.2099324 -0.0549512 0.9761705 0.252600 0.029100
-3.0937 32.88869 -4.2325 0.4403606 0.06898613 0.8951668 0.296400 0.023400
-3.6596 32.77819 -3.7807 0.6561746 0.1446581 0.7406139 0.317100 0.021600
3.1271 33.50839 -4.3007 0.2103438 0.7837563 0.5843643 0.175400 0.120400
1.514 34.67619 -4.5557 0.5253509 0.4040061 0.7488562 0.179400 0.067800
0.783 36.20299 -4.5843 0.6501713 0.1053643 0.7524465 0.174500 0.027700
-0.783 36.20299 -4.5843 -0.4729425 0.08213741 0.8772565 0.200100 0.003900
-1.514 34.67619 -4.5557 -0.5292151 0.4038985 0.7461886 0.237600 0.014700
-3.1271 33.50839 -4.3007 -0.2027128 0.7805126 0.5913608 0.288300 0.012100
-3.698 33.27999 -3.8491 0.5281515 0.5717209 0.6278465 0.316600 0.011300
-3.9141 31.75919 -2.9139 0.6648802 0.5104941 0.54528 0.335600 0.043400
-4.3565 31.62809 -2.1497 0.812122 0.3988732 0.4258614 0.353500 0.051700
-4.6748 31.36649 -1.1662 0.9419811 0.280263 0.1847276 0.370300 0.067300
-4.6748 31.36649 1.1662 0.9198211 0.3463009 -0.184404 0.407000 0.100900
-4.3565 31.62809 2.1497 0.8121325 0.3988694 -0.4258452 0.425400 0.115800
-3.9141 31.75919 2.914 0.6648642 0.5105019 -0.5452921 0.435700 0.132800
-3.4326 31.83429 3.4775 0.5691217 0.567746 -0.5947815 0.438600 0.149100
-4.1386 32.23669 -3.1362 0.7746328 0.3506341 0.5263076 0.336600 0.032800
-4.5478 32.63519 -2.2904 0.9462237 0.1162146 0.3019189 0.361300 0.033500
-4.7773 33.03449 -1.214 0.9912308 -0.03403657 0.1276832 0.389000 0.041400
-4.7773 33.03449 1.214 0.9917537 -0.01053002 -0.1277255 0.430300 0.080900
-4.5478 32.63519 2.2904 0.946226 0.1162067 -0.3019145 0.441900 0.107100
-4.1386 32.23669 3.1362 0.7746403 0.3506083 -0.5263139 0.445500 0.131500
-3.583 32.18479 3.7506 0.5903662 0.428883 -0.6837595 0.446900 0.151200
-4.3048 32.88339 -3.1507 0.8718134 0.09601598 0.4803356 0.342200 0.021200
-4.6003 33.69089 -1.5752 0.9785379 -0.03222904 0.203531 0.386800 0.024900
-4.6348 34.85979 -0.7849 0.9955434 -0.02758704 0.09017962 0.421800 0.021500
-4.6348 34.85979 0.7849 0.9948058 -0.04727643 -0.09014693 0.449800 0.048700
-4.6003 33.69089 1.5752 0.9785379 -0.03222901 -0.203531 0.448200 0.082300
-4.3048 32.88339 3.1507 0.8718075 0.09599257 -0.4803512 0.456000 0.125800
-3.6596 32.77819 3.7807 0.656166 0.1446381 -0.7406254 0.458000 0.150800
-4.358 33.49919 -3.1911 0.6253502 0.7611129 -0.1721755 0.350000 0.009600
-4.5212 34.67379 -1.5712 0.9041112 0.3342171 -0.2662367 0.402600 0.010400
-4.6881 36.20299 -0.7915 0.7169166 0.1901856 -0.6707162 0.443400 0.003300
-4.6881 36.20299 0.7915 0.8382575 0.1496842 0.5243273 0.469300 0.027600
-4.5212 34.67379 1.5712 0.8994865 0.3395762 0.2749767 0.461700 0.066700
-4.358 33.49919 3.1911 0.6235045 0.764762 0.1624234 0.466600 0.117800
-3.6979 33.27999 3.8491 0.5327629 0.5715249 -0.6241177 0.468000 0.151100
-2.8533 31.75689 3.8952 0.510701 0.5073054 -0.6941367 0.435600 0.165000
-2.1316 31.62729 4.3027 0.4281571 0.3769664 -0.8213269 0.427300 0.181700
-1.1789 31.36889 4.6567 0.2011019 0.2834195 -0.9376734 0.411200 0.197600
1.1789 31.36889 4.6567 -0.2008664 0.3423331 -0.9178566 0.372900 0.229400
2.1316 31.62729 4.3027 -0.4281483 0.3769503 -0.8213389 0.356800 0.246300
2.8534 31.75689 3.8952 -0.5107138 0.5072871 -0.6941407 0.340300 0.255500
-2.9972 32.28609 4.1834 0.4793059 0.2748089 -0.8335143 0.446300 0.168900
-2.2137 32.70669 4.5463 0.3393802 0.0753867 -0.9376236 0.445200 0.192300
-1.2034 33.04199 4.8138 0.158557 -0.07635398 -0.9843931 0.434900 0.217500
1.2035 33.04199 4.8138 -0.1587694 -0.03556069 -0.9866751 0.392600 0.254400
2.2137 32.70669 4.5463 -0.3393769 0.07539204 -0.9376243 0.367500 0.264500
2.9972 32.28609 4.1834 -0.4793064 0.2748133 -0.8335124 0.344400 0.266400
-3.0936 32.88869 4.2325 0.4403611 0.06900617 -0.895165 0.457400 0.172100
-1.5145 33.69839 4.5644 0.2098872 -0.05489634 -0.9761832 0.451400 0.216800
-0.7727 34.86259 4.5455 0.04653534 -0.04623798 -0.9978459 0.452600 0.251000
0.7728 34.86259 4.5455 -0.04653914 -0.07571658 -0.9960427 0.423900 0.276400
1.5145 33.69839 4.5644 -0.209899 -0.05489999 -0.9761806 0.391300 0.272000
3.0937 32.88869 4.2325 -0.4403586 0.06902959 -0.8951644 0.347500 0.277700
-3.1271 33.50839 4.3008 -0.2103562 0.7837709 -0.5843403 0.468500 0.180700
-1.514 34.67619 4.5558 -0.5253949 0.4040445 -0.7488047 0.464400 0.233300
-0.783 36.20299 4.5844 -0.6501832 0.1053938 -0.7524321 0.469400 0.273400
0.783 36.20299 4.5844 0.4729603 0.08217071 -0.8772437 0.443800 0.297200
1.514 34.67619 4.5558 0.5292614 0.4039355 -0.7461358 0.406300 0.286400
3.1271 33.50839 4.3008 0.2027282 0.7805352 -0.5913258 0.355600 0.289000
6.2626 46.22339 1.2159 0.7529447 0.4691874 0.4614516 0.052600 0.929000
6.2606 46.22339 -1.2164 0.5351179 0.3681413 -0.7603427 0.052600 0.870100
5.7448 46.22339 -1.104 -0.5466508 0.6814058 -0.4866818 0.066200 0.870100
5.7448 46.22339 1.1172 -0.4702107 0.4813581 0.7397272 0.066200 0.929000
-1.0263 46.22339 -5.4742 -0.4996051 0.6723971 0.5461474 0.016600 0.940600
1.0755 46.22339 -5.4742 0.7560133 0.4694454 0.4561414 0.016500 0.999100
1.1504 46.22339 -5.988 0.4427939 0.4846765 -0.7543356 0.002300 0.999100
-1.1129 46.22339 -5.9868 -0.7340178 0.3853552 -0.5592131 0.002300 0.940600
-6.2625 46.22339 -1.2159 -0.7529324 0.4691998 -0.461459 0.035900 0.999200
-6.2606 46.22339 1.2164 -0.5351263 0.368157 0.7603291 0.035900 0.920300
-5.7448 46.22339 1.104 0.5466508 0.6814058 0.4866818 0.050300 0.920300
-5.7448 46.22339 -1.1172 0.4702208 0.4813586 -0.7397203 0.050300 0.999200
1.0263 46.22339 5.4742 0.4996101 0.6723967 -0.5461433 0.033600 0.875900
-1.0755 46.22339 5.4742 -0.7560474 0.4694456 -0.4560846 0.033700 0.932100
-1.1503 46.22339 5.988 -0.4428001 0.4846559 0.7543452 0.019700 0.932100
1.1129 46.22339 5.9868 0.7340012 0.3853592 0.5592322 0.019700 0.875900
5.2142 44.21929 -0.8678 0.595018 -0.2113604 -0.7754228 0.147600 0.528500
5.2158 44.21929 0.8656 0.2924823 -0.1503988 0.9443698 0.083700 0.527800
4.7827 44.21929 -0.7877 -0.7521461 0.1266542 -0.6467109 0.066200 0.841400
4.7827 44.21929 0.7952 -0.8890424 0.1747524 0.4231609 0.661900 0.328500
-0.8329 44.21929 -5.061 -0.7626067 -0.1871571 -0.6191958 0.623100 0.378500
0.8535 44.21929 -5.0621 0.9347984 -0.1393876 -0.3266852 0.622800 0.439700
-0.7684 44.21929 -4.6268 -0.6597501 0.1117391 0.7431314 0.016700 0.863600
0.7977 44.21929 -4.6268 0.4292377 0.1532734 0.8900912 0.105400 0.188000
-5.2142 44.21929 0.8678 -0.5950249 -0.2113536 0.7754193 0.237300 0.370700
-5.2158 44.21929 -0.8656 -0.2924764 -0.1503917 -0.9443728 0.237600 0.307900
-4.7827 44.21929 0.7877 0.7521461 0.1266542 0.6467109 0.050300 0.855100
-4.7827 44.21929 -0.7952 0.8890433 0.1747529 -0.4231589 0.113100 0.046400
0.8329 44.21929 5.0611 0.7625934 -0.1871599 0.6192112 0.085100 0.701800
-0.8535 44.21929 5.0621 -0.9347875 -0.1393913 0.3267147 0.147300 0.701700
0.7684 44.21929 4.6268 0.6597537 0.1117316 -0.7431293 0.033600 0.816300
-0.7977 44.21929 4.6268 -0.4292466 0.1532658 -0.8900881 0.670300 0.196100
-2.9132 42.09349 -4.6538 -0.305596 0.7124768 -0.6316549 0.973700 0.061000
-0.9832 42.09349 -5.3012 -0.07552078 0.7108348 -0.6992928 0.973700 0.001900
-0.9832 41.52599 -5.3012 -0.1278159 -0.8029239 -0.5822167 0.989900 0.001900
-2.9132 41.52599 -4.6538 -0.3841877 -0.7124737 -0.5871806 0.989900 0.061300
-4.4638 42.09349 -3.3312 -0.5283508 0.7148224 -0.4581205 0.973700 0.120700
-4.4638 41.52599 -3.3312 -0.6996573 -0.5632693 -0.4395537 0.989900 0.121000
-5.388 42.09349 -1.2093 -0.6745485 0.713359 -0.1900085 0.973700 0.188200
-5.388 41.52599 -1.2093 -0.6943077 -0.7133595 -0.09515823 0.989900 0.188400
-5.388 42.09349 1.119 -0.6943077 0.7133595 0.0951582 0.973700 0.256000
-5.388 41.52599 1.119 -0.6745485 -0.7133591 0.1900085 0.989900 0.256300
-4.4638 42.09349 3.2409 -0.6996511 0.5632708 0.4395617 0.973700 0.323500
-4.4638 41.52599 3.2409 -0.528338 -0.7148238 0.458133 0.989900 0.323800
-2.9132 42.09349 4.5634 -0.3841832 0.7124712 0.5871866 0.973700 0.383000
-2.9132 41.52599 4.5634 -0.3056091 -0.7124743 0.6316514 0.989900 0.383300
-0.9832 42.09349 5.2109 -0.1278339 0.8029249 0.5822115 0.973700 0.442500
-0.9832 41.52599 5.2109 -0.07553142 -0.710836 0.6992905 0.989900 0.442800
0.9915 42.09349 5.2109 0.07553495 0.7108364 0.6992897 0.973700 0.500200
0.9915 41.52599 5.2109 0.1278398 -0.8029252 0.5822097 0.989900 0.500500
2.9214 42.09349 4.5634 0.3056159 0.7124738 0.6316486 0.973700 0.559700
2.9214 41.52599 4.5634 0.3841865 -0.7124708 0.587185 0.989900 0.559900
4.472 42.09349 3.2409 0.528338 0.7148238 0.458133 0.973700 0.619200
4.472 41.52599 3.2409 0.6996511 -0.5632708 0.4395617 0.989900 0.619500
5.3962 42.09349 1.119 0.6745485 0.7133591 0.1900085 0.973700 0.686700
5.3962 41.52599 1.119 0.6943077 -0.7133595 0.0951582 0.989900 0.687000
5.3962 42.09349 -1.2093 0.6943077 0.7133595 -0.09515823 0.973700 0.754600
5.3962 41.52599 -1.2093 0.6745485 -0.713359 -0.1900085 0.989900 0.754800
4.472 42.09349 -3.3312 0.6996573 0.5632693 -0.4395537 0.973700 0.822000
4.472 41.52599 -3.3312 0.5283508 -0.7148224 -0.4581205 0.989900 0.822300
2.9214 42.09349 -4.6538 0.3841877 0.7124737 -0.5871806 0.973700 0.881700
2.9214 41.52599 -4.6538 0.305596 -0.7124768 -0.6316549 0.989900 0.882000
0.9914 42.09349 -5.3012 0.1278159 0.8029239 -0.5822167 0.973700 0.941000
0.9914 41.52599 -5.3012 0.07552078 -0.7108348 -0.6992928 0.989900 0.941300
-0.9323 41.52569 -5.0302 0.08886109 -0.5594671 0.8240754 0.998200 0.001900
-2.7628 41.52569 -4.4162 0.3051698 -0.7132409 0.6309983 0.998200 0.061300
0.9405 41.52569 -5.0302 -0.1507845 -0.7116086 0.686205 0.998200 0.941300
2.771 41.52569 -4.4162 -0.3838509 -0.7132376 0.586473 0.998200 0.882000
4.2416 41.52569 -3.1618 -0.5915788 -0.7155681 0.3714794 0.998200 0.822300
5.1182 41.52569 -1.1493 -0.5344643 -0.8378326 0.1112854 0.998200 0.754800
5.1182 41.52569 1.059 -0.7768913 -0.6084619 -0.1619077 0.998200 0.687000
4.2416 41.52569 3.0714 -0.4461164 -0.8069601 -0.3870345 0.998200 0.619500
2.771 41.52569 4.3258 -0.3051913 -0.7132394 -0.6309897 0.998200 0.559900
0.9405 41.52569 4.9399 -0.08887434 -0.5594685 -0.8240731 0.998200 0.500500
-0.9323 41.52569 4.9399 0.1508069 -0.7116098 -0.6861987 0.998200 0.442800
-2.7628 41.52569 4.3258 0.3838611 -0.7132362 -0.5864682 0.998200 0.383300
-4.2334 41.52569 3.0714 0.5915748 -0.7155674 -0.3714871 0.998200 0.323800
-5.11 41.52569 1.059 0.5344626 -0.8378331 -0.1112902 0.998200 0.256300
-5.11 41.52569 -1.1493 0.7768933 -0.6084611 0.1619008 0.998200 0.188400
-4.2334 41.52569 -3.1618 0.4461181 -0.8069606 0.3870313 0.998200 0.121000
-2.7628 42.09379 -4.4162 0.3838509 0.7132376 0.586473 0.964800 0.061000
-0.9323 42.09379 -5.0302 0.1507846 0.7116086 0.686205 0.964800 0.001900
-4.2334 42.09379 -3.1618 0.5915788 0.7155681 0.3714795 0.964800 0.120700
-5.11 42.09379 -1.1493 0.5344642 0.8378326 0.1112855 0.964800 0.188200
-5.11 42.09379 1.059 0.7768913 0.6084619 -0.1619078 0.964800 0.256000
-4.2334 42.09379 3.0714 0.4461164 0.80696 -0.3870345 0.964800 0.323500
-2.7628 42.09379 4.3258 0.3051913 0.7132394 -0.6309896 0.964800 0.383000
-0.9323 42.09379 4.9399 0.08887433 0.5594685 -0.8240731 0.964800 0.442500
0.9405 42.09379 4.9399 -0.1508069 0.7116098 -0.6861988 0.964800 0.500200
2.771 42.09379 4.3258 -0.3838611 0.7132362 -0.5864682 0.964800 0.559700
4.2416 42.09379 3.0714 -0.5915748 0.7155674 -0.3714871 0.964800 0.619200
5.1182 42.09379 1.059 -0.5344626 0.8378331 -0.1112901 0.964800 0.686700
5.1182 42.09379 -1.1493 -0.7768933 0.6084611 0.1619007 0.964800 0.754600
4.2416 42.09379 -3.1618 -0.4461181 0.8069606 0.3870313 0.964800 0.822000
2.771 42.09379 -4.4162 -0.3051698 0.7132409 0.6309983 0.964800 0.881700
0.9405 42.09379 -5.0302 -0.08886109 0.5594671 0.8240754 0.964800 0.941000
2.9214 37.99899 4.5635 0.3055995 0.7124812 0.6316483 0.973700 0.061000
0.9915 37.99899 5.2109 0.07552273 0.7108401 0.6992872 0.973700 0.001900
0.9915 37.43149 5.2109 0.1278219 -0.8029243 0.582215 0.989900 0.001900
2.9214 37.43149 4.5635 0.3841909 -0.7124733 0.587179 0.989900 0.061300
4.472 37.99899 3.2409 0.5283461 0.7148272 0.4581185 0.973700 0.120700
4.472 37.43149 3.2409 0.6996573 -0.5632693 0.4395536 0.989900 0.121000
5.3962 37.99899 1.119 0.6745434 0.7133639 0.1900084 0.973700 0.188200
5.3962 37.43149 1.119 0.6943077 -0.7133595 0.09515821 0.989900 0.188400
5.3962 37.99899 -1.2093 0.6943031 0.7133642 -0.09515624 0.973700 0.256000
5.3962 37.43149 -1.2093 0.6745486 -0.7133591 -0.1900085 0.989900 0.256300
4.472 37.99899 -3.3312 0.6996556 0.5632728 -0.4395519 0.973700 0.323500
4.472 37.43149 -3.3312 0.5283508 -0.7148224 -0.4581205 0.989900 0.323800
2.9214 37.99899 -4.6538 0.3841883 0.7124782 -0.5871749 0.973700 0.383000
2.9214 37.43149 -4.6538 0.3056028 -0.7124764 -0.6316522 0.989900 0.383300
0.9915 37.99899 -5.3012 0.127821 0.8029296 -0.5822078 0.973700 0.442500
0.9915 37.43149 -5.3012 0.07552431 -0.7108353 -0.699292 0.989900 0.442800
-0.9832 37.99899 -5.3012 -0.07551919 0.7108397 -0.6992881 0.973700 0.500200
-0.9832 37.43149 -5.3012 -0.1278159 -0.802924 -0.5822167 0.989900 0.500500
-2.9132 37.99899 -4.6538 -0.3055927 0.7124816 -0.631651 0.973700 0.559700
-2.9132 37.43149 -4.6538 -0.3841876 -0.7124738 -0.5871806 0.989900 0.559900
-4.4638 37.99899 -3.3312 -0.5283462 0.7148272 -0.4581185 0.973700 0.619200
-4.4638 37.43149 -3.3312 -0.6996573 -0.5632693 -0.4395536 0.989900 0.619500
-5.388 37.99899 -1.2093 -0.6745434 0.7133639 -0.1900085 0.973700 0.686700
-5.388 37.43149 -1.2093 -0.6943077 -0.7133595 -0.09515822 0.989900 0.687000
-5.388 37.99899 1.119 -0.6943031 0.7133642 0.09515624 0.973700 0.754600
-5.388 37.43149 1.119 -0.6745486 -0.7133591 0.1900085 0.989900 0.754800
-4.4638 37.99899 3.2409 -0.6996556 0.5632728 0.4395519 0.973700 0.822000
-4.4638 37.43149 3.2409 -0.5283508 -0.7148225 0.4581205 0.989900 0.822300
-2.9132 37.99899 4.5635 -0.3841849 0.7124786 0.5871765 0.973700 0.881700
-2.9132 37.43149 4.5635 -0.3055959 -0.7124768 0.6316549 0.989900 0.882000
-0.9832 37.99899 5.2109 -0.127815 0.8029292 0.5822096 0.973700 0.941000
-0.9832 37.43149 5.2109 -0.07552078 -0.7108349 0.6992928 0.989900 0.941300
0.9406 37.43119 4.9399 -0.0888788 -0.5594689 -0.8240722 0.998200 0.001900
2.771 37.43119 4.3258 -0.3051908 -0.7132377 -0.6309918 0.998200 0.061300
-0.9323 37.43119 4.9399 0.1508069 -0.7116098 -0.6861988 0.998200 0.941300
-2.7628 37.43119 4.3258 0.3838463 -0.7132349 -0.5864794 0.998200 0.882000
-4.2334 37.43119 3.0715 0.5915728 -0.7155694 -0.3714863 0.998200 0.822300
-5.11 37.43119 1.059 0.5344642 -0.8378326 -0.1112855 0.998200 0.754800
-5.11 37.43119 -1.1493 0.7768933 -0.6084611 0.1619008 0.998200 0.687000
-4.2334 37.43119 -3.1618 0.4461067 -0.8069617 0.3870423 0.998200 0.619500
-2.7628 37.43119 -4.4161 0.3051837 -0.7132382 0.6309947 0.998200 0.559900
-0.9323 37.43119 -5.0302 0.08887436 -0.5594685 0.8240731 0.998200 0.500500
0.9405 37.43119 -5.0302 -0.1508069 -0.7116098 0.6861988 0.998200 0.442800
2.771 37.43119 -4.4161 -0.3838463 -0.7132349 0.5864794 0.998200 0.383300
4.2416 37.43119 -3.1618 -0.5915728 -0.7155694 0.3714862 0.998200 0.323800
5.1182 37.43119 -1.1493 -0.5344643 -0.8378326 0.1112854 0.998200 0.256300
5.1182 37.43119 1.059 -0.7768933 -0.6084611 -0.1619007 0.998200 0.188400
4.2416 37.43119 3.0715 -0.4461066 -0.8069618 -0.3870422 0.998200 0.121000
2.771 37.99929 4.3258 -0.3838513 0.7132296 -0.5864825 0.964800 0.061000
0.9406 37.99929 4.9399 -0.1508144 0.7116053 -0.6862018 0.964800 0.001900
4.2416 37.99929 3.0715 -0.5915762 0.7155647 -0.3714901 0.964800 0.120700
5.1182 37.99929 1.059 -0.5344719 0.8378275 -0.1112878 0.964800 0.188200
5.1182 37.99929 -1.1493 -0.7768964 0.6084572 0.1619008 0.964800 0.256000
4.2416 37.99929 -3.1618 -0.4461125 0.8069566 0.3870462 0.964800 0.323500
2.771 37.99929 -4.4161 -0.3051858 0.7132333 0.6309991 0.964800 0.383000
0.9405 37.99929 -5.0302 -0.08887503 0.5594649 0.8240754 0.964800 0.442500
-0.9323 37.99929 -5.0302 0.1508069 0.7116049 0.6862038 0.964800 0.500200
-2.7628 37.99929 -4.4161 0.3838479 0.7132301 0.5864842 0.964800 0.559700
-4.2334 37.99929 -3.1618 0.5915762 0.7155647 0.3714902 0.964800 0.619200
-5.11 37.99929 -1.1493 0.5344718 0.8378275 0.1112878 0.964800 0.686700
-5.11 37.99929 1.059 0.7768964 0.6084572 -0.1619009 0.964800 0.754600
-4.2334 37.99929 3.0715 0.4461125 0.8069566 -0.3870462 0.964800 0.822000
-2.7628 37.99929 4.3258 0.3051858 0.7132333 -0.6309991 0.964800 0.881700
-0.9323 37.99929 4.9399 0.08887503 0.5594649 -0.8240754 0.964800 0.941000
0.005 15.25659 -1.6974 -0.04862038 0.5599207 -0.8271184 0.613200 0.001700
0.005 13.57519 -1.6974 0.04862038 -0.5599207 -0.8271184 0.613200 0.077100
-0.5734 13.57519 -1.5954 -0.2372426 -0.5599214 -0.7938538 0.587500 0.077100
-0.5734 15.25659 -1.5954 -0.3286239 0.5599215 -0.7605882 0.587500 0.001700
-1.082 13.57519 -1.3017 -0.4944377 -0.5599133 -0.6648522 0.561900 0.077100
-1.082 15.25659 -1.3017 -0.5688764 0.5599133 -0.6023925 0.561900 0.001700
-1.4596 13.57519 -0.8518 -0.6919778 -0.5599266 -0.4556852 0.536200 0.077100
-1.4596 15.25659 -0.8518 -0.7406253 0.5599266 -0.3714248 0.536200 0.001700
-1.6604 13.57519 -0.2999 -0.8061298 -0.5599159 -0.1914393 0.510600 0.077100
-1.6604 15.25659 -0.2999 -0.8230019 0.5599159 -0.09571965 0.510600 0.001700
-1.6604 13.57519 0.2874 -0.8230019 -0.5599159 0.09571966 0.484900 0.077100
-1.6604 15.25659 0.2874 -0.8061298 0.5599159 0.1914393 0.484900 0.001700
-1.4596 13.57519 0.8393 -0.7406253 -0.5599266 0.3714248 0.920900 0.077100
-1.4596 15.25659 0.8393 -0.6919778 0.5599266 0.4556852 0.920900 0.001700
-1.082 13.57519 1.2892 -0.5688452 -0.5599178 0.6024179 0.895200 0.077100
-1.082 15.25659 1.2892 -0.4943702 0.5599177 0.6648987 0.895200 0.001700
-0.5734 13.57519 1.5828 -0.3756709 -0.3201106 0.869713 0.869600 0.077100
-0.5734 15.25659 1.5828 -0.2712253 0.3201106 0.9077258 0.869600 0.001700
0.005 13.57519 1.6848 -0.01067325 -0.9833199 0.1815708 0.843900 0.077100
0.005 15.25659 1.6848 0.01067325 0.9833199 0.1815708 0.843900 0.001700
0.5834 13.57519 1.5828 0.2712253 -0.3201106 0.9077258 0.818300 0.077100
0.5834 15.25659 1.5828 0.3756709 0.3201106 0.869713 0.818300 0.001700
1.092 13.57519 1.2892 0.4943971 -0.5599217 0.6648753 0.792700 0.077100
1.092 15.25659 1.2892 0.5688961 0.5599217 0.6023661 0.792700 0.001700
1.4695 13.57519 0.8393 0.6919987 -0.5599179 0.4556642 0.767000 0.077100
1.4695 15.25659 0.8393 0.7406066 0.5599179 0.3714752 0.767000 0.001700
1.6704 13.57519 0.2874 0.8061061 -0.5599207 0.1915251 0.741400 0.077100
1.6704 15.25659 0.2874 0.8229936 0.5599207 0.09576257 0.741400 0.001700
1.6704 13.57519 -0.2999 0.8229936 -0.5599207 -0.09576256 0.715700 0.077100
1.6704 15.25659 -0.2999 0.8061061 0.5599207 -0.1915251 0.715700 0.001700
1.4695 13.57519 -0.8518 0.7406066 -0.5599179 -0.3714752 0.690100 0.077100
1.4695 15.25659 -0.8518 0.6919987 0.5599179 -0.4556642 0.690100 0.001700
1.092 13.57519 -1.3017 0.5689273 -0.5599173 -0.6023407 0.664400 0.077100
1.092 15.25659 -1.3017 0.4944646 0.5599173 -0.6648288 0.664400 0.001700
0.5834 13.57519 -1.5954 0.3286238 -0.5599215 -0.7605882 0.638800 0.077100
0.5834 15.25659 -1.5954 0.2372426 0.5599214 -0.7938538 0.638800 0.001700
-0.5002 14.93479 1.563 -0.5400616 0.5400616 0.6454975 0.505200 0.304300
-0.5002 13.90249 1.563 -0.5400536 -0.540026 0.6455339 0.471200 0.304300
0.0159 14.41869 2.4266 -2.129044e-05 2.134853e-05 1 0.488200 0.287300
0.5321 13.90249 1.563 0.540018 -0.540018 0.6455705 0.471200 0.270300
0.5321 14.93479 1.563 0.5400261 0.5400536 0.6455339 0.505200 0.270300
-1.5532 14.93479 -0.5376 -0.6455411 0.5400355 -0.5400355 0.615600 0.304500
-1.5532 13.90249 -0.5376 -0.6455776 -0.54 -0.5400275 0.580300 0.304500
-2.4167 14.41869 -0.0215 -1 2.134671e-05 -2.131767e-05 0.598000 0.322100
-1.5532 13.90249 0.4947 -0.6456141 -0.5399919 0.5399919 0.580300 0.339800
-1.5532 14.93479 0.4947 -0.6455775 0.5400275 0.5399999 0.615600 0.339800
0.5321 14.93479 -1.5458 0.5400261 0.5400536 -0.6455339 0.505200 0.235400
0.5321 13.90249 -1.5458 0.540018 -0.540018 -0.6455705 0.471200 0.235400
0.0159 14.41869 -2.4094 -2.129044e-05 2.134853e-05 -1 0.488200 0.252400
-0.5002 13.90249 -1.5458 -0.5400536 -0.540026 -0.6455339 0.471200 0.269500
-0.5002 14.93479 -1.5458 -0.5400616 0.5400616 -0.6454975 0.505200 0.269500
1.5632 14.93479 0.4947 0.6455775 0.5400276 0.54 0.615700 0.375900
1.5632 13.90249 0.4947 0.645614 -0.539992 0.539992 0.580400 0.375900
2.4267 14.41869 -0.0215 1 2.137576e-05 -2.137576e-05 0.598000 0.358300
1.5632 13.90249 -0.5376 0.6455775 -0.54 -0.5400276 0.580400 0.340700
1.5632 14.93479 -0.5376 0.645541 0.5400355 -0.5400355 0.615700 0.340700
1.704508 1.786602 -0.1400879 0.8197334 0.5599208 -0.1205236 0.613200 0.001700
1.704508 0.1052017 -0.1400879 0.8282085 -0.5599208 -0.0236528 0.613200 0.077100
1.552485 0.1052017 -0.7073971 0.7701558 -0.5599215 -0.3055288 0.587500 0.077100
1.552485 1.786602 -0.7073971 0.7290524 0.5599215 -0.393663 0.587500 0.001700
1.215576 0.1052017 -1.188464 0.6192291 -0.5599134 -0.550502 0.561900 0.077100
1.215576 1.786602 -1.188464 0.5505193 0.5599133 -0.6192137 0.561900 0.001700
0.7344776 0.1052017 -1.525416 0.3936413 -0.5599266 -0.7290602 0.536200 0.077100
0.7344776 1.786602 -1.525416 0.3054617 0.5599266 -0.7701789 0.536200 0.001700
0.1671769 0.1052017 -1.67735 0.1204519 -0.5599158 -0.8197473 0.510600 0.077100
0.1671769 1.786602 -1.67735 0.02362599 0.5599158 -0.8282126 0.510600 0.001700
-0.4178883 0.1052017 -1.626164 -0.1670849 -0.5599159 -0.8115276 0.484900 0.077100
-0.4178883 1.786602 -1.626164 -0.2609697 0.5599159 -0.7863772 0.484900 0.001700
-0.9501872 0.1052017 -1.378026 -0.4345613 -0.5599266 -0.7054352 0.920900 0.077100
-0.9501872 1.786602 -1.378026 -0.5142611 0.5599266 -0.649629 0.920900 0.001700
-1.365465 0.1052017 -0.962652 -0.6497037 -0.5599177 -0.5141762 0.895200 0.077100
-1.365465 1.786602 -0.962652 -0.7054558 0.5599178 -0.4345392 0.895200 0.001700
-1.613621 0.1052017 -0.4303985 -0.8991454 -0.3201106 -0.2984408 0.869600 0.077100
-1.613621 1.786602 -0.4303985 -0.9279105 0.3201106 -0.1910795 0.869600 0.001700
-1.664821 0.1052017 0.1546904 -0.1818101 -0.98332 0.005192323 0.843900 0.077100
-1.664821 1.786602 0.1546904 -0.1799496 0.9833199 0.02645757 0.843900 0.001700
-1.512799 0.1052017 0.7219996 -0.8806328 -0.3201106 0.3493067 0.818300 0.077100
-1.512799 1.786602 0.7219996 -0.8336616 0.3201106 0.4500419 0.818300 0.001700
-1.175988 0.1052017 1.203075 -0.6192557 -0.5599217 0.5504636 0.792700 0.077100
-1.175988 1.786602 1.203075 -0.5504914 0.5599217 0.619231 0.792700 0.001700
-0.6948991 0.1052017 1.539927 -0.3936186 -0.5599179 0.7290792 0.767000 0.077100
-0.6948991 1.786602 1.539927 -0.3055135 0.5599179 0.7701646 0.767000 0.001700
-0.1275897 0.1052017 1.691962 -0.1205395 -0.5599207 0.8197311 0.741400 0.077100
-0.1275897 1.786602 1.691962 -0.02366943 0.5599207 0.8282081 0.741400 0.001700
0.4574755 0.1052017 1.640775 0.1671269 -0.5599207 0.8115156 0.715700 0.077100
0.4574755 1.786602 1.640775 0.2610531 0.5599207 0.7863461 0.715700 0.001700
0.9897658 0.1052017 1.392538 0.4346098 -0.5599179 0.7054121 0.690100 0.077100
0.9897658 1.786602 1.392538 0.5142419 0.5599179 0.6496516 0.690100 0.001700
1.405052 0.1052017 0.9772633 0.649634 -0.5599173 0.5142649 0.664400 0.077100
1.405052 1.786602 0.9772633 0.7053944 0.5599173 0.4346393 0.664400 0.001700
1.653307 0.1052017 0.445001 0.7863353 -0.5599215 0.2610837 0.638800 0.077100
1.653307 1.786602 0.445001 0.81151 0.5599215 0.1671509 0.638800 0.001700
-1.587516 1.464802 -0.3592027 -0.6901106 0.5400617 -0.4817477 0.505200 0.304300
-1.587516 0.4325018 -0.3592027 -0.6901462 -0.5400261 -0.4817365 0.471200 0.304300
-2.402849 0.9487019 0.2302011 -0.9961966 2.134854e-05 0.08713455 0.488200 0.287300
-1.497545 0.4325018 0.6691691 -0.5960481 -0.540018 0.5942283 0.471200 0.270300
-1.497545 1.464802 0.6691691 -0.596011 0.5400537 0.5942332 0.505200 0.270300
0.4133155 1.464802 -1.591275 0.4817178 0.5400355 -0.6901519 0.615600 0.304500
0.4133155 0.4325018 -1.591275 0.4817066 -0.54 -0.6901876 0.580300 0.304500
-0.1760796 0.9487019 -2.406508 -0.08713461 2.131767e-05 -0.9961966 0.598000 0.322100
-0.6150563 0.4325018 -1.501304 -0.5942061 -0.5399919 -0.5960939 0.580300 0.339800
-0.6150563 1.464802 -1.501304 -0.5942109 0.5400274 -0.5960569 0.615600 0.339800
1.599425 1.464802 0.3982192 0.6901439 0.5400535 0.481709 0.505200 0.235400
1.599425 0.4325018 0.3982192 0.6901796 -0.540018 0.4816978 0.471200 0.235400
2.414749 0.9487019 -0.1912843 0.9961929 2.129044e-05 -0.08717709 0.488200 0.252400
1.509454 0.4325018 -0.6301526 0.5960087 -0.540026 -0.5942605 0.471200 0.269500
1.509454 1.464802 -0.6301526 0.5959716 0.5400615 -0.5942653 0.505200 0.269500
-0.343444 1.464802 1.603237 -0.4816794 0.5400276 0.6901849 0.615700 0.375900
-0.343444 0.4325018 1.603237 -0.4816682 -0.539992 0.6902206 0.580400 0.375900
0.2460508 0.9487019 2.418462 0.08717704 2.137576e-05 0.9961929 0.598000 0.358300
0.6849279 0.4325018 1.513266 0.5942385 -0.54 0.5960543 0.580400 0.340700
0.6849279 1.464802 1.513266 0.5942432 0.5400357 0.5960172 0.615700 0.340700
1.4106 27.00594 -1.4181 0.6666667 -0.6666667 -0.3333333 0.629900 0.228400
1.4106 27.00594 1.3713 0.4082483 -0.4082483 0.8164966 0.555700 0.228400
-1.3787 27.00594 1.3713 -0.6666667 -0.6666667 0.3333333 0.555700 0.302600
-1.3787 27.00594 -1.4181 -0.4082483 -0.4082483 -0.8164966 0.629900 0.302600
-1.3787 28.64464 1.3713 -0.3333333 0.6666667 0.6666667 0.555700 0.227000
1.4106 28.64464 1.3713 0.8164966 0.4082483 0.4082483 0.555700 0.152800
1.4106 28.64464 -1.4181 0.3333333 0.6666667 -0.6666667 0.629900 0.152800
-1.3787 28.64464 -1.4181 -0.8164966 0.4082483 -0.4082483 0.629900 0.227000
-0.5413 28.26224 1.3434 -0.4841365 0.4841367 0.7288508 0.579700 0.339800
-0.5413 27.14684 1.3434 -0.4841364 -0.484136 0.7288514 0.544400 0.339800
0.0164 27.70454 2.0843 2.153234e-05 4.212311e-07 1 0.562000 0.322200
0.574 27.14684 1.3434 0.4841751 -0.4841433 0.7288208 0.544400 0.304500
0.574 28.26224 1.3434 0.4841753 0.4841441 0.7288201 0.579700 0.304500
-1.3296 28.26224 -0.5803 -0.7295122 0.4836226 -0.4836539 0.579600 0.340600
-1.3296 27.14684 -0.5803 -0.7295128 -0.4836219 -0.4836537 0.544300 0.340600
-2.069 27.70454 -0.0227 -1 3.959406e-07 -2.157877e-05 0.562000 0.358300
-1.3296 27.14684 0.535 -0.7295434 -0.4836146 0.4836149 0.544300 0.375900
-1.3296 28.26224 0.535 -0.7295429 0.4836153 0.483615 0.579600 0.375900
0.574 28.26224 -1.3238 0.4841752 0.4841441 -0.7288203 0.540100 0.235500
0.574 27.14684 -1.3238 0.4841751 -0.4841433 -0.7288208 0.506100 0.235500
0.0164 27.70454 -2.0647 2.155712e-05 4.212311e-07 -1 0.523100 0.252500
-0.5413 27.14684 -1.3238 -0.4841363 -0.484136 -0.7288515 0.506100 0.269500
-0.5413 28.26224 -1.3238 -0.4841365 0.4841367 -0.7288509 0.540100 0.269500
1.3387 28.26224 0.535 0.7295429 0.4836153 0.483615 0.540100 0.304200
1.3387 27.14684 0.535 0.7295435 -0.4836146 0.4836149 0.506100 0.304200
2.0781 27.70454 -0.0227 1 3.959406e-07 -2.157876e-05 0.523100 0.287200
1.3387 27.14684 -0.5803 0.7295129 -0.4836219 -0.4836537 0.506100 0.270200
1.3387 28.26224 -0.5803 0.7295122 0.4836226 -0.4836539 0.540100 0.270200
-1.2335 28.80419 0.2121 -0.9729135 0 0.2311694 0.944500 0.152700
-1.2335 1.586492 0.2121 -0.8229926 -0.5599212 0.09576723 0.944500 0.997400
0.005 1.586492 1.2513 -0.01066675 -0.9833194 0.1815741 0.141600 0.214400
-0.4251 1.586492 1.1755 -0.3756611 -0.3201138 0.869716 0.142700 0.220900
-0.8034 1.586492 0.9571 -0.5689412 -0.5599235 0.6023219 0.146000 0.226500
-1.0841 1.586492 0.6225 -0.740616 -0.5599145 0.3714616 0.151000 0.230800
-1.2335 1.586492 0.2121 -0.8229926 -0.5599212 0.09576723 0.157200 0.233000
-1.2335 1.586492 -0.2246 -0.8061151 -0.5599188 -0.1914924 0.163700 0.233000
-1.0841 1.586492 -0.6351 -0.6919901 -0.5599213 -0.455673 0.169900 0.230800
-0.8034 1.586492 -0.9696 -0.4944031 -0.5599191 -0.6648731 0.174900 0.226500
-0.4251 1.586492 -1.188 -0.2372781 -0.5599146 -0.7938481 0.178200 0.220900
0.005 1.586492 -1.2639 0.04865367 -0.5599279 -0.8271116 0.179300 0.214400
0.4351 1.586492 -1.188 0.3286561 -0.559918 -0.7605767 0.178200 0.207900
0.8133 1.586492 -0.9696 0.5688395 -0.5599104 -0.6024301 0.174900 0.202200
1.0941 1.586492 -0.6351 0.7405889 -0.5599266 -0.3714976 0.169900 0.198000
1.2435 1.586492 -0.2246 0.8229967 -0.5599189 -0.09574623 0.163700 0.195800
1.2435 1.586492 0.2121 0.8061035 -0.5599212 0.1915345 0.157200 0.195800
1.0941 1.586492 0.6225 0.6919706 -0.5599198 0.4557045 0.151000 0.198000
0.8133 1.586492 0.9571 0.4944499 -0.5599148 0.664842 0.146000 0.202200
0.4351 1.586492 1.1755 0.2712044 -0.3201163 0.90773 0.142700 0.207900
4.358 33.49919 3.1911 -0.6253512 0.7611168 0.1721547 0.033600 0.399500
3.698 33.27999 3.8491 -0.5281557 0.5717423 -0.6278235 0.033600 0.429400
3.9852 33.18009 4.1716 0.5726107 0.5519167 0.6062218 0.019700 0.429400
4.7696 33.42499 3.3325 0.6724219 0.4675362 0.5738108 0.019700 0.399500
4.9387 34.72089 1.7022 0.4336773 0.5612403 0.704935 0.019700 0.339800
4.5212 34.67379 1.5712 -0.9041445 0.3341829 0.2661666 0.033600 0.339800
4.6881 36.20299 0.7915 -0.7169237 0.1901603 0.6707156 0.033600 0.288900
5.1213 36.20299 0.8618 0.8681005 0.1203134 0.4815872 0.019700 0.288900
4.6881 36.20299 -0.7915 -0.8382703 0.1496523 -0.5243159 0.066200 0.594000
5.1196 36.20299 -0.8716 0.8718054 0.09462465 -0.4806262 0.052600 0.594000
4.9541 34.71069 -1.6388 0.4871743 0.5318612 -0.692665 0.052600 0.533400
4.5212 34.67379 -1.5712 -0.8995259 0.3395363 -0.274897 0.066200 0.533400
4.358 33.49919 -3.1911 -0.6235105 0.764761 -0.162405 0.066200 0.464600
4.7622 33.44299 -3.3569 0.7204441 0.4526958 -0.5253826 0.052600 0.464600
3.9779 33.17939 -4.1779 0.5616903 0.5531378 -0.6152581 0.052600 0.434600
3.698 33.27999 -3.8491 -0.532769 0.5715355 0.624103 0.066200 0.434600
3.1271 33.50839 -4.3007 0.2103438 0.7837563 0.5843643 0.066200 0.409500
3.253 33.42229 -4.7159 0.5342326 0.4273806 -0.7293431 0.052600 0.409500
1.5553 34.67749 -4.993 0.5488845 0.4922805 -0.6755633 0.052600 0.352200
1.514 34.67619 -4.5557 0.5253509 0.4040061 0.7488562 0.066200 0.352200
0.8388 36.20299 -5.0197 0.5929739 0.1739374 -0.786211 0.052600 0.302100
0.783 36.20299 -4.5843 0.6501713 0.1053643 0.7524465 0.066200 0.302100
-1.514 34.67619 -4.5557 -0.5292151 0.4038985 0.7461886 0.016700 0.547900
-0.783 36.20299 -4.5843 -0.4729425 0.08213741 0.8772565 0.016700 0.609300
-0.8475 36.20299 -5.0186 -0.593054 0.162038 -0.7886893 0.002200 0.609300
-1.5302 34.67629 -4.9946 -0.532643 0.479895 -0.6971314 0.002200 0.547900
-3.1271 33.50839 -4.3007 -0.2027128 0.7805126 0.5913608 0.016700 0.481300
-3.2709 33.43609 -4.7117 -0.5042772 0.4124764 -0.7586619 0.002200 0.481300
-3.9852 33.18009 -4.1716 -0.5726421 0.5518671 -0.6062374 0.002200 0.455900
-3.698 33.27999 -3.8491 0.5281515 0.5717209 0.6278465 0.016700 0.455900
-4.358 33.49919 -3.1911 0.6253502 0.7611129 -0.1721755 0.016700 0.429500
-4.7695 33.42499 -3.3325 -0.7011945 0.4546636 -0.5491878 0.002200 0.429500
-4.9386 34.72089 -1.7022 -0.4492249 0.5501568 -0.703935 0.002200 0.370400
-4.5212 34.67379 -1.5712 0.9041112 0.3342171 -0.2662367 0.016700 0.370400
-4.6881 36.20299 -0.7915 0.7169166 0.1901856 -0.6707162 0.016700 0.317000
-5.1213 36.20299 -0.8618 -0.8697472 0.1118871 -0.4806466 0.002200 0.317000
-4.6881 36.20299 0.7915 0.8382574 0.1496842 0.5243273 0.050300 0.574800
-5.1196 36.20299 0.8716 -0.8718054 0.09462465 0.4806262 0.035900 0.574800
-4.9541 34.71069 1.6388 -0.4871743 0.5318612 0.692665 0.035900 0.512400
-4.5212 34.67379 1.5712 0.8994865 0.3395762 0.2749767 0.050300 0.512400
-4.358 33.49919 3.1911 0.6235045 0.764762 0.1624234 0.050300 0.441500
-4.7622 33.44299 3.3569 -0.7204443 0.4526956 0.5253825 0.035900 0.441500
-3.9779 33.17939 4.1779 -0.5616948 0.5531427 0.6152496 0.035900 0.406600
-3.6979 33.27999 3.8491 0.5327629 0.5715249 -0.6241177 0.050300 0.406600
-3.1271 33.50839 4.3008 -0.2103562 0.7837709 -0.5843403 0.050300 0.379700
-3.253 33.42229 4.7159 -0.5242839 0.4177719 0.7420197 0.035900 0.379700
-1.5553 34.67749 4.993 -0.5449964 0.486805 0.6826418 0.035900 0.311900
-1.514 34.67619 4.5558 -0.5253949 0.4040445 -0.7488047 0.050300 0.311900
-0.8388 36.20299 5.0197 -0.5928748 0.1728082 0.7865347 0.035900 0.258800
-0.783 36.20299 4.5844 -0.6501832 0.1053938 -0.7524321 0.050300 0.258800
1.514 34.67619 4.5558 0.5292614 0.4039355 -0.7461358 0.033600 0.519000
0.783 36.20299 4.5844 0.4729603 0.08217071 -0.8772437 0.033600 0.575100
0.8475 36.20299 5.0186 0.5930534 0.1620382 0.7886897 0.019700 0.575100
1.5302 34.67629 4.9946 0.5326457 0.4798984 0.697127 0.019700 0.519000
3.1271 33.50839 4.3008 0.2027282 0.7805352 -0.5913258 0.033600 0.451400
3.2709 33.43609 4.7117 0.5042565 0.4125058 0.7586595 0.019700 0.451400
5.1213 36.20299 0.8618 0.8681005 0.1203134 0.4815872 0.083900 0.232300
5.1196 36.20299 -0.8716 0.8718054 0.09462465 -0.4806262 0.151300 0.232500
5.2142 44.21929 -0.8678 0.595018 -0.2113604 -0.7754228 0.052600 0.841400
4.7827 44.21929 -0.7877 -0.7521461 0.1266542 -0.6467109 0.630900 0.328100
4.6881 36.20299 -0.7915 -0.8382703 0.1496523 -0.5243159 0.631400 0.171800
4.6881 36.20299 0.7915 -0.7169237 0.1901603 0.6707156 0.663700 0.172400
5.2158 44.21929 0.8656 0.2924823 -0.1503988 0.9443698 0.019700 0.001700
4.7827 44.21929 0.7952 -0.8890424 0.1747524 0.4231609 0.033600 0.001700
0.8388 36.20299 -5.0197 0.5929739 0.1739374 -0.786211 0.332200 0.440300
-0.8475 36.20299 -5.0186 -0.593054 0.162038 -0.7886893 0.331800 0.376300
-0.8329 44.21929 -5.061 -0.7626067 -0.1871571 -0.6191958 0.002200 0.863600
-0.7684 44.21929 -4.6268 -0.6597501 0.1117391 0.7431314 0.074900 0.187900
-0.783 36.20299 -4.5843 -0.4729425 0.08213741 0.8772565 0.073900 0.031400
0.783 36.20299 -4.5843 0.6501713 0.1053643 0.7524465 0.105700 0.031900
0.8535 44.21929 -5.0621 0.9347984 -0.1393876 -0.3266852 0.052600 0.066200
0.7977 44.21929 -4.6268 0.4292377 0.1532734 0.8900912 0.066200 0.066200
-5.1213 36.20299 -0.8618 -0.8697472 0.1118871 -0.4806466 0.528300 0.306100
-5.1196 36.20299 0.8716 -0.8718054 0.09462465 0.4806262 0.528600 0.372400
-5.2142 44.21929 0.8678 -0.5950249 -0.2113536 0.7754193 0.035900 0.855100
-4.7827 44.21929 0.7877 0.7521461 0.1266542 0.6467109 0.144100 0.046800
-4.6881 36.20299 0.7915 0.8382574 0.1496842 0.5243273 0.143600 0.203100
-4.6881 36.20299 -0.7915 0.7169166 0.1901856 -0.6707162 0.111300 0.202500
-5.2158 44.21929 -0.8656 -0.2924764 -0.1503917 -0.9443728 0.002200 0.071900
-4.7827 44.21929 -0.7952 0.8890433 0.1747529 -0.4231589 0.016700 0.071900
-0.8388 36.20299 5.0197 -0.5928748 0.1728082 0.7865347 0.149900 0.996900
0.8475 36.20299 5.0186 0.5930534 0.1620382 0.7886897 0.084900 0.997900
0.8329 44.21929 5.0611 0.7625934 -0.1871599 0.6192112 0.019700 0.816300
0.7684 44.21929 4.6268 0.6597537 0.1117316 -0.7431293 0.700800 0.196600
0.783 36.20299 4.5844 0.4729603 0.08217071 -0.8772437 0.699800 0.353000
-0.783 36.20299 4.5844 -0.6501832 0.1053938 -0.7524321 0.668000 0.352100
-0.8535 44.21929 5.0621 -0.9347875 -0.1393913 0.3267147 0.035900 0.001300
-0.7977 44.21929 4.6268 -0.4292466 0.1532658 -0.8900881 0.050300 0.001300
6.2626 46.22339 1.2159 0.7529447 0.4691874 0.4614516 0.069500 0.611000
6.2606 46.22339 -1.2164 0.5351179 0.3681413 -0.7603427 0.159300 0.612200
5.7448 46.22339 -1.104 -0.5466508 0.6814058 -0.4866818 0.624400 0.371400
5.7448 46.22339 1.1172 -0.4702107 0.4813581 0.7397272 0.667600 0.371800
4.7827 44.21929 0.7952 -0.8890424 0.1747524 0.4231609 0.066200 0.999200
5.2158 44.21929 0.8656 0.2924823 -0.1503988 0.9443698 0.052600 0.999200
1.1504 46.22339 -5.988 0.4427939 0.4846765 -0.7543356 0.702800 0.451100
-1.1129 46.22339 -5.9868 -0.7340178 0.3853552 -0.5592131 0.703400 0.368900
-1.0263 46.22339 -5.4742 -0.4996051 0.6723971 0.5461474 0.069700 0.230200
1.0755 46.22339 -5.4742 0.7560133 0.4694454 0.4561414 0.110600 0.230400
1.0755 46.22339 -5.4742 0.7560133 0.4694454 0.4561414 0.066200 0.000800
1.1504 46.22339 -5.988 0.4427939 0.4846765 -0.7543356 0.052600 0.000800
-6.2625 46.22339 -1.2159 -0.7529324 0.4691998 -0.461459 0.155600 0.294500
-6.2606 46.22339 1.2164 -0.5351263 0.368157 0.7603291 0.155100 0.382800
-5.7448 46.22339 1.104 0.5466508 0.6814058 0.4866818 0.150600 0.003600
-5.7448 46.22339 -1.1172 0.4702208 0.4813586 -0.7397203 0.107400 0.003100
-5.7448 46.22339 -1.1172 0.4702208 0.4813586 -0.7397203 0.016700 0.001800
-6.2625 46.22339 -1.2159 -0.7529324 0.4691998 -0.461459 0.002200 0.001800
-1.1503 46.22339 5.988 -0.4428001 0.4846559 0.7543452 0.158400 0.620300
1.1129 46.22339 5.9868 0.7340012 0.3853592 0.5592322 0.074800 0.620300
1.0263 46.22339 5.4742 0.4996101 0.6723967 -0.5461433 0.706500 0.154300
-1.0755 46.22339 5.4742 -0.7560474 0.4694456 -0.4560846 0.665500 0.153600
-0.7977 44.21929 4.6268 -0.4292466 0.1532658 -0.8900881 0.033800 0.999100
-0.8535 44.21929 5.0621 -0.9347875 -0.1393913 0.3267147 0.019600 0.999100
-0.9832 42.09349 -5.3012 -0.07552078 0.7108348 -0.6992928 0.973700 0.997400
-0.9832 41.52599 -5.3012 -0.1278159 -0.8029239 -0.5822167 0.989900 0.997600
-0.9323 41.52569 -5.0302 0.08886109 -0.5594671 0.8240754 0.998200 0.997600
-0.9323 42.09379 -5.0302 0.1507846 0.7116086 0.686205 0.964800 0.997400
0.9405 41.52569 -5.0302 -0.1507845 -0.7116086 0.686205 0.947500 0.941000
2.771 41.52569 -4.4162 -0.3838509 -0.7132376 0.586473 0.947500 0.881700
4.2416 41.52569 -3.1618 -0.5915788 -0.7155681 0.3714794 0.947500 0.822000
5.1182 41.52569 -1.1493 -0.5344643 -0.8378326 0.1112854 0.947500 0.754600
5.1182 41.52569 1.059 -0.7768913 -0.6084619 -0.1619077 0.947500 0.686700
4.2416 41.52569 3.0714 -0.4461164 -0.8069601 -0.3870345 0.947500 0.619200
2.771 41.52569 4.3258 -0.3051913 -0.7132394 -0.6309897 0.947500 0.559700
0.9405 41.52569 4.9399 -0.08887434 -0.5594685 -0.8240731 0.947500 0.500200
-0.9323 41.52569 4.9399 0.1508069 -0.7116098 -0.6861987 0.947500 0.442500
-2.7628 41.52569 4.3258 0.3838611 -0.7132362 -0.5864682 0.947500 0.383000
-4.2334 41.52569 3.0714 0.5915748 -0.7155674 -0.3714871 0.947500 0.323500
-5.11 41.52569 1.059 0.5344626 -0.8378331 -0.1112902 0.947500 0.256000
-5.11 41.52569 -1.1493 0.7768933 -0.6084611 0.1619008 0.947500 0.188200
-4.2334 41.52569 -3.1618 0.4461181 -0.8069606 0.3870313 0.947500 0.120700
-2.7628 41.52569 -4.4162 0.3051698 -0.7132409 0.6309983 0.947500 0.061000
-0.9323 41.52569 -5.0302 0.08886109 -0.5594671 0.8240754 0.947500 0.001900
-0.9323 41.52569 -5.0302 0.08886109 -0.5594671 0.8240754 0.947500 0.997400
0.9915 37.99899 5.2109 0.07552273 0.7108401 0.6992872 0.973700 0.997400
0.9915 37.43149 5.2109 0.1278219 -0.8029243 0.582215 0.989900 0.997600
0.9406 37.43119 4.9399 -0.0888788 -0.5594689 -0.8240722 0.998200 0.997600
0.9406 37.99929 4.9399 -0.1508144 0.7116053 -0.6862018 0.964800 0.997400
-0.9323 37.43119 4.9399 0.1508069 -0.7116098 -0.6861988 0.947500 0.941000
-2.7628 37.43119 4.3258 0.3838463 -0.7132349 -0.5864794 0.947500 0.881700
-4.2334 37.43119 3.0715 0.5915728 -0.7155694 -0.3714863 0.947500 0.822000
-5.11 37.43119 1.059 0.5344642 -0.8378326 -0.1112855 0.947500 0.754600
-5.11 37.43119 -1.1493 0.7768933 -0.6084611 0.1619008 0.947500 0.686700
-4.2334 37.43119 -3.1618 0.4461067 -0.8069617 0.3870423 0.947500 0.619200
-2.7628 37.43119 -4.4161 0.3051837 -0.7132382 0.6309947 0.947500 0.559700
-0.9323 37.43119 -5.0302 0.08887436 -0.5594685 0.8240731 0.947500 0.500200
0.9405 37.43119 -5.0302 -0.1508069 -0.7116098 0.6861988 0.947500 0.442500
2.771 37.43119 -4.4161 -0.3838463 -0.7132349 0.5864794 0.947500 0.383000
4.2416 37.43119 -3.1618 -0.5915728 -0.7155694 0.3714862 0.947500 0.323500
5.1182 37.43119 -1.1493 -0.5344643 -0.8378326 0.1112854 0.947500 0.256000
5.1182 37.43119 1.059 -0.7768933 -0.6084611 -0.1619007 0.947500 0.188200
4.2416 37.43119 3.0715 -0.4461066 -0.8069618 -0.3870422 0.947500 0.120700
2.771 37.43119 4.3258 -0.3051908 -0.7132377 -0.6309918 0.947500 0.061000
0.9406 37.43119 4.9399 -0.0888788 -0.5594689 -0.8240722 0.947500 0.001900
0.9406 37.43119 4.9399 -0.0888788 -0.5594689 -0.8240722 0.947500 0.997400
-1.6604 15.25659 0.2874 -0.8061298 0.5599159 0.1914393 0.945200 0.001700
-1.6604 13.57519 0.2874 -0.8230019 -0.5599159 0.09571966 0.945200 0.077100
0.005 13.57519 1.6848 -0.01067325 -0.9833199 0.1815708 0.245600 0.415900
-0.5734 13.57519 1.5828 -0.3756709 -0.3201106 0.869713 0.248000 0.429900
-1.082 13.57519 1.2892 -0.5688452 -0.5599178 0.6024179 0.255200 0.442200
-1.4596 13.57519 0.8393 -0.7406253 -0.5599266 0.3714248 0.266100 0.451400
-1.6604 13.57519 0.2874 -0.8230019 -0.5599159 0.09571966 0.279400 0.456200
-1.6604 13.57519 -0.2999 -0.8061298 -0.5599159 -0.1914393 0.293700 0.456200
-1.4596 13.57519 -0.8518 -0.6919778 -0.5599266 -0.4556852 0.307000 0.451400
-1.082 13.57519 -1.3017 -0.4944377 -0.5599133 -0.6648522 0.318000 0.442200
-0.5734 13.57519 -1.5954 -0.2372426 -0.5599214 -0.7938538 0.325100 0.429900
0.005 13.57519 -1.6974 0.04862038 -0.5599207 -0.8271184 0.327500 0.415900
0.5834 13.57519 -1.5954 0.3286238 -0.5599215 -0.7605882 0.325100 0.401900
1.092 13.57519 -1.3017 0.5689273 -0.5599173 -0.6023407 0.318000 0.389500
1.4695 13.57519 -0.8518 0.7406066 -0.5599179 -0.3714752 0.307000 0.380400
1.6704 13.57519 -0.2999 0.8229936 -0.5599207 -0.09576256 0.293700 0.375500
1.6704 13.57519 0.2874 0.8061061 -0.5599207 0.1915251 0.279400 0.375500
1.4695 13.57519 0.8393 0.6919987 -0.5599179 0.4556642 0.266100 0.380400
1.092 13.57519 1.2892 0.4943971 -0.5599217 0.6648753 0.255200 0.389500
0.5834 13.57519 1.5828 0.2712253 -0.3201106 0.9077258 0.248000 0.401900
0.005 15.25659 1.6848 0.01067325 0.9833199 0.1815708 0.470700 0.193000
0.5834 15.25659 1.5828 0.3756709 0.3201106 0.869713 0.473200 0.179000
1.092 15.25659 1.2892 0.5688961 0.5599217 0.6023661 0.480300 0.166600
1.4695 15.25659 0.8393 0.7406066 0.5599179 0.3714752 0.491200 0.157500
1.6704 15.25659 0.2874 0.8229936 0.5599207 0.09576257 0.504500 0.152600
1.6704 15.25659 -0.2999 0.8061061 0.5599207 -0.1915251 0.518800 0.152600
1.4695 15.25659 -0.8518 0.6919987 0.5599179 -0.4556642 0.532200 0.157500
1.092 15.25659 -1.3017 0.4944646 0.5599173 -0.6648288 0.543100 0.166600
0.5834 15.25659 -1.5954 0.2372426 0.5599214 -0.7938538 0.550200 0.179000
0.005 15.25659 -1.6974 -0.04862038 0.5599207 -0.8271184 0.552600 0.193000
-0.5734 15.25659 -1.5954 -0.3286239 0.5599215 -0.7605882 0.550200 0.207000
-1.082 15.25659 -1.3017 -0.5688764 0.5599133 -0.6023925 0.543100 0.219300
-1.4596 15.25659 -0.8518 -0.7406253 0.5599266 -0.3714248 0.532200 0.228500
-1.6604 15.25659 -0.2999 -0.8230019 0.5599159 -0.09571965 0.518800 0.233300
-1.6604 15.25659 0.2874 -0.8061298 0.5599159 0.1914393 0.504500 0.233300
-1.4596 15.25659 0.8393 -0.6919778 0.5599266 0.4556852 0.491200 0.228500
-1.082 15.25659 1.2892 -0.4943702 0.5599177 0.6648987 0.480300 0.219300
-0.5734 15.25659 1.5828 -0.2712253 0.3201106 0.9077258 0.473200 0.207000
-0.4178883 1.786602 -1.626164 -0.2609697 0.5599159 -0.7863772 0.945200 0.001700
-0.4178883 0.1052017 -1.626164 -0.1670849 -0.5599159 -0.8115276 0.945200 0.077100
-1.664821 0.1052017 0.1546904 -0.1818101 -0.98332 0.005192323 0.245600 0.415900
-1.613621 0.1052017 -0.4303985 -0.8991454 -0.3201106 -0.2984408 0.248000 0.429900
-1.365465 0.1052017 -0.962652 -0.6497037 -0.5599177 -0.5141762 0.255200 0.442200
-0.9501872 0.1052017 -1.378026 -0.4345613 -0.5599266 -0.7054352 0.266100 0.451400
-0.4178883 0.1052017 -1.626164 -0.1670849 -0.5599159 -0.8115276 0.279400 0.456200
0.1671769 0.1052017 -1.67735 0.1204519 -0.5599158 -0.8197473 0.293700 0.456200
0.7344776 0.1052017 -1.525416 0.3936413 -0.5599266 -0.7290602 0.307000 0.451400
1.215576 0.1052017 -1.188464 0.6192291 -0.5599134 -0.550502 0.318000 0.442200
1.552485 0.1052017 -0.7073971 0.7701558 -0.5599215 -0.3055288 0.325100 0.429900
1.704508 0.1052017 -0.1400879 0.8282085 -0.5599208 -0.0236528 0.327500 0.415900
1.653307 0.1052017 0.445001 0.7863353 -0.5599215 0.2610837 0.325100 0.401900
1.405052 0.1052017 0.9772633 0.649634 -0.5599173 0.5142649 0.318000 0.389500
0.9897658 0.1052017 1.392538 0.4346098 -0.5599179 0.7054121 0.307000 0.380400
0.4574755 0.1052017 1.640775 0.1671269 -0.5599207 0.8115156 0.293700 0.375500
-0.1275897 0.1052017 1.691962 -0.1205395 -0.5599207 0.8197311 0.279400 0.375500
-0.6948991 0.1052017 1.539927 -0.3936186 -0.5599179 0.7290792 0.266100 0.380400
-1.175988 0.1052017 1.203075 -0.6192557 -0.5599217 0.5504636 0.255200 0.389500
-1.512799 0.1052017 0.7219996 -0.8806328 -0.3201106 0.3493067 0.248000 0.401900
-1.664821 1.786602 0.1546904 -0.1799496 0.9833199 0.02645757 0.470700 0.193000
-1.512799 1.786602 0.7219996 -0.8336616 0.3201106 0.4500419 0.473200 0.179000
-1.175988 1.786602 1.203075 -0.5504914 0.5599217 0.619231 0.480300 0.166600
-0.6948991 1.786602 1.539927 -0.3055135 0.5599179 0.7701646 0.491200 0.157500
-0.1275897 1.786602 1.691962 -0.02366943 0.5599207 0.8282081 0.504500 0.152600
0.4574755 1.786602 1.640775 0.2610531 0.5599207 0.7863461 0.518800 0.152600
0.9897658 1.786602 1.392538 0.5142419 0.5599179 0.6496516 0.532200 0.157500
1.405052 1.786602 0.9772633 0.7053944 0.5599173 0.4346393 0.543100 0.166600
1.653307 1.786602 0.445001 0.81151 0.5599215 0.1671509 0.550200 0.179000
1.704508 1.786602 -0.1400879 0.8197334 0.5599208 -0.1205236 0.552600 0.193000
1.552485 1.786602 -0.7073971 0.7290524 0.5599215 -0.393663 0.550200 0.207000
1.215576 1.786602 -1.188464 0.5505193 0.5599133 -0.6192137 0.543100 0.219300
0.7344776 1.786602 -1.525416 0.3054617 0.5599266 -0.7701789 0.532200 0.228500
0.1671769 1.786602 -1.67735 0.02362599 0.5599158 -0.8282126 0.518800 0.233300
-0.4178883 1.786602 -1.626164 -0.2609697 0.5599159 -0.7863772 0.504500 0.233300
-0.9501872 1.786602 -1.378026 -0.5142611 0.5599266 -0.649629 0.491200 0.228500
-1.365465 1.786602 -0.962652 -0.7054558 0.5599178 -0.4345392 0.480300 0.219300
-1.613621 1.786602 -0.4303985 -0.9279105 0.3201106 -0.1910795 0.473200 0.207000
1.4106 28.64464 1.3713 0.8164966 0.4082483 0.4082483 0.709300 0.079500
1.4106 27.00594 1.3713 0.4082483 -0.4082483 0.8164966 0.709300 0.150700
1.4106 27.00594 -1.4181 0.6666667 -0.6666667 -0.3333333 0.591300 0.150700
1.4106 28.64464 -1.4181 0.3333333 0.6666667 -0.6666667 0.591300 0.079500
-1.3787 27.00594 -1.4181 -0.4082483 -0.4082483 -0.8164966 0.473300 0.150700
-1.3787 28.64464 -1.4181 -0.8164966 0.4082483 -0.4082483 0.473300 0.079500
-1.3787 28.64464 -1.4181 -0.8164966 0.4082483 -0.4082483 0.945300 0.079500
-1.3787 27.00594 -1.4181 -0.4082483 -0.4082483 -0.8164966 0.945300 0.150700
-1.3787 27.00594 1.3713 -0.6666667 -0.6666667 0.3333333 0.827300 0.150700
-1.3787 28.64464 1.3713 -0.3333333 0.6666667 0.6666667 0.827300 0.079500
3 0 1 2 
3 0 2 3 
3 3 2 4 
3 3 4 5 
3 5 4 6 
3 5 6 7 
3 7 6 8 
3 7 8 9 
3 9 8 10 
3 9 10 11 
3 688 689 12 
3 688 12 13 
3 13 12 14 
3 13 14 15 
3 15 14 16 
3 15 16 17 
3 17 16 18 
3 17 18 19 
3 19 18 20 
3 19 20 21 
3 21 20 22 
3 21 22 23 
3 23 22 24 
3 23 24 25 
3 25 24 26 
3 25 26 27 
3 27 26 28 
3 27 28 29 
3 29 28 30 
3 29 30 31 
3 31 30 32 
3 31 32 33 
3 33 32 34 
3 33 34 35 
3 35 34 1 
3 35 1 0 
3 690 691 692 
3 690 692 693 
3 690 693 694 
3 690 694 695 
3 690 695 696 
3 690 696 697 
3 690 697 698 
3 690 698 699 
3 690 699 700 
3 690 700 701 
3 690 701 702 
3 690 702 703 
3 690 703 704 
3 690 704 705 
3 690 705 706 
3 690 706 707 
3 36 37 38 
3 36 38 39 
3 40 41 37 
3 40 37 36 
3 42 43 41 
3 42 41 40 
3 44 45 43 
3 44 43 42 
3 46 45 44 
3 46 44 47 
3 48 46 47 
3 48 47 49 
3 50 48 49 
3 50 49 51 
3 52 36 39 
3 52 39 53 
3 54 40 36 
3 54 36 52 
3 55 42 40 
3 55 40 54 
3 56 44 42 
3 56 42 55 
3 47 44 56 
3 47 56 57 
3 49 47 57 
3 49 57 58 
3 51 49 58 
3 51 58 59 
3 60 52 53 
3 60 53 61 
3 62 54 52 
3 62 52 60 
3 63 55 54 
3 63 54 62 
3 64 56 55 
3 64 55 63 
3 57 56 64 
3 57 64 65 
3 58 57 65 
3 58 65 66 
3 59 58 66 
3 59 66 67 
3 68 60 61 
3 68 61 69 
3 70 62 60 
3 70 60 68 
3 71 63 62 
3 71 62 70 
3 72 64 63 
3 72 63 71 
3 73 65 64 
3 73 64 72 
3 74 66 65 
3 74 65 73 
3 75 67 66 
3 75 66 74 
3 68 69 76 
3 68 76 77 
3 70 68 77 
3 70 77 78 
3 71 70 78 
3 71 78 79 
3 80 72 71 
3 80 71 79 
3 81 73 72 
3 81 72 80 
3 82 74 73 
3 82 73 81 
3 83 75 74 
3 83 74 82 
3 77 76 84 
3 77 84 85 
3 78 77 85 
3 78 85 86 
3 79 78 86 
3 79 86 87 
3 88 80 79 
3 88 79 87 
3 89 81 80 
3 89 80 88 
3 90 82 81 
3 90 81 89 
3 91 83 82 
3 91 82 90 
3 85 84 92 
3 85 92 93 
3 86 85 93 
3 86 93 94 
3 87 86 94 
3 87 94 95 
3 96 88 87 
3 96 87 95 
3 97 89 88 
3 97 88 96 
3 98 90 89 
3 98 89 97 
3 99 91 90 
3 99 90 98 
3 100 101 38 
3 100 38 37 
3 102 100 37 
3 102 37 41 
3 103 102 41 
3 103 41 43 
3 103 43 45 
3 103 45 104 
3 104 45 46 
3 104 46 105 
3 105 46 48 
3 105 48 106 
3 106 48 50 
3 106 50 107 
3 108 109 101 
3 108 101 100 
3 108 100 102 
3 108 102 110 
3 110 102 103 
3 110 103 111 
3 112 111 103 
3 112 103 104 
3 113 112 104 
3 113 104 105 
3 114 113 105 
3 114 105 106 
3 114 106 107 
3 114 107 115 
3 116 109 108 
3 116 108 117 
3 117 108 110 
3 117 110 118 
3 118 110 111 
3 118 111 119 
3 112 120 119 
3 112 119 111 
3 121 120 112 
3 121 112 113 
3 122 121 113 
3 122 113 114 
3 123 122 114 
3 123 114 115 
3 124 116 117 
3 124 117 125 
3 125 117 118 
3 125 118 126 
3 126 118 119 
3 126 119 127 
3 119 120 128 
3 119 128 127 
3 129 128 120 
3 129 120 121 
3 130 129 121 
3 130 121 122 
3 131 130 122 
3 131 122 123 
3 132 107 50 
3 132 50 51 
3 133 132 51 
3 133 51 59 
3 134 133 59 
3 134 59 67 
3 134 67 75 
3 134 75 135 
3 135 75 83 
3 135 83 136 
3 136 83 91 
3 136 91 137 
3 137 91 99 
3 137 99 138 
3 115 107 132 
3 115 132 139 
3 139 132 133 
3 139 133 140 
3 140 133 134 
3 140 134 141 
3 142 141 134 
3 142 134 135 
3 143 142 135 
3 143 135 136 
3 144 143 136 
3 144 136 137 
3 145 144 137 
3 145 137 138 
3 123 115 139 
3 123 139 146 
3 146 139 140 
3 146 140 147 
3 147 140 141 
3 147 141 148 
3 149 148 141 
3 149 141 142 
3 150 149 142 
3 150 142 143 
3 151 150 143 
3 151 143 144 
3 152 151 144 
3 152 144 145 
3 131 123 146 
3 131 146 153 
3 153 146 147 
3 153 147 154 
3 154 147 148 
3 154 148 155 
3 156 155 148 
3 156 148 149 
3 157 156 149 
3 157 149 150 
3 158 157 150 
3 158 150 151 
3 159 158 151 
3 159 151 152 
3 160 138 99 
3 160 99 98 
3 161 160 98 
3 161 98 97 
3 162 161 97 
3 162 97 96 
3 163 162 96 
3 163 96 95 
3 163 95 94 
3 163 94 164 
3 164 94 93 
3 164 93 165 
3 165 93 92 
3 165 92 166 
3 167 145 138 
3 167 138 160 
3 167 160 161 
3 167 161 168 
3 168 161 162 
3 168 162 169 
3 170 169 162 
3 170 162 163 
3 171 170 163 
3 171 163 164 
3 172 171 164 
3 172 164 165 
3 172 165 166 
3 172 166 173 
3 152 145 167 
3 152 167 174 
3 174 167 168 
3 174 168 175 
3 175 168 169 
3 175 169 176 
3 170 177 176 
3 170 176 169 
3 178 177 170 
3 178 170 171 
3 179 178 171 
3 179 171 172 
3 180 179 172 
3 180 172 173 
3 159 152 174 
3 159 174 181 
3 181 174 175 
3 181 175 182 
3 182 175 176 
3 182 176 183 
3 176 177 184 
3 176 184 183 
3 185 184 177 
3 185 177 178 
3 186 185 178 
3 186 178 179 
3 187 186 179 
3 187 179 180 
3 188 166 92 
3 188 92 84 
3 189 188 84 
3 189 84 76 
3 190 189 76 
3 190 76 69 
3 191 190 69 
3 191 69 61 
3 191 61 53 
3 191 53 192 
3 192 53 39 
3 192 39 193 
3 193 39 38 
3 193 38 101 
3 173 166 188 
3 173 188 194 
3 194 188 189 
3 194 189 195 
3 195 189 190 
3 195 190 196 
3 197 196 190 
3 197 190 191 
3 198 197 191 
3 198 191 192 
3 199 198 192 
3 199 192 193 
3 109 199 193 
3 109 193 101 
3 180 173 194 
3 180 194 200 
3 200 194 195 
3 200 195 201 
3 201 195 196 
3 201 196 202 
3 203 202 196 
3 203 196 197 
3 204 203 197 
3 204 197 198 
3 205 204 198 
3 205 198 199 
3 116 205 199 
3 116 199 109 
3 187 180 200 
3 187 200 206 
3 206 200 201 
3 206 201 207 
3 207 201 202 
3 207 202 208 
3 209 208 202 
3 209 202 203 
3 210 209 203 
3 210 203 204 
3 211 210 204 
3 211 204 205 
3 124 211 205 
3 124 205 116 
3 212 213 214 
3 212 214 215 
3 213 216 217 
3 213 217 214 
3 216 218 219 
3 216 219 217 
3 220 221 219 
3 220 219 218 
3 222 223 221 
3 222 221 220 
3 224 225 223 
3 224 223 222 
3 226 227 225 
3 226 225 224 
3 215 214 228 
3 215 228 229 
3 214 217 230 
3 214 230 228 
3 217 219 231 
3 217 231 230 
3 232 231 219 
3 232 219 221 
3 223 233 232 
3 223 232 221 
3 225 234 233 
3 225 233 223 
3 227 235 234 
3 227 234 225 
3 229 228 236 
3 229 236 237 
3 228 230 238 
3 228 238 236 
3 230 231 239 
3 230 239 238 
3 240 239 231 
3 240 231 232 
3 233 241 240 
3 233 240 232 
3 234 242 241 
3 234 241 233 
3 235 243 242 
3 235 242 234 
3 237 236 244 
3 237 244 245 
3 236 238 246 
3 236 246 244 
3 238 239 247 
3 238 247 246 
3 248 247 239 
3 248 239 240 
3 240 241 249 
3 240 249 248 
3 241 242 250 
3 241 250 249 
3 242 243 251 
3 242 251 250 
3 244 252 253 
3 244 253 245 
3 246 254 252 
3 246 252 244 
3 247 255 254 
3 247 254 246 
3 256 255 247 
3 256 247 248 
3 248 249 257 
3 248 257 256 
3 249 250 258 
3 249 258 257 
3 250 251 259 
3 250 259 258 
3 252 260 261 
3 252 261 253 
3 254 262 260 
3 254 260 252 
3 255 263 262 
3 255 262 254 
3 264 263 255 
3 264 255 256 
3 256 257 265 
3 256 265 264 
3 257 258 266 
3 257 266 265 
3 258 259 267 
3 258 267 266 
3 260 268 269 
3 260 269 261 
3 262 270 268 
3 262 268 260 
3 263 271 270 
3 263 270 262 
3 272 271 263 
3 272 263 264 
3 264 265 273 
3 264 273 272 
3 265 266 274 
3 265 274 273 
3 266 267 275 
3 266 275 274 
3 212 276 277 
3 212 277 213 
3 213 277 278 
3 213 278 216 
3 216 278 279 
3 216 279 218 
3 218 279 280 
3 218 280 220 
3 280 281 222 
3 280 222 220 
3 281 282 224 
3 281 224 222 
3 282 283 226 
3 282 226 224 
3 276 284 285 
3 276 285 277 
3 285 286 278 
3 285 278 277 
3 286 287 279 
3 286 279 278 
3 279 287 288 
3 279 288 280 
3 280 288 289 
3 280 289 281 
3 281 289 290 
3 281 290 282 
3 290 291 283 
3 290 283 282 
3 292 293 285 
3 292 285 284 
3 293 294 286 
3 293 286 285 
3 294 295 287 
3 294 287 286 
3 287 295 296 
3 287 296 288 
3 288 296 297 
3 288 297 289 
3 289 297 298 
3 289 298 290 
3 290 298 299 
3 290 299 291 
3 300 301 293 
3 300 293 292 
3 301 302 294 
3 301 294 293 
3 302 303 295 
3 302 295 294 
3 295 303 304 
3 295 304 296 
3 296 304 305 
3 296 305 297 
3 297 305 306 
3 297 306 298 
3 298 306 307 
3 298 307 299 
3 226 283 308 
3 226 308 227 
3 227 308 309 
3 227 309 235 
3 235 309 310 
3 235 310 243 
3 243 310 311 
3 243 311 251 
3 311 312 259 
3 311 259 251 
3 312 313 267 
3 312 267 259 
3 313 314 275 
3 313 275 267 
3 291 315 308 
3 291 308 283 
3 315 316 309 
3 315 309 308 
3 316 317 310 
3 316 310 309 
3 310 317 318 
3 310 318 311 
3 311 318 319 
3 311 319 312 
3 312 319 320 
3 312 320 313 
3 313 320 321 
3 313 321 314 
3 299 322 315 
3 299 315 291 
3 322 323 316 
3 322 316 315 
3 323 324 317 
3 323 317 316 
3 317 324 325 
3 317 325 318 
3 318 325 326 
3 318 326 319 
3 319 326 327 
3 319 327 320 
3 320 327 328 
3 320 328 321 
3 307 329 322 
3 307 322 299 
3 329 330 323 
3 329 323 322 
3 330 331 324 
3 330 324 323 
3 324 331 332 
3 324 332 325 
3 325 332 333 
3 325 333 326 
3 326 333 334 
3 326 334 327 
3 327 334 335 
3 327 335 328 
3 275 314 336 
3 275 336 274 
3 274 336 337 
3 274 337 273 
3 273 337 338 
3 273 338 272 
3 272 338 339 
3 272 339 271 
3 339 340 270 
3 339 270 271 
3 340 341 268 
3 340 268 270 
3 341 342 269 
3 341 269 268 
3 314 321 343 
3 314 343 336 
3 343 344 337 
3 343 337 336 
3 344 345 338 
3 344 338 337 
3 338 345 346 
3 338 346 339 
3 339 346 347 
3 339 347 340 
3 340 347 348 
3 340 348 341 
3 348 349 342 
3 348 342 341 
3 328 350 343 
3 328 343 321 
3 350 351 344 
3 350 344 343 
3 351 352 345 
3 351 345 344 
3 345 352 353 
3 345 353 346 
3 346 353 354 
3 346 354 347 
3 347 354 355 
3 347 355 348 
3 348 355 356 
3 348 356 349 
3 335 357 350 
3 335 350 328 
3 357 358 351 
3 357 351 350 
3 358 359 352 
3 358 352 351 
3 352 359 360 
3 352 360 353 
3 353 360 361 
3 353 361 354 
3 354 361 362 
3 354 362 355 
3 355 362 363 
3 355 363 356 
3 269 342 364 
3 269 364 261 
3 261 364 365 
3 261 365 253 
3 253 365 366 
3 253 366 245 
3 245 366 367 
3 245 367 237 
3 367 368 229 
3 367 229 237 
3 368 369 215 
3 368 215 229 
3 369 276 212 
3 369 212 215 
3 349 370 364 
3 349 364 342 
3 370 371 365 
3 370 365 364 
3 371 372 366 
3 371 366 365 
3 366 372 373 
3 366 373 367 
3 367 373 374 
3 367 374 368 
3 368 374 375 
3 368 375 369 
3 369 375 284 
3 369 284 276 
3 356 376 370 
3 356 370 349 
3 376 377 371 
3 376 371 370 
3 377 378 372 
3 377 372 371 
3 372 378 379 
3 372 379 373 
3 373 379 380 
3 373 380 374 
3 374 380 381 
3 374 381 375 
3 375 381 292 
3 375 292 284 
3 363 382 376 
3 363 376 356 
3 382 383 377 
3 382 377 376 
3 383 384 378 
3 383 378 377 
3 378 384 385 
3 378 385 379 
3 379 385 386 
3 379 386 380 
3 380 386 387 
3 380 387 381 
3 381 387 300 
3 381 300 292 
3 708 709 710 
3 708 710 711 
3 708 711 712 
3 708 712 713 
3 714 713 712 
3 714 712 715 
3 388 389 390 
3 388 390 391 
3 716 717 718 
3 716 718 719 
3 720 719 718 
3 720 718 721 
3 720 721 722 
3 720 722 723 
3 724 723 722 
3 724 722 725 
3 724 725 726 
3 724 726 727 
3 727 726 728 
3 727 728 729 
3 392 393 394 
3 392 394 395 
3 730 731 732 
3 730 732 733 
3 734 730 733 
3 734 733 735 
3 734 735 736 
3 734 736 737 
3 738 737 736 
3 738 736 739 
3 738 739 740 
3 738 740 741 
3 742 741 740 
3 742 740 743 
3 396 397 398 
3 396 398 399 
3 744 745 746 
3 744 746 747 
3 748 747 746 
3 748 746 749 
3 748 749 750 
3 748 750 751 
3 752 751 750 
3 752 750 753 
3 752 753 754 
3 752 754 755 
3 755 754 756 
3 755 756 757 
3 400 401 402 
3 400 402 403 
3 758 759 760 
3 758 760 761 
3 762 758 761 
3 762 761 763 
3 762 763 710 
3 762 710 709 
3 404 405 764 
3 404 764 765 
3 716 406 766 
3 716 766 717 
3 407 767 768 
3 407 768 769 
3 714 715 770 
3 714 770 771 
3 408 409 772 
3 408 772 773 
3 731 410 774 
3 731 774 732 
3 411 775 776 
3 411 776 777 
3 729 728 778 
3 729 778 779 
3 412 413 780 
3 412 780 781 
3 744 414 782 
3 744 782 745 
3 415 783 784 
3 415 784 785 
3 742 743 786 
3 742 786 787 
3 416 417 788 
3 416 788 789 
3 759 418 790 
3 759 790 760 
3 419 791 792 
3 419 792 793 
3 757 756 794 
3 757 794 795 
3 796 405 404 
3 796 404 797 
3 390 389 766 
3 390 766 406 
3 798 767 407 
3 798 407 799 
3 391 800 801 
3 391 801 388 
3 802 409 408 
3 802 408 803 
3 392 395 774 
3 392 774 410 
3 804 775 411 
3 804 411 805 
3 806 779 778 
3 806 778 807 
3 808 413 412 
3 808 412 809 
3 398 397 782 
3 398 782 414 
3 810 783 415 
3 810 415 811 
3 812 787 786 
3 812 786 813 
3 814 417 416 
3 814 416 815 
3 400 403 790 
3 400 790 418 
3 816 791 419 
3 816 419 817 
3 401 818 819 
3 401 819 402 
3 420 421 422 
3 420 422 423 
3 424 420 423 
3 424 423 425 
3 426 424 425 
3 426 425 427 
3 428 426 427 
3 428 427 429 
3 430 428 429 
3 430 429 431 
3 432 430 431 
3 432 431 433 
3 434 432 433 
3 434 433 435 
3 436 434 435 
3 436 435 437 
3 438 436 437 
3 438 437 439 
3 440 438 439 
3 440 439 441 
3 442 440 441 
3 442 441 443 
3 444 442 443 
3 444 443 445 
3 446 444 445 
3 446 445 447 
3 448 446 447 
3 448 447 449 
3 450 448 449 
3 450 449 451 
3 820 450 451 
3 820 451 821 
3 422 452 453 
3 422 453 423 
3 454 822 821 
3 454 821 451 
3 451 449 455 
3 451 455 454 
3 449 447 456 
3 449 456 455 
3 457 456 447 
3 457 447 445 
3 458 457 445 
3 458 445 443 
3 459 458 443 
3 459 443 441 
3 439 460 459 
3 439 459 441 
3 437 461 460 
3 437 460 439 
3 462 461 437 
3 462 437 435 
3 435 433 463 
3 435 463 462 
3 433 431 464 
3 433 464 463 
3 465 464 431 
3 465 431 429 
3 466 465 429 
3 466 429 427 
3 467 466 427 
3 467 427 425 
3 423 453 467 
3 423 467 425 
3 421 420 468 
3 421 468 469 
3 420 424 470 
3 420 470 468 
3 471 470 424 
3 471 424 426 
3 472 471 426 
3 472 426 428 
3 473 472 428 
3 473 428 430 
3 432 474 473 
3 432 473 430 
3 434 475 474 
3 434 474 432 
3 476 475 434 
3 476 434 436 
3 436 438 477 
3 436 477 476 
3 438 440 478 
3 438 478 477 
3 479 478 440 
3 479 440 442 
3 480 479 442 
3 480 442 444 
3 481 480 444 
3 481 444 446 
3 448 482 481 
3 448 481 446 
3 450 483 482 
3 450 482 448 
3 823 483 450 
3 823 450 820 
3 482 483 824 
3 482 824 825 
3 481 482 825 
3 481 825 826 
3 480 481 826 
3 480 826 827 
3 480 827 828 
3 480 828 479 
3 478 479 828 
3 478 828 829 
3 477 478 829 
3 477 829 830 
3 476 477 830 
3 476 830 831 
3 475 476 831 
3 475 831 832 
3 474 475 832 
3 474 832 833 
3 473 474 833 
3 473 833 834 
3 472 473 834 
3 472 834 835 
3 472 835 836 
3 472 836 471 
3 470 471 836 
3 470 836 837 
3 468 470 837 
3 468 837 838 
3 469 468 838 
3 469 838 839 
3 483 823 840 
3 483 840 824 
3 484 485 486 
3 484 486 487 
3 488 484 487 
3 488 487 489 
3 490 488 489 
3 490 489 491 
3 492 490 491 
3 492 491 493 
3 494 492 493 
3 494 493 495 
3 496 494 495 
3 496 495 497 
3 498 496 497 
3 498 497 499 
3 500 498 499 
3 500 499 501 
3 502 500 501 
3 502 501 503 
3 504 502 503 
3 504 503 505 
3 506 504 505 
3 506 505 507 
3 508 506 507 
3 508 507 509 
3 510 508 509 
3 510 509 511 
3 512 510 511 
3 512 511 513 
3 514 512 513 
3 514 513 515 
3 841 514 515 
3 841 515 842 
3 486 516 517 
3 486 517 487 
3 518 843 842 
3 518 842 515 
3 515 513 519 
3 515 519 518 
3 513 511 520 
3 513 520 519 
3 521 520 511 
3 521 511 509 
3 522 521 509 
3 522 509 507 
3 523 522 507 
3 523 507 505 
3 503 524 523 
3 503 523 505 
3 501 525 524 
3 501 524 503 
3 526 525 501 
3 526 501 499 
3 499 497 527 
3 499 527 526 
3 497 495 528 
3 497 528 527 
3 529 528 495 
3 529 495 493 
3 530 529 493 
3 530 493 491 
3 531 530 491 
3 531 491 489 
3 487 517 531 
3 487 531 489 
3 485 484 532 
3 485 532 533 
3 484 488 534 
3 484 534 532 
3 535 534 488 
3 535 488 490 
3 536 535 490 
3 536 490 492 
3 537 536 492 
3 537 492 494 
3 496 538 537 
3 496 537 494 
3 498 539 538 
3 498 538 496 
3 540 539 498 
3 540 498 500 
3 500 502 541 
3 500 541 540 
3 502 504 542 
3 502 542 541 
3 543 542 504 
3 543 504 506 
3 544 543 506 
3 544 506 508 
3 545 544 508 
3 545 508 510 
3 512 546 545 
3 512 545 510 
3 514 547 546 
3 514 546 512 
3 844 547 514 
3 844 514 841 
3 546 547 845 
3 546 845 846 
3 545 546 846 
3 545 846 847 
3 544 545 847 
3 544 847 848 
3 544 848 849 
3 544 849 543 
3 542 543 849 
3 542 849 850 
3 541 542 850 
3 541 850 851 
3 540 541 851 
3 540 851 852 
3 539 540 852 
3 539 852 853 
3 538 539 853 
3 538 853 854 
3 537 538 854 
3 537 854 855 
3 536 537 855 
3 536 855 856 
3 536 856 857 
3 536 857 535 
3 534 535 857 
3 534 857 858 
3 532 534 858 
3 532 858 859 
3 533 532 859 
3 533 859 860 
3 547 844 861 
3 547 861 845 
3 548 549 550 
3 548 550 551 
3 551 550 552 
3 551 552 553 
3 553 552 554 
3 553 554 555 
3 555 554 556 
3 555 556 557 
3 557 556 558 
3 557 558 559 
3 862 863 560 
3 862 560 561 
3 561 560 562 
3 561 562 563 
3 563 562 564 
3 563 564 565 
3 565 564 566 
3 565 566 567 
3 567 566 568 
3 567 568 569 
3 569 568 570 
3 569 570 571 
3 571 570 572 
3 571 572 573 
3 573 572 574 
3 573 574 575 
3 575 574 576 
3 575 576 577 
3 577 576 578 
3 577 578 579 
3 579 578 580 
3 579 580 581 
3 581 580 582 
3 581 582 583 
3 583 582 549 
3 583 549 548 
3 864 865 866 
3 864 866 867 
3 864 867 868 
3 864 868 869 
3 864 869 870 
3 864 870 871 
3 864 871 872 
3 864 872 873 
3 864 873 874 
3 864 874 875 
3 864 875 876 
3 864 876 877 
3 864 877 878 
3 864 878 879 
3 864 879 880 
3 864 880 881 
3 882 883 884 
3 882 884 885 
3 882 885 886 
3 882 886 887 
3 882 887 888 
3 882 888 889 
3 882 889 890 
3 882 890 891 
3 882 891 892 
3 882 892 893 
3 882 893 894 
3 882 894 895 
3 882 895 896 
3 882 896 897 
3 882 897 898 
3 882 898 899 
3 584 585 586 
3 585 587 586 
3 587 588 586 
3 588 584 586 
3 589 590 591 
3 590 592 591 
3 592 593 591 
3 593 589 591 
3 594 595 596 
3 595 597 596 
3 597 598 596 
3 598 594 596 
3 599 600 601 
3 600 602 601 
3 602 603 601 
3 603 599 601 
3 604 605 606 
3 604 606 607 
3 607 606 608 
3 607 608 609 
3 609 608 610 
3 609 610 611 
3 611 610 612 
3 611 612 613 
3 613 612 614 
3 613 614 615 
3 900 901 616 
3 900 616 617 
3 617 616 618 
3 617 618 619 
3 619 618 620 
3 619 620 621 
3 621 620 622 
3 621 622 623 
3 623 622 624 
3 623 624 625 
3 625 624 626 
3 625 626 627 
3 627 626 628 
3 627 628 629 
3 629 628 630 
3 629 630 631 
3 631 630 632 
3 631 632 633 
3 633 632 634 
3 633 634 635 
3 635 634 636 
3 635 636 637 
3 637 636 638 
3 637 638 639 
3 639 638 605 
3 639 605 604 
3 902 903 904 
3 902 904 905 
3 902 905 906 
3 902 906 907 
3 902 907 908 
3 902 908 909 
3 902 909 910 
3 902 910 911 
3 902 911 912 
3 902 912 913 
3 902 913 914 
3 902 914 915 
3 902 915 916 
3 902 916 917 
3 902 917 918 
3 902 918 919 
3 920 921 922 
3 920 922 923 
3 920 923 924 
3 920 924 925 
3 920 925 926 
3 920 926 927 
3 920 927 928 
3 920 928 929 
3 920 929 930 
3 920 930 931 
3 920 931 932 
3 920 932 933 
3 920 933 934 
3 920 934 935 
3 920 935 936 
3 920 936 937 
3 640 641 642 
3 641 643 642 
3 643 644 642 
3 644 640 642 
3 645 646 647 
3 646 648 647 
3 648 649 647 
3 649 645 647 
3 650 651 652 
3 651 653 652 
3 653 654 652 
3 654 650 652 
3 655 656 657 
3 656 658 657 
3 658 659 657 
3 659 655 657 
3 660 661 662 
3 660 662 663 
3 664 665 666 
3 664 666 667 
3 938 939 940 
3 938 940 941 
3 941 940 942 
3 941 942 943 
3 944 945 946 
3 944 946 947 
3 947 946 939 
3 947 939 938 
3 668 669 670 
3 669 671 670 
3 671 672 670 
3 672 668 670 
3 673 674 675 
3 674 676 675 
3 676 677 675 
3 677 673 675 
3 678 679 680 
3 679 681 680 
3 681 682 680 
3 682 678 680 
3 683 684 685 
3 684 686 685 
3 686 687 685 
3 687 683 685 
